8.346100000000000136424205265939e+02,2.680183075533941750023814165615e-01,4.090914107463180000000000000000e+16,9.999999999999999635896294965248e+30,1.032050930620786733925342559814e+06
8.442799999999999727151589468122e+02,2.665583565511627228694635505235e-01,4.165329251514558400000000000000e+16,1.024130049842951555557272374477e+31,6.733430909121055155992507934570e+05
8.541800000000000636646291241050e+02,2.650923645792314098379449660570e-01,4.241032854938713600000000000000e+16,1.048842358991326268336533562982e+31,1.583251866990658454596996307373e+06
8.643300000000000409272615797818e+02,2.636199286335976221806731700781e-01,4.318039278486367200000000000000e+16,1.074150977391185629997765020877e+31,2.318076254066787660121917724609e+05
8.747200000000000272848410531878e+02,2.621405926116538442904868588812e-01,4.396362717944773600000000000000e+16,1.100070294014481148763403452416e+31,1.830068147452737204730510711670e+06
8.853799999999999954525264911354e+02,2.606538444998249270945223088347e-01,4.476017187807972800000000000000e+16,1.126615045039800702289979008614e+31,7.974493778861542232334613800049e+05
8.963100000000000591171556152403e+02,2.591591811556629432189424733224e-01,4.557016504446686400000000000000e+16,1.153800322230430236704182055731e+31,2.452271142541016452014446258545e+05
9.075099999999999909050529822707e+02,2.576560506863266319932392889314e-01,4.639374268774953600000000000000e+16,1.181641581514664018424809652224e+31,1.847595105250678025186061859131e+06
9.190099999999999909050529822707e+02,2.561438430987887371337308195507e-01,4.723103831897385600000000000000e+16,1.210154651773116762997299924173e+31,1.448972644097265321761369705200e+06
9.308200000000000500222085975111e+02,2.546219281941259904300522975973e-01,4.808216656292421600000000000000e+16,1.239355743838081672523509294694e+31,1.122507047481434419751167297363e+05
9.429300000000000636646291241050e+02,2.530896398274258274341264041141e-01,4.894720778877044800000000000000e+16,1.269261459710032231284934600294e+31,1.008536431505410466343164443970e+06
9.553799999999999954525264911354e+02,2.515462396778175846456804265472e-01,4.982623276311156000000000000000e+16,1.299888801996572774740441169920e+31,2.380092218961177859455347061157e+05
9.681599999999999681676854379475e+02,2.499909245288078063484960011920e-01,5.071930536406728800000000000000e+16,1.331255183579044443427699897139e+31,9.317516786553501151502132415771e+05
9.813100000000000591171556152403e+02,2.484228722941869416107607548838e-01,5.162648222989982400000000000000e+16,1.363378437512494383936062672077e+31,5.018961274851614143699407577515e+04
9.948200000000000500222085975111e+02,2.468411755011958308436703646294e-01,5.254781240102303200000000000000e+16,1.396276827164476242438448060826e+31,1.328930614433537703007459640503e+05
1.008720000000000027284841053188e+03,2.452448323757122627952753646241e-01,5.348333695563516000000000000000e+16,1.429969056598512986399775182029e+31,4.673472049968328792601823806763e+04
1.023019999999999981810105964541e+03,2.436328198179272264134453962470e-01,5.443309161910641600000000000000e+16,1.464474281208101503775477963162e+31,9.224552301235788036137819290161e+04
1.037740000000000009094947017729e+03,2.420040265156290781867198802502e-01,5.539714566162979200000000000000e+16,1.499812118607373516914180698931e+31,1.642541529618932399898767471313e+05
1.052900000000000090949470177293e+03,2.403572567480406207973686605328e-01,5.637559373424665600000000000000e+16,1.536002659784432097246496948224e+31,1.989041198050765087828040122986e+05
1.068519999999999981810105964541e+03,2.386912397037262156818115954593e-01,5.736852724724972000000000000000e+16,1.573066480523936334056136271462e+31,1.733989782859155675396323204041e+05
1.084620000000000118234311230481e+03,2.370046666333988638619700850541e-01,5.837603350009252000000000000000e+16,1.611024653105255184590314668032e+31,1.091417514901015674695372581482e+05
1.101220000000000027284841053188e+03,2.352961270877567956372189428293e-01,5.939819548589199200000000000000e+16,1.649898758282908525073617282662e+31,6.125239726796722970902919769287e+04
1.118339999999999918145476840436e+03,2.335641096558556395468286837058e-01,6.043509169254292800000000000000e+16,1.689710897556085029423537140531e+31,6.651536308155622100457549095154e+04
1.136000000000000000000000000000e+03,2.318070304549230131740955584974e-01,6.148679546197888800000000000000e+16,1.730483705734291764483965793075e+31,1.977034931178556289523839950562e+05
1.154240000000000009094947017729e+03,2.300232259884282259854160201940e-01,6.255334471939651200000000000000e+16,1.772240363806075548802413808845e+31,3.769907739214689354412257671356e+04
1.173059999999999945430317893624e+03,2.282109070669040284951023522808e-01,6.363471977777624800000000000000e+16,1.815004612118406441762931343360e+31,1.420917891711207339540123939514e+05
1.192509999999999990905052982271e+03,2.263681540847170547969824383472e-01,6.473088524332404800000000000000e+16,1.858800763874010412451795619021e+31,2.704504591990943299606442451477e+04
1.212600000000000136424205265939e+03,2.244929102010111976461814720096e-01,6.584179397880302400000000000000e+16,1.903653718954406611994278677709e+31,2.720926325579595868475735187531e+03
1.233350000000000136424205265939e+03,2.225830166590745118337935082309e-01,6.696738668423384000000000000000e+16,1.949588978076496321353225758310e+31,4.139390342555681127123534679413e+04
1.254799999999999954525264911354e+03,2.206361419979660787316078085496e-01,6.810759550206650400000000000000e+16,1.996632657290734618624952736154e+31,3.440887021655458374880254268646e+04
1.276970000000000027284841053188e+03,2.186497977225491939901047544481e-01,6.926237914584514400000000000000e+16,2.044811502829224531622427308851e+31,2.538475421924030524678528308868e+04
1.299880000000000109139364212751e+03,2.166213310361785882030005723209e-01,7.043170810866141600000000000000e+16,2.094152906311934505487194233242e+31,4.245447839533303340431302785873e+04
1.323559999999999945430317893624e+03,2.145479013498073905807927985734e-01,7.161554379860802400000000000000e+16,2.144684920320002924848381480141e+31,3.218707576166918443050235509872e+04
1.348029999999999972715158946812e+03,2.124265368976153700586451122945e-01,7.281383802167534400000000000000e+16,2.196436274344750931295462647398e+31,7.158102301836865080986171960831e+03
1.373289999999999963620211929083e+03,2.102540546123757014829180889137e-01,7.402653269332406400000000000000e+16,2.249436391121556426867462058803e+31,2.703996417563121940474957227707e+04
1.399370000000000118234311230481e+03,2.080270769764274441104845436712e-01,7.525355955007740800000000000000e+16,2.303715403357849790292383131238e+31,1.254112823741122701903805136681e+04
1.426259999999999990905052982271e+03,2.057420261603242761516696646140e-01,7.649485989242835200000000000000e+16,2.359304170864849643701035178394e+31,1.185883915262603113660588860512e+04
1.453960000000000036379788070917e+03,2.033951276395127016893837890166e-01,7.775044137843099200000000000000e+16,2.416234298102501633352289537229e+31,3.555102954301564750494435429573e+03
1.482440000000000054569682106376e+03,2.009824190745738148322629967879e-01,7.902032484993803200000000000000e+16,2.474538152147964091993909572403e+31,3.834364711113747034687548875809e+03
1.511670000000000072759576141834e+03,1.984997582586792153058752319339e-01,8.030452746320065600000000000000e+16,2.534248881097579576876598506291e+31,3.522630806802244478603824973106e+02
1.541579999999999927240423858166e+03,1.959428371215767850088695922750e-01,8.160306261011564800000000000000e+16,2.595400432912908086426219210342e+31,3.064327806350465834839269518852e+02
1.572079999999999927240423858166e+03,1.933072048105644591409202348586e-01,8.291592816158014400000000000000e+16,2.658027574721492334171314873958e+31,1.458380283753675030311569571495e+03
1.603049999999999954525264911354e+03,1.905882978933353955053320305524e-01,8.424305249711339200000000000000e+16,2.722165912583461406966988931072e+31,3.980419651290776528185233473778e+01
1.634299999999999954525264911354e+03,1.877814845531488585628210330469e-01,8.558433272345992000000000000000e+16,2.787851911734883678332374745088e+31,1.735837231743569645914249122143e+03
1.665610000000000127329258248210e+03,1.848821376017119877399608185442e-01,8.693965540850803200000000000000e+16,2.855122917319814324553332555776e+31,7.752908063704699088702909648418e+02
1.696660000000000081854523159564e+03,1.818857393848882231246477658715e-01,8.830889635677672000000000000000e+16,2.924017175622494150642441492890e+31,1.051795713916482782224193215370e+03
1.727049999999999954525264911354e+03,1.787880288427602659684367836235e-01,8.969197203886472000000000000000e+16,2.994573855811911236545901756416e+31,1.891994047910889094055164605379e+03
1.756269999999999981810105964541e+03,1.755852239386524182851445630149e-01,9.108902048328233600000000000000e+16,3.066833072211026985979509473280e+31,1.984790538960419326031114906073e+03
1.783680000000000063664629124105e+03,1.722743181660350286765748251128e-01,9.250024950535604800000000000000e+16,3.140835907103491028192604454912e+31,1.977533276875328738242387771606e+01
1.808450000000000045474735088646e+03,1.688534359075914426107090093865e-01,9.392587709315916800000000000000e+16,3.216624434090429831458714969702e+31,1.837967956368609065975761041045e+02
1.829600000000000136424205265939e+03,1.653222770469557345585087659856e-01,9.536613008037728000000000000000e+16,3.294241742011087340992876825805e+31,1.059793203147936310415389016271e+03
1.845960000000000036379788070917e+03,1.616826517677839858411203977084e-01,9.682102037572464000000000000000e+16,3.373731959440546064481102122189e+31,9.029533358946614498563576489687e+02
1.856150000000000090949470177293e+03,1.579390556015014546176189469406e-01,9.829009744428299200000000000000e+16,3.455140279778605056217306890240e+31,1.342681128673823423014255240560e+02
1.858600000000000136424205265939e+03,1.540993312116800684208328675595e-01,9.977282445495635200000000000000e+16,3.538512986944052029349703974912e+31,2.356755298795087583130225539207e+01
1.851620000000000118234311230481e+03,1.501754412962261198138946838299e-01,1.012686300436641440000000000000e+17,3.623897481688913152550012295578e+31,4.292801984411578359868144616485e+02
1.833509999999999990905052982271e+03,1.461843230341751398437821762855e-01,1.027770558836670560000000000000e+17,3.711342308547813076213410090189e+31,4.998186854798202602978562936187e+02
1.802680000000000063664629124105e+03,1.421485011638009832157791834106e-01,1.042992073787046240000000000000e+17,3.800897183437326432437952472678e+31,4.165485933074460263014771044254e+02
1.757890000000000100044417195022e+03,1.380966827396345186773629620802e-01,1.058372257790551200000000000000e+17,3.892613021921602672516285857792e+31,2.460247730113867419277084991336e+02
1.698500000000000000000000000000e+03,1.340634285984289575388572757220e-01,1.073933903216626080000000000000e+17,3.986541968159893083726523085619e+31,3.863863878074503190873656421900e+02
1.624740000000000009094947017729e+03,1.300882833448659126052149304087e-01,1.089700422914920960000000000000e+17,4.082737424552608626326419328205e+31,2.487243160898653968615690246224e+02
1.537850000000000136424205265939e+03,1.262132971069099829364290599187e-01,1.105654352902026400000000000000e+17,4.181254082102712421680493572915e+31,5.893821889796540745010133832693e+02
1.440089999999999918145476840436e+03,1.224792751536073198703746811589e-01,1.121709894088177120000000000000e+17,4.282147951509895187556417195213e+31,1.893571572853667930758092552423e+03
1.334529999999999972715158946812e+03,1.189225125458608645079294774405e-01,1.137770610069418240000000000000e+17,4.385476395014721608568529118822e+31,3.753676872167905457899905741215e+03
1.224710000000000036379788070917e+03,1.155728490869926128326028447191e-01,1.153863925813074560000000000000e+17,4.491298159011513691055767683072e+31,5.549075903506543909315951168537e+03
1.114329999999999927240423858166e+03,1.124546663979360539009633157548e-01,1.170340565428092000000000000000e+17,4.599673407448017476460855531930e+31,2.403937658576156536582857370377e+03
1.006889999999999986357579473406e+03,1.095869461724528620694130154334e-01,1.187620273849008800000000000000e+17,4.710663756031036646183484889498e+31,1.452415518196501943748444318771e+04
9.053300000000000409272615797818e+02,1.069804407681991254008835312561e-01,1.205715147703084800000000000000e+17,4.824332307257411106384152992154e+31,5.986147931938088731840252876282e+03
8.113999999999999772626324556768e+02,1.046294503220454308323184022811e-01,1.223320891256793440000000000000e+17,4.940743686290493260351205172838e+31,9.868334996359795331954956054688e+04
7.256100000000000136424205265939e+02,1.025114567233351980934941138912e-01,1.238811705324208960000000000000e+17,5.059964077701930601032111987098e+31,1.786097470615658676251769065857e+04
6.477100000000000363797880709171e+02,1.005998715330159859471237382422e-01,1.253457937954649920000000000000e+17,5.182061263100422342256185311232e+31,2.931217545358298812061548233032e+05
5.785900000000000318323145620525e+02,9.890274462220730034012206033367e-02,1.277153340627797760000000000000e+17,5.307104659668263924686588896870e+31,1.722491329807322472333908081055e+03
5.197200000000000272848410531878e+02,9.744751178100868882481222499337e-02,1.307636835750532480000000000000e+17,5.435165359627819092269796740301e+31,3.094249625186368823051452636719e+06
4.691000000000000227373675443232e+02,9.618256183628683120279134755037e-02,1.328487842731428800000000000000e+17,5.566316170660276308452691882803e+31,1.286461588370706886053085327148e+06
4.242400000000000090949470177293e+02,9.505102173223223260833947279025e-02,1.342527818020491360000000000000e+17,5.700631657299935292003941194138e+31,3.284158018392130732536315917969e+06
3.839200000000000159161572810262e+02,9.402735290977590199013036453835e-02,1.354135228386546560000000000000e+17,5.838188183326889348467731621478e+31,5.250442036023370921611785888672e+06
3.476899999999999977262632455677e+02,9.310516506115645851693329859700e-02,1.366813763503056000000000000000e+17,5.979063955183097574461848682496e+31,6.092134980656701326370239257812e+07
3.153500000000000227373675443232e+02,9.228298486104813402874924577191e-02,1.380849398997746080000000000000e+17,6.123339066435860128033236687258e+31,1.833890506141021847724914550781e+07
2.865900000000000318323145620525e+02,9.155723322743757053299162862459e-02,1.395891403982895520000000000000e+17,6.271095543314249088636815409152e+31,4.145397212693065404891967773438e+07
2.610699999999999931787897367030e+02,9.092261489978609168005618812458e-02,1.411575060887941600000000000000e+17,6.422417391344280716764025716736e+31,3.681065309951169490814208984375e+08
2.384399999999999977262632455677e+02,9.037300076720571062605102952148e-02,1.427519429126687520000000000000e+17,6.577390643109656155481424737075e+31,5.452887633610544204711914062500e+08
2.183400000000000034106051316485e+02,8.990206400523106933242445393262e-02,1.443329235014781760000000000000e+17,6.736103407164454461936317864346e+31,4.601684573597416877746582031250e+08
2.004300000000000068212102632970e+02,8.950384226986854430130335913418e-02,1.458781687337567680000000000000e+17,6.898645918126608212204002580890e+31,3.190685874633739471435546875000e+09
1.844399999999999977262632455677e+02,8.917330678634843854624136838538e-02,1.473942691938968960000000000000e+17,7.065110587979876831583462123110e+31,1.923271584782222747802734375000e+09
1.701100000000000136424205265939e+02,8.890628961487655190776280278442e-02,1.488907541825456960000000000000e+17,7.235592058613795511342499836723e+31,1.302082116172333526611328125000e+10
1.572500000000000000000000000000e+02,8.869929670972105661963524880775e-02,1.503775943723736640000000000000e+17,7.410187255631349590330798243840e+31,2.152346674962208557128906250000e+10
1.456800000000000068212102632970e+02,8.854937778249998003854415173919e-02,1.518651918860883520000000000000e+17,7.588995443455337549619000455987e+31,4.260411535598399353027343750000e+10
1.352599999999999909050529822707e+02,8.845394235757313150525504852340e-02,1.533637072045101440000000000000e+17,7.772118281763846237086552581734e+31,5.132611699238327026367187500000e+09
1.258400000000000034106051316485e+02,8.841065636233352842410226912762e-02,1.548766089532492480000000000000e+17,7.959659883288122625364351516672e+31,1.219792878667714233398437500000e+11
1.173299999999999982946974341758e+02,8.841738614188961176143521925042e-02,1.564032198533316480000000000000e+17,8.151726873004806851847422948147e+31,1.113271618567198486328125000000e+11
1.096200000000000045474735088646e+02,8.847218334889538071674763841656e-02,1.579427739226932160000000000000e+17,8.348428448756538625883457034650e+31,9.718673414781799316406250000000e+10
1.026200000000000045474735088646e+02,8.857329098539261369449349103888e-02,1.594944714477839680000000000000e+17,8.549876443335348107170014245683e+31,2.274206127216813964843750000000e+11
9.625000000000000000000000000000e+01,8.871912402790745055813914632381e-02,1.610574782835349760000000000000e+17,8.756185388064035893647556529357e+31,1.593661546408008789062500000000e+12
9.046000000000000795807864051312e+01,8.890826046458065456956632033325e-02,1.626309251953073280000000000000e+17,8.967472577912143773779869302784e+31,4.136217485959970703125000000000e+11
8.517000000000000170530256582424e+01,8.913943411150426765487964075874e-02,1.642139072462589760000000000000e+17,9.183858138182463975447545564365e+31,5.107427831383056640625000000000e+11
8.032999999999999829469743417576e+01,8.941151888917081569374545324536e-02,1.658054832335804480000000000000e+17,9.405465092807401534761625609830e+31,2.370606636237349609375000000000e+12
7.590000000000000568434188608080e+01,8.972353940099599134416763490663e-02,1.674046751772626560000000000000e+17,9.632419434292985794310136502682e+31,2.850201580335535156250000000000e+12
7.182999999999999829469743417576e+01,9.007464829649816651091498442838e-02,1.690104678650341440000000000000e+17,9.864850195350688727994868537754e+31,1.255369330801021875000000000000e+13
6.809999999999999431565811391920e+01,9.046411279270136218677578199276e-02,1.706219170340590720000000000000e+17,1.010288952225766895821756867543e+32,1.405632430199492187500000000000e+11
6.465000000000000568434188608080e+01,9.089132516482222035048010866376e-02,1.722388838056391040000000000000e+17,1.034667274998757714352922930708e+32,3.017666776798154687500000000000e+13
6.148000000000000397903932025656e+01,9.135576470418824146513259165658e-02,1.738616183367310720000000000000e+17,1.059633847915348555698354918523e+32,1.039794483061004687500000000000e+13
5.853999999999999914734871708788e+01,9.185699908276601099998970312299e-02,1.754903851006931520000000000000e+17,1.085202865480824446456621181174e+32,8.631435522872093750000000000000e+13
5.582999999999999829469743417576e+01,9.239466535023489746070168848746e-02,1.771254609683226560000000000000e+17,1.111388864714590338264935044219e+32,4.146093703997031250000000000000e+13
5.331000000000000227373675443232e+01,9.296847473098815428649288605811e-02,1.787671353491119680000000000000e+17,1.138206733415054646039624590295e+32,1.635403548201960625000000000000e+14
5.098000000000000397903932025656e+01,9.357819186845636738603104731737e-02,1.804157103369668160000000000000e+17,1.165671718623942986355673692897e+32,5.814333379327843750000000000000e+13
4.881000000000000227373675443232e+01,9.422363206426377646440784019433e-02,1.820715008607744320000000000000e+17,1.193799435294857544830903931372e+32,7.039239042349950000000000000000e+13
4.678999999999999914734871708788e+01,9.490466541589098747877528694517e-02,1.837348348402778880000000000000e+17,1.222605875171009731083081089024e+32,1.042797599409686250000000000000e+14
4.491000000000000369482222595252e+01,9.562120021749784259945670328307e-02,1.854060533476925120000000000000e+17,1.252107415877171593994481948426e+32,1.471175328494850000000000000000e+13
4.314999999999999857891452847980e+01,9.637318285073268042673078070948e-02,1.870855149129405120000000000000e+17,1.282320830230995953529812093501e+32,3.585066820493150000000000000000e+14
4.150999999999999801048033987172e+01,9.716058989980491666926809557481e-02,1.887737524653093120000000000000e+17,1.313263295779124700755067278459e+32,3.882091943525935000000000000000e+14
3.996999999999999886313162278384e+01,9.798342625289807594768376475258e-02,1.904715283541272640000000000000e+17,1.344952404563193789186657264599e+32,2.270700000662461000000000000000e+15
3.853999999999999914734871708788e+01,9.884171491212466464926222897702e-02,1.921796463935005120000000000000e+17,1.377406173121700925969162368451e+32,4.340397784240570000000000000000e+14
3.718999999999999772626324556768e+01,9.973548817691847701016882865588e-02,1.938989387174722560000000000000e+17,1.410643052733116683572519895040e+32,2.116809082723022000000000000000e+15
3.592999999999999971578290569596e+01,1.006647973818622227026864379695e-01,1.956302662322627520000000000000e+17,1.444681939906180000493082519798e+32,8.275989317243580000000000000000e+14
3.474000000000000198951966012828e+01,1.016296884865841576583989080973e-01,1.973745191057643520000000000000e+17,1.479542187123327866498260328776e+32,4.032711218662692000000000000000e+15
3.363000000000000255795384873636e+01,1.026302227836471264721396323694e-01,1.991326172964125760000000000000e+17,1.515243613843363191205699392635e+32,1.409523148260060000000000000000e+14
3.257999999999999829469743417576e+01,1.036664553761761364825133568957e-01,2.009055111236598080000000000000e+17,1.551806517769617436743325062267e+32,7.098150799020600000000000000000e+14
3.158999999999999985789145284798e+01,1.047384408280531420398773434499e-01,2.026941818823097280000000000000e+17,1.589251686390015375752102538117e+32,3.563527690424592000000000000000e+15
3.066000000000000014210854715202e+01,1.058462279968868657853420245374e-01,2.044995989316140800000000000000e+17,1.627600408795601197372802198405e+32,2.043620622914456000000000000000e+15
2.978000000000000113686837721616e+01,1.069898669557299286658746950707e-01,2.063219629042874560000000000000e+17,1.666874487784246953156672319652e+32,6.863339447437592000000000000000e+15
2.894999999999999928945726423990e+01,1.081694243913288444591813686202e-01,2.081607740778330880000000000000e+17,1.707096252256397100956936705147e+32,1.209280948478232000000000000000e+16
2.817000000000000170530256582424e+01,1.093850030992807170759917312353e-01,2.100154868978748160000000000000e+17,1.748288569910059770092507575091e+32,5.127106855038880000000000000000e+14
2.742000000000000170530256582424e+01,1.106367277977599455907053993542e-01,2.118855324020199680000000000000e+17,1.790474860241851848548691675709e+32,8.603120545031081600000000000000e+16
2.671999999999999886313162278384e+01,1.119247606598531841193278069113e-01,2.137703177086626240000000000000e+17,1.833679107862039359653809645158e+32,9.474071609822406400000000000000e+16
2.606000000000000227373675443232e+01,1.132492939921484198517731556421e-01,2.156692255212623680000000000000e+17,1.877925876130729167895635259556e+32,5.193417140727152000000000000000e+16
2.542999999999999971578290569596e+01,1.146105553780251556927893830107e-01,2.175816136494355200000000000000e+17,1.923240321123131864038363218575e+32,8.763457438585574400000000000000e+16
2.483000000000000184741111297626e+01,1.160088090602996585554151920405e-01,2.195068145482923200000000000000e+17,1.969648205931807032789529578701e+32,2.305816379453451520000000000000e+17
2.426999999999999957367435854394e+01,1.174443569318011498792131419577e-01,2.214441451243520640000000000000e+17,2.017175915314021521640154432799e+32,6.200638347122764800000000000000e+16
2.373000000000000042632564145606e+01,1.189175362849650280372415522834e-01,2.233932555878747840000000000000e+17,2.065850470692549848172950926131e+32,1.621540517193158400000000000000e+17
2.321999999999999886313162278384e+01,1.204287060914984858195353467636e-01,2.253542296583420480000000000000e+17,2.115699545518445842956899948954e+32,1.504274433065789440000000000000e+17
2.273000000000000042632564145606e+01,1.219782418075632257625784404809e-01,2.273271807401492480000000000000e+17,2.166751481004515665833855664783e+32,4.797338804120148480000000000000e+17
2.226999999999999957367435854394e+01,1.235665370164668042107791734452e-01,2.293122250537463360000000000000e+17,2.219035302238443550216543472189e+32,3.363186820212869120000000000000e+17
2.183000000000000184741111297626e+01,1.251940017827602447120227679989e-01,2.313094816820957120000000000000e+17,2.272580734684688803635479990764e+32,3.602496137458910720000000000000e+17
2.141000000000000014210854715202e+01,1.268610601108398905356722252691e-01,2.333190726177827840000000000000e+17,2.327418221084761863835862192620e+32,4.684044138226009600000000000000e+17
2.101000000000000156319401867222e+01,1.285681471509231843519671656395e-01,2.353411228106920320000000000000e+17,2.383578938764930564811529807462e+32,5.341158344856468480000000000000e+17
2.062999999999999900524016993586e+01,1.303157160576373652105530709377e-01,2.373757602163950400000000000000e+17,2.441094817361937549884530339348e+32,3.540444824153830400000000000000e+17
2.026000000000000156319401867222e+01,1.321042374862635149224132646850e-01,2.394231158451666240000000000000e+17,2.499998556976251603170369061519e+32,1.799032324884729856000000000000e+18
1.992000000000000170530256582424e+01,1.339341885005699561705938549494e-01,2.414833238116982720000000000000e+17,2.560323646763395285724663035986e+32,8.287371693249894400000000000000e+16
1.958000000000000184741111297626e+01,1.358060623570454816810837428420e-01,2.435565213855298880000000000000e+17,2.622104383973883336331574032466e+32,2.302941341515187200000000000000e+18
1.926999999999999957367435854394e+01,1.377203674653509624103975284015e-01,2.456428490421921600000000000000e+17,2.685375893452594527270546933023e+32,9.106248955796992000000000000000e+15
1.896000000000000085265128291212e+01,1.396776189493139086472694998520e-01,2.477424505151200960000000000000e+17,2.750174147608666278495820542116e+32,2.091663996077394944000000000000e+18
1.867000000000000170530256582424e+01,1.416783517465923236677838303876e-01,2.498554728483157760000000000000e+17,2.816535986867259660137803693425e+32,1.916509820097112064000000000000e+18
1.839000000000000056843418860808e+01,1.437231051887218613583030446534e-01,2.519820664498451520000000000000e+17,2.884499140614833165627352584028e+32,3.326706845288257536000000000000e+18
1.812000000000000099475983006414e+01,1.458124351544204388986258891237e-01,2.541223851460962560000000000000e+17,2.954102248649819802490790100337e+32,7.600859722673659904000000000000e+18
1.787000000000000099475983006414e+01,1.479469056915049818279328519566e-01,2.562765862369406080000000000000e+17,3.025384883150865418369716526776e+32,2.396705255737681920000000000000e+18
1.762000000000000099475983006414e+01,1.501270949909844776293255108612e-01,2.584448305517311040000000000000e+17,3.098387571175407676568238156677e+32,9.654200208964030464000000000000e+18
1.739000000000000056843418860808e+01,1.523535891327408020590183923559e-01,2.606272825061852160000000000000e+17,3.173151817700651637186099528335e+32,3.502964639773077504000000000000e+18
1.716000000000000014210854715202e+01,1.546269861326237948784267928204e-01,2.628241101602166080000000000000e+17,3.249720129221020556560849646387e+32,1.305458740277717401600000000000e+19
1.694999999999999928945726423990e+01,1.569478945325363805629592661717e-01,2.650354852766849600000000000000e+17,3.328136037914766563585508832707e+32,2.748761476938805248000000000000e+18
1.674000000000000198951966012828e+01,1.593169311415734978876201921594e-01,2.672615833811331840000000000000e+17,3.408444126393772267612801534525e+32,8.003752877876043776000000000000e+18
1.653999999999999914734871708788e+01,1.617347215967281093274010572713e-01,2.695025838225218240000000000000e+17,3.490690053050569308625437762519e+32,1.165896596520205516800000000000e+19
1.635000000000000142108547152020e+01,1.642019057750514487992177237174e-01,2.717586698349927360000000000000e+17,3.574920578016974559840923056865e+32,9.660779005388136448000000000000e+18
1.617000000000000170530256582424e+01,1.667191271907532412743790928289e-01,2.740300274273006080000000000000e+17,3.661183589749116870392582777078e+32,1.574322559895576576000000000000e+18
1.599000000000000021316282072803e+01,1.692870381572971483219447463853e-01,2.763168376063022400000000000000e+17,3.749528132253959421237001359196e+32,1.190560553025250099200000000000e+19
1.582000000000000028421709430404e+01,1.719063038111130203855481113351e-01,2.786192809682658560000000000000e+17,3.840004432972795665487223460987e+32,1.518428317753344000000000000000e+19
1.566000000000000014210854715202e+01,1.745775978546282858339111498935e-01,2.809375417478802560000000000000e+17,3.932663931337583773651047588823e+32,4.318461048188329984000000000000e+18
1.550000000000000000000000000000e+01,1.773015983180529497875710376320e-01,2.832718078983765120000000000000e+17,4.027559308016337586464528646799e+32,2.032368078945435648000000000000e+19
1.534999999999999964472863211995e+01,1.800789913135564246360331708274e-01,2.856222711515000640000000000000e+17,4.124744514864147321949412833362e+32,1.768625766554556825600000000000e+19
1.520000000000000106581410364015e+01,1.829104728551885494791662267744e-01,2.879891270785641920000000000000e+17,4.224274805597260048116339273892e+32,6.851362461710938931200000000000e+19
1.506000000000000049737991503207e+01,1.857967495143885428010577243185e-01,2.903725751525244800000000000000e+17,4.326206767206645449874754062254e+32,8.401458974166846668800000000000e+19
1.492999999999999971578290569596e+01,1.887385322605526494221805933194e-01,2.927728188111719680000000000000e+17,4.430598352130256003568167540490e+32,3.496547060288503808000000000000e+19
1.480000000000000071054273576010e+01,1.917365348541605063470427694483e-01,2.951900655214253440000000000000e+17,4.537508911201258087881288418591e+32,4.810550058740223180800000000000e+19
1.467999999999999971578290569596e+01,1.947914809287693560513332613482e-01,2.976245268447731840000000000000e+17,4.646999227391380454430852566221e+32,4.814801382427525120000000000000e+18
1.456000000000000049737991503207e+01,1.979040992191377357212189735947e-01,3.000764185039178240000000000000e+17,4.759131550368491173130885723587e+32,6.394283944699854848000000000000e+18
1.443999999999999950262008496793e+01,2.010751249267808959952930081272e-01,3.025459604505579520000000000000e+17,4.873969631888045952467139286794e+32,7.402125491048526643200000000000e+19
1.433000000000000007105427357601e+01,2.043052997247442603701017560525e-01,3.050333769344917120000000000000e+17,4.991578762038536402999253957345e+32,5.918916540004427366400000000000e+19
1.422000000000000063948846218409e+01,2.075953688692027121476257889299e-01,3.075388965739456000000000000000e+17,5.112025806361544554257677507625e+32,1.453765012272007086080000000000e+20
1.412000000000000099475983006414e+01,2.109460822277279545833295060220e-01,3.100627524271926400000000000000e+17,5.235379243867502088569641962045e+32,7.027289524990043750400000000000e+19
1.401999999999999957367435854394e+01,2.143581937545354088037186102156e-01,3.126051820655434240000000000000e+17,5.361709205968778775784982367437e+32,9.752276454916404019200000000000e+19
1.391999999999999992894572642399e+01,2.178324608945107765389792575661e-01,3.151664276476891520000000000000e+17,5.491087516352127394823251343442e+32,2.993999364680485437440000000000e+20
1.383000000000000007105427357601e+01,2.213696443129813951067319521826e-01,3.177467359954498560000000000000e+17,5.623587731813712907480255483085e+32,2.124680781061031198720000000000e+20
1.374000000000000021316282072803e+01,2.249705075627392858450548374094e-01,3.203463586709697280000000000000e+17,5.759285184078588158525120939295e+32,3.061126866637426524160000000000e+20
1.366000000000000014210854715202e+01,2.286358166844113526394721702673e-01,3.229655520553726080000000000000e+17,5.898257022630176371845021994844e+32,5.630407075859254476800000000000e+19
1.357000000000000028421709430404e+01,2.323663382407248345629113828181e-01,3.256045764253235840000000000000e+17,6.040582258572780682204869453414e+32,5.499074994825818275840000000000e+20
1.349000000000000021316282072803e+01,2.361628422112430625290357966151e-01,3.282636754052913280000000000000e+17,6.186341809552590179810604860047e+32,6.701432520984328929280000000000e+20
1.341999999999999992894572642399e+01,2.400261012712387176382122788709e-01,3.309430760661996800000000000000e+17,6.335618545762628886434654422303e+32,1.494325309842394972160000000000e+20
1.333999999999999985789145284798e+01,2.439568876291193511018917661204e-01,3.336430083466024320000000000000e+17,6.488497337057808893194952748564e+32,7.756922347048908881920000000000e+20
1.326999999999999957367435854394e+01,2.479559788416177135150775256989e-01,3.363637059313643520000000000000e+17,6.645065101206871467691434217308e+32,7.024982118983173406720000000000e+20
1.320000000000000106581410364015e+01,2.520241485780967405361252531293e-01,3.391054063111272320000000000000e+17,6.805410853308651338853992659681e+32,1.017310880881477943296000000000e+21
1.314000000000000056843418860808e+01,2.561621752180172628676757540234e-01,3.418683508427624960000000000000e+17,6.969625756400751489081953285571e+32,2.654204810016236503040000000000e+20
1.308000000000000007105427357601e+01,2.603708375525825569063442799234e-01,3.446527848109156480000000000000e+17,7.137803173289419065372910959985e+32,1.418506641347444736000000000000e+18
1.300999999999999978683717927197e+01,2.646509141919558549815860715171e-01,3.474589574906035200000000000000e+17,7.310038719630070906972355218637e+32,1.163060348518158303232000000000e+21
1.295000000000000106581410364015e+01,2.690031860499371152428693676484e-01,3.502871222109082880000000000000e+17,7.486430318288526794321063281951e+32,1.523275411126918578176000000000e+21
1.290000000000000035527136788005e+01,2.734284304847161561902169069072e-01,3.531375364198268160000000000000e+17,7.667078255014611805544586223288e+32,2.663609320488703098880000000000e+20
1.283999999999999985789145284798e+01,2.779274191309574204566956723284e-01,3.560104617502308480000000000000e+17,7.852085235457923595619511492936e+32,1.348725050081276329984000000000e+21
1.279000000000000092370555648813e+01,2.825009191456738788517100147146e-01,3.589061640870093440000000000000e+17,8.041556443560626062212051333284e+32,7.639680427607525949440000000000e+20
1.274000000000000021316282072803e+01,2.871497034235849232786108586879e-01,3.618249136354261120000000000000e+17,8.235599601358651921544355459891e+32,6.487775041889820999680000000000e+20
1.268999999999999950262008496793e+01,2.918745414596115028693645854219e-01,3.647669849906856960000000000000e+17,8.434325030226027219640379412316e+32,9.771361686021356912640000000000e+20
1.264000000000000056843418860808e+01,2.966761966439367403935989386810e-01,3.677326572087472000000000000000e+17,8.637845713597035127758782254285e+32,2.100074678598484623360000000000e+21
1.259999999999999964472863211995e+01,3.015554189855459421565342381655e-01,3.707222138784172800000000000000e+17,8.846277361201855825720251263222e+32,4.748330285001458319360000000000e+20
1.255000000000000071054273576010e+01,3.065129605270561219398928187729e-01,3.737359431947637760000000000000e+17,9.059738474852230084825290658284e+32,3.046087218809946505216000000000e+21
1.250999999999999978683717927197e+01,3.115495707867718677697155271744e-01,3.767741380338441600000000000000e+17,9.278350415814518500934305311621e+32,2.217342131486838489088000000000e+21
1.247000000000000063948846218409e+01,3.166659896764250636813642358902e-01,3.798370956538638080000000000000e+17,9.502237473808492458890037863383e+32,2.199006008849875337216000000000e+21
1.242999999999999971578290569596e+01,3.218629426163072682065546814556e-01,3.829251166590303360000000000000e+17,9.731526937671053277135230520525e+32,3.071308953029309366272000000000e+21
1.239000000000000056843418860808e+01,3.271411538738465685227652102185e-01,3.860385061431910400000000000000e+17,9.966349167724917614076745817784e+32,5.476311310168343183360000000000e+21
1.235999999999999943156581139192e+01,3.325013431889516368755721487105e-01,3.891775741205087360000000000000e+17,1.020683766989437671184814990950e+33,1.516584526631512571904000000000e+21
1.232000000000000028421709430404e+01,3.379442087779266357117080588068e-01,3.923426356057877120000000000000e+17,1.045312917160784329984882199495e+33,5.961547551039071191040000000000e+21
1.229000000000000092370555648813e+01,3.434704464238222954008961096406e-01,3.955340106962759680000000000000e+17,1.070536369953355089636735422824e+33,3.349938947502540587008000000000e+21
1.225999999999999978683717927197e+01,3.490807435966282734618459926423e-01,3.987520246549612800000000000000e+17,1.096368465919021764780569017713e+33,2.126251334731112120320000000000e+21
1.223000000000000042632564145606e+01,3.547757641209270951243581748713e-01,4.019970079954555520000000000000e+17,1.122823891647888091710488274010e+33,1.827571607095293771776000000000e+21
1.220000000000000106581410364015e+01,3.605561743426551335467422632064e-01,4.052692965684146560000000000000e+17,1.149917688118208289223949877772e+33,2.418557120328820064256000000000e+21
1.216999999999999992894572642399e+01,3.664226121481147790959198573546e-01,4.085692316495738240000000000000e+17,1.177665259247792199228928013894e+33,4.360608057590028435456000000000e+21
1.214000000000000056843418860808e+01,3.723757139976462404717949539190e-01,4.118971600294497920000000000000e+17,1.206082380651753833062150526992e+33,8.892927650109998497792000000000e+21
1.212000000000000099475983006414e+01,3.784160909091879299026572880393e-01,4.152534341047158400000000000000e+17,1.235185208611586106146127857320e+33,1.757097651176875229184000000000e+21
1.208999999999999985789145284798e+01,3.845443454821311224378632687149e-01,4.186384119712776320000000000000e+17,1.264990289260660123993534304879e+33,8.675146544698970079232000000000e+21
1.207000000000000028421709430404e+01,3.907610557915738858092424834467e-01,4.220524575191372800000000000000e+17,1.295514567991369448131801424855e+33,3.291176118280345616384000000000e+21
1.205000000000000071054273576010e+01,3.970667940845076238076671870658e-01,4.254959405290182400000000000000e+17,1.326775399089270915341932386320e+33,5.252341881877141913600000000000e+20
1.201999999999999957367435854394e+01,4.034620932697595141469548707391e-01,4.289692367708442880000000000000e+17,1.358790555599674608352387301114e+33,1.415373008796284197273600000000e+22
1.200000000000000000000000000000e+01,4.099474961696716324155431721010e-01,4.324727257365943680000000000000e+17,1.391578239432426544693614682833e+33,1.261644691958029038387200000000e+22
1.198000000000000042632564145606e+01,4.165234920501397208880689504440e-01,4.360067724997017600000000000000e+17,1.425157091710297482522922410050e+33,1.343036405433486226227200000000e+22
1.196000000000000085265128291212e+01,4.231905782258785775340470536321e-01,4.395717371225190400000000000000e+17,1.459546203367302914909149432119e+33,1.697799328942700625920000000000e+22
1.193999999999999950262008496793e+01,4.299492225591602378997890809842e-01,4.431679848721094400000000000000e+17,1.494765126002646514275758372815e+33,2.464369909489575605043200000000e+22
1.192999999999999971578290569596e+01,4.367998501948698319985453508707e-01,4.467958863861393920000000000000e+17,1.530833882996595813475557698437e+33,3.435117862339729162240000000000e+21
1.191000000000000014210854715202e+01,4.437429178662755657747140958236e-01,4.504558177580408320000000000000e+17,1.567772980894582769069197621199e+33,1.177019520435353970278400000000e+22
1.189000000000000056843418860808e+01,4.507787908576098012680688498222e-01,4.541481606236336640000000000000e+17,1.605603421066001419903926425092e+33,2.968348140563931227750400000000e+22
1.188000000000000078159700933611e+01,4.579078514377707964655428440892e-01,4.578733022493554560000000000000e+17,1.644346711644337416021243466875e+33,9.599643052770020294656000000000e+21
1.185999999999999943156581139192e+01,4.651304758812719319926998196024e-01,4.616316356219946880000000000000e+17,1.684024879755408596340537112396e+33,3.592612907566707926630400000000e+22
1.184999999999999964472863211995e+01,4.724469578696160465547393414454e-01,4.654235595400521600000000000000e+17,1.724660484040677090472395295162e+33,1.749862145305092292608000000000e+22
1.183999999999999985789145284798e+01,4.798575941643841713535323378892e-01,4.692494787067130240000000000000e+17,1.766276627482747335036141398131e+33,6.476065569230813134848000000000e+21
1.183000000000000007105427357601e+01,4.873626736680586879479903927859e-01,4.731098038244917120000000000000e+17,1.808896970540316868725132415205e+33,1.860754661626756464640000000000e+20
1.181000000000000049737991503207e+01,4.949624426371406205049652271555e-01,4.770049516915564160000000000000e+17,1.852545744600218587548592057090e+33,3.699978916732762220134400000000e+22
1.180000000000000071054273576010e+01,5.026570863992491089433656270558e-01,4.809353452997967360000000000000e+17,1.897247765753769443025808449864e+33,3.025033843068902781747200000000e+22
1.179000000000000092370555648813e+01,5.104467896686984973442235968832e-01,4.849014137970288640000000000000e+17,1.943028448905836145708803374973e+33,2.739313467624096845004800000000e+22
1.177999999999999936051153781591e+01,5.183317098079980311808867554646e-01,4.889035843280147200000000000000e+17,1.989913822224206691607171469148e+33,2.818471655170996436992000000000e+22
1.176999999999999957367435854394e+01,5.263119713821076128823506223853e-01,4.929422770957900800000000000000e+17,2.037930541937654927230728044282e+33,3.310865017950274217574400000000e+22
1.175999999999999978683717927197e+01,5.343876621053286202212007083290e-01,4.970179170376333440000000000000e+17,2.087105907491083351352971125326e+33,4.353951853808967483392000000000e+22
1.175000000000000000000000000000e+01,5.425588272687604796118421290885e-01,5.011309350237772800000000000000e+17,2.137467877066361665281541583929e+33,6.204372868340880349593600000000e+22
1.175000000000000000000000000000e+01,5.508254818380310391390253244026e-01,5.052817679487359360000000000000e+17,2.189045083477680632915547595473e+33,9.842680399871323668480000000000e+20
1.174000000000000021316282072803e+01,5.591876114157505739399312005844e-01,5.094708588241400960000000000000e+17,2.241866850450465055102265678889e+33,1.341269570253348877107200000000e+22
1.173000000000000042632564145606e+01,5.676451675192930590441164895310e-01,5.136986568731847680000000000000e+17,2.295963209293095459294302900847e+33,3.826768497277842699059200000000e+22
1.172000000000000063948846218409e+01,5.761980647708139224860701688158e-01,5.179656176266828160000000000000e+17,2.351364915970920419191483105542e+33,8.438235421509138828492800000000e+22
1.172000000000000063948846218409e+01,5.848461802954525445841227337951e-01,5.222722030207321600000000000000e+17,2.408103468592266238745118366499e+33,1.263723419688437494579200000000e+22
1.171000000000000085265128291212e+01,5.935893521640421832685774461424e-01,5.266188814961164800000000000000e+17,2.466211125316341543411339289952e+33,5.733557862486929466982400000000e+22
1.171000000000000085265128291212e+01,6.024273797443754352443079369550e-01,5.310061280993637120000000000000e+17,2.525720922693466394814533859279e+33,1.943211836963823812608000000000e+21
1.170000000000000106581410364015e+01,6.113600207616195492121846655209e-01,5.354344245855578240000000000000e+17,2.586666694447445073045255184450e+33,5.143847406978136539136000000000e+22
1.170000000000000106581410364015e+01,6.203869899522836961480720674444e-01,5.399042601394712960000000000000e+17,2.649083090711564183626601593831e+33,3.840298101452780339200000000000e+20
1.168999999999999950262008496793e+01,6.295079616256519239314570768329e-01,5.444161540850897280000000000000e+17,2.713005597728554336280878665171e+33,6.658462730121787526348800000000e+22
1.168999999999999950262008496793e+01,6.387225737511078582642198853137e-01,5.489706634059299200000000000000e+17,2.778470558025950647439986207490e+33,9.778750261941111881728000000000e+21
1.167999999999999971578290569596e+01,6.480304273151323846136051542999e-01,5.535683559944156800000000000000e+17,2.845515191078290200746734722744e+33,1.147958845097873139302400000000e+23
1.167999999999999971578290569596e+01,6.574310692631439856370434426935e-01,5.582098089172023680000000000000e+17,2.914177614467884935846245959729e+33,4.266773328815284289536000000000e+22
1.166999999999999992894572642399e+01,6.669239786243502665641358362336e-01,5.628956085748528000000000000000e+17,2.984496865556208195357789952934e+33,2.271898670552368870850560000000e+23
1.166999999999999992894572642399e+01,6.765085549767030359546993167896e-01,5.676263508646791680000000000000e+17,3.056512923678211878691149644300e+33,1.297454237652104217886720000000e+23
1.166999999999999992894572642399e+01,6.861842200952334991370662464760e-01,5.724026413468135040000000000000e+17,3.130266732872192352114682724614e+33,5.997034484377836113100800000000e+22
1.166999999999999992894572642399e+01,6.959503851569229793128101846378e-01,5.772250954134951680000000000000e+17,3.205800225158131094523980359401e+33,1.260192563961836601344000000000e+22
1.166000000000000014210854715202e+01,7.058062653390282381593578975298e-01,5.820943384617971200000000000000e+17,3.283156344377687971708779060265e+33,2.305590814550632955904000000000e+23
1.166000000000000014210854715202e+01,7.157510697251452391753900883486e-01,5.870110060697816320000000000000e+17,3.362379070609724278808326015287e+33,1.491391088240895658557440000000e+23
1.166000000000000014210854715202e+01,7.257841347952779242902465739462e-01,5.919757441760602880000000000000e+17,3.443513445174433716042705647174e+33,8.645898433176458703667200000000e+22
1.166000000000000014210854715202e+01,7.359044292867296110927100016852e-01,5.969892054122557440000000000000e+17,3.526605596241366154567452672918e+33,3.848378746813097286041600000000e+22
1.166000000000000014210854715202e+01,7.461111512061913142446201163693e-01,6.020520149417374720000000000000e+17,3.611702765055102004765925169955e+33,2.842059846776795430912000000000e+21
1.165000000000000035527136788005e+01,7.564033036254057540404005521850e-01,6.071647856688089600000000000000e+17,3.698853332793807280055294097359e+33,3.332071798708309464186880000000e+23
1.165000000000000035527136788005e+01,7.667798443712552369788681971841e-01,6.123281391607508480000000000000e+17,3.788106848075889072988464259006e+33,2.622507875744199716372480000000e+23
1.165000000000000035527136788005e+01,7.772397611087764612847195166978e-01,6.175427060334394880000000000000e+17,3.879514055130385635715147857134e+33,2.024108719604055597383680000000e+23
1.165000000000000035527136788005e+01,7.877819076534448017312683987257e-01,6.228091260973820160000000000000e+17,3.973126922647112638490859685282e+33,1.515525808417971864862720000000e+23
1.165000000000000035527136788005e+01,7.984050803716021826872406563780e-01,6.281280485063682560000000000000e+17,4.068998673322960150029343324635e+33,1.079374831693461916221440000000e+23
1.165000000000000035527136788005e+01,8.091082041808130842497348567122e-01,6.335001319087822080000000000000e+17,4.167183814121146476471082352116e+33,7.096363214126873942425600000000e+22
1.165000000000000035527136788005e+01,8.198897872542781906091136079340e-01,6.389260446016387840000000000000e+17,4.267738167260630447816630717121e+33,3.841493274719555892019200000000e+22
1.165000000000000035527136788005e+01,8.307486980929218445268702453177e-01,6.444064646873424640000000000000e+17,4.370718901953295333650641088152e+33,1.025943908035956257587200000000e+22
1.164000000000000056843418860808e+01,8.416835512897404836252235327265e-01,6.499420802337971200000000000000e+17,4.476184566906885351942439554777e+33,6.857013456806009446072320000000e+23
1.164000000000000056843418860808e+01,8.526927871340033160407756440691e-01,6.555335927912476160000000000000e+17,4.584195123612598648373432851366e+33,6.347865207785689133875200000000e+23
1.164000000000000056843418860808e+01,8.637750045123477882214046985609e-01,6.611817257629250560000000000000e+17,4.694811980435185700464919004054e+33,5.875932466764359034470400000000e+23
1.164000000000000056843418860808e+01,8.749287452487921612487298261840e-01,6.668872159648446720000000000000e+17,4.808098027526372603036491843633e+33,5.443118111358482162647040000000e+23
1.164000000000000056843418860808e+01,8.861523971036797675537854956929e-01,6.726508114566465280000000000000e+17,4.924117672580380526472295763411e+33,5.034431923681904453222400000000e+23
1.164000000000000056843418860808e+01,8.974442926605860071376241648977e-01,6.784732717316542720000000000000e+17,5.042936877452303158250090822369e+33,4.632483058779826379816960000000e+23
1.164000000000000056843418860808e+01,9.088027397987766820008914692153e-01,6.843553679105041920000000000000e+17,5.164623195660085491444014584431e+33,4.219630657560632140759040000000e+23
1.164000000000000056843418860808e+01,9.202260103296644455639352599974e-01,6.902978829384527360000000000000e+17,5.289245810791426090507239721796e+33,3.764722297273569907834880000000e+23
1.164000000000000056843418860808e+01,9.317123272377838549829220937681e-01,6.963016117863728640000000000000e+17,5.416875575837445508700056401740e+33,3.228144414716048713973760000000e+23
1.164000000000000056843418860808e+01,9.432598569328995985472374741221e-01,7.023673616555130880000000000000e+17,5.547585053475469664069430882075e+33,2.704257133080417885224960000000e+23
1.164000000000000056843418860808e+01,9.548667079828151438292138664110e-01,7.084959525049500160000000000000e+17,5.681448557323844794727110612615e+33,2.176914337901790185390080000000e+23
1.164000000000000056843418860808e+01,9.665309297953980083306646520214e-01,7.146882493739571200000000000000e+17,5.818542194192233840369226806723e+33,1.612260218118599983759360000000e+23
1.164000000000000056843418860808e+01,9.782505142667624609131848956167e-01,7.209451915790568960000000000000e+17,5.958943907351311606650463523439e+33,9.310148838973679180185600000000e+22
1.164000000000000056843418860808e+01,9.900234150644537933771971438546e-01,7.272677413642629120000000000000e+17,6.102733520847050623749205170061e+33,2.672766180894961146265600000000e+22
1.163000000000000078159700933611e+01,1.001847547455422260398449907370e+00,7.336568778945568000000000000000e+17,6.249992784883340964589535831785e+33,1.719024689100344126341120000000e+24
1.163000000000000078159700933611e+01,1.013720808667465833607934655447e+00,7.401135975800136960000000000000e+17,6.400805422300662561533848243405e+33,1.534467822779938889531392000000e+24
1.163000000000000078159700933611e+01,1.025640966470519277464745755424e+00,7.466389144069698560000000000000e+17,6.555257176175812277294966486598e+33,1.329999577263488337182720000000e+24
1.163000000000000078159700933611e+01,1.037605620574248987963983381633e+00,7.532338602764235520000000000000e+17,6.713435858570299353024621004718e+33,1.123028631804428381323264000000e+24
1.163000000000000078159700933611e+01,1.049612555222504406415851008205e+00,7.598994853498412800000000000000e+17,6.875431400455058597101757339271e+33,8.685688871302683688960000000000e+23
1.163000000000000078159700933611e+01,1.061659547701504946459749589849e+00,7.666368579342343680000000000000e+17,7.041335902839832807340465562059e+33,6.317529881768935932559360000000e+23
1.163000000000000078159700933611e+01,1.073743893431398310767121984100e+00,7.734469926937326080000000000000e+17,7.211243689136320706629293400130e+33,3.813555727425858982379520000000e+23
1.163000000000000078159700933611e+01,1.085863390767705327633052547753e+00,7.803307695276250880000000000000e+17,7.385251358784849601878854987678e+33,1.408660682534969472450560000000e+23
1.162000000000000099475983006414e+01,1.098015429323833114239050701144e+00,7.872890610407613440000000000000e+17,7.563457842175053705016531065242e+33,2.827617498222458182828032000000e+24
1.162000000000000099475983006414e+01,1.110197524836047167084984721441e+00,7.943227509714700800000000000000e+17,7.745964456891798830038592358711e+33,2.145692566825211866906624000000e+24
1.162000000000000099475983006414e+01,1.122407110889444670220882471767e+00,8.014327343415454720000000000000e+17,7.932874965318328591128512432177e+33,1.501125969775038671355904000000e+24
1.162000000000000099475983006414e+01,1.134641704128739103651923869620e+00,8.086199176082316800000000000000e+17,8.124295633629228651541219399172e+33,8.861457535334157238927360000000e+23
1.162000000000000099475983006414e+01,1.146898443283287161165162615362e+00,8.158852188184465920000000000000e+17,8.320335292207575307462607386968e+33,3.273402508974233328025600000000e+23
1.160999999999999943156581139192e+01,1.159175057621682380926131372689e+00,8.232295677651046400000000000000e+17,8.521105397518612466734548238991e+33,3.858346793772751869968384000000e+24
1.160999999999999943156581139192e+01,1.171468648035347559499541603145e+00,8.306539518338234880000000000000e+17,8.726720095477778612404031070405e+33,2.499850383442243070459904000000e+24
1.160999999999999943156581139192e+01,1.183776434786417919298173728748e+00,8.381596836880179200000000000000e+17,8.937296286347144511107029757067e+33,1.345735205988173430652928000000e+24
1.160999999999999943156581139192e+01,1.196095904416842214956773204904e+00,8.457482313643507200000000000000e+17,9.152953691197925305999594834887e+33,4.193492475333734878412800000000e+23
1.159999999999999964472863211995e+01,1.208424249100050529293071122083e+00,8.534210937721160960000000000000e+17,9.373814919976758304064776850899e+33,4.276957246431617905328128000000e+24
1.159999999999999964472863211995e+01,1.220758569043062902181873141672e+00,8.611798009551745280000000000000e+17,9.600005541214399304158830317797e+33,2.289442812440316877996032000000e+24
1.159999999999999964472863211995e+01,1.233095968769788663976783027465e+00,8.690259147763916800000000000000e+17,9.831654153416512953534733696893e+33,7.714924201910711877632000000000e+23
1.158999999999999985789145284798e+01,1.245433541745906147468758717878e+00,8.769610296198732800000000000000e+17,1.006889245817711460553208507243e+34,5.396848305641716159873024000000e+24
1.158999999999999985789145284798e+01,1.257768359458307783071973062761e+00,8.849867731118059520000000000000e+17,1.031185533505624609834002866713e+34,2.526661895416588374376448000000e+24
1.158999999999999985789145284798e+01,1.270097437579354560099886839453e+00,8.931047368480542720000000000000e+17,1.056068091826445823431232463045e+34,4.843683640443817678602240000000e+23
1.158000000000000007105427357601e+01,1.282417752220257778361656164634e+00,9.013162509131032320000000000000e+17,1.081551067519750976032601910175e+34,4.702222772712627180142592000000e+24
1.158000000000000007105427357601e+01,1.294726264967702489272483035165e+00,9.096225904421871360000000000000e+17,1.107648948686699849268438524494e+34,1.463326401056293991219200000000e+24
1.157000000000000028421709430404e+01,1.307019924013112621707932703430e+00,9.180250501767089920000000000000e+17,1.134376573027002655701386222843e+34,6.911311451537941876178944000000e+24
1.157000000000000028421709430404e+01,1.319295732431486012359300730168e+00,9.265249447973936640000000000000e+17,1.161749136274820747300851191854e+34,2.323413001034343246725120000000e+24
1.156000000000000049737991503207e+01,1.331550765090716348382215983293e+00,9.351236092633478400000000000000e+17,1.189782200838138023938526350095e+34,8.557305590094993507221504000000e+24
1.156000000000000049737991503207e+01,1.343781917729262698202319370466e+00,9.438223991574863360000000000000e+17,1.218491704646618826910786690797e+34,2.713503127600561223892992000000e+24
1.155000000000000071054273576010e+01,1.355985824048004273478795767005e+00,9.526226924414429440000000000000e+17,1.247893970212964528437083311702e+34,9.017785648451440493985792000000e+24
1.155000000000000071054273576010e+01,1.368159735809597155054007089348e+00,9.615259064075432960000000000000e+17,1.278005713912921915091326895286e+34,2.254782171459982259650560000000e+24
1.154000000000000092370555648813e+01,1.380300771358452083248380404257e+00,9.705334932099048960000000000000e+17,1.308844055489217519881235121517e+34,8.025438459801116180742144000000e+24
1.154000000000000092370555648813e+01,1.392405304317155367854752512358e+00,9.796469285342773760000000000000e+17,1.340426527784823029573541833159e+34,1.084017541086781917626368000000e+24
1.152999999999999936051153781591e+01,1.404471035578167548152350718738e+00,9.888677117754636800000000000000e+17,1.372771086711085329318578976352e+34,5.621214985094145205338112000000e+24
1.151999999999999957367435854394e+01,1.416494157266897202518407539173e+00,9.981973664601139200000000000000e+17,1.405896121456386410263568441147e+34,1.267841715609240094323507200000e+25
1.151999999999999957367435854394e+01,1.428472447839425729654294627835e+00,1.007637440677660032000000000000e+18,1.439820464941141097526231254329e+34,1.949411119105152645070848000000e+24
1.150999999999999978683717927197e+01,1.440402086994434283084842718381e+00,1.017189483836197760000000000000e+18,1.474563404525048238768851856340e+34,6.477042494201768913666048000000e+24
1.150000000000000000000000000000e+01,1.452280803037709677738575919648e+00,1.026854847739425536000000000000e+18,1.510144692972829891701109448036e+34,1.350745948668954403038822400000e+25
1.150000000000000000000000000000e+01,1.464105332273788473429476653109e+00,1.036634778925005056000000000000e+18,1.546584559684332876161949213970e+34,7.545219475306178412544000000000e+23
1.149000000000000021316282072803e+01,1.475872442535403727958964736899e+00,1.046530534760381952000000000000e+18,1.583903722195855110160214296782e+34,3.837271882134421019557888000000e+24
1.148000000000000042632564145606e+01,1.487579736527075757734905891994e+00,1.056543384668570880000000000000e+18,1.622123397958877311475934907964e+34,8.335103588499899086274560000000e+24
1.147000000000000063948846218409e+01,1.499224280724533509001616948808e+00,1.066674610175575808000000000000e+18,1.661265316403042884536417133160e+34,1.338076662404054389463449600000e+25
1.146000000000000085265128291212e+01,1.510803108574584996404155390337e+00,1.076925509105163136000000000000e+18,1.701351731290214746638917786665e+34,2.038356962519999952663347200000e+25
1.146000000000000085265128291212e+01,1.522313401635550622614800886367e+00,1.087298211447128576000000000000e+18,1.742405433366639378270696946585e+34,2.148561721079861230960640000000e+23
1.145000000000000106581410364015e+01,1.533752371040476125685358965711e+00,1.097796705295264640000000000000e+18,1.784449763320405871354769097464e+34,2.041795048319216424845312000000e+24
1.143999999999999950262008496793e+01,1.545117210357659143227238018881e+00,1.108425336807566336000000000000e+18,1.827508625051570141431702610353e+34,3.319706173757119916933120000000e+24
1.142999999999999971578290569596e+01,1.556405035330284292172109417152e+00,1.119188580030610048000000000000e+18,1.871606499262488330350712002812e+34,5.017989633059979054284800000000e+24
1.141999999999999992894572642399e+01,1.567612876768694540885462629376e+00,1.130091040522983296000000000000e+18,1.916768457376083973550908853610e+34,6.164033856487805471948800000000e+24
1.141000000000000014210854715202e+01,1.578737686432179820883447973756e+00,1.141137459115277696000000000000e+18,1.963020175789933992687018519927e+34,6.471105806748334442938368000000e+24
1.140000000000000035527136788005e+01,1.589776353341363579474432299321e+00,1.152331702012787072000000000000e+18,2.010387950474464402723491415065e+34,6.971618824946457696534528000000e+24
1.139000000000000056843418860808e+01,1.600725834025118476944271606044e+00,1.163673999533613824000000000000e+18,2.058898711923082456423182888023e+34,6.045446037951664474816512000000e+24
1.138000000000000078159700933611e+01,1.611583307358956274057959490165e+00,1.175163678753776384000000000000e+18,2.108580040463374981041282404791e+34,4.104632199984336540270592000000e+24
1.137000000000000099475983006414e+01,1.622346250270447542973784038622e+00,1.186799989303534336000000000000e+18,2.159460181937608686700500582033e+34,2.050524435623365727748096000000e+24
1.135999999999999943156581139192e+01,1.633012071411403365317482894170e+00,1.198582100343140864000000000000e+18,2.211568063761632455883375916351e+34,7.938648019216951463116800000000e+22
1.133999999999999985789145284798e+01,1.643577705588855852880669772276e+00,1.210509102010532096000000000000e+18,2.264933311371280239971757524097e+34,3.779887008045747160272076800000e+25
1.133000000000000007105427357601e+01,1.654041378406071904905161318311e+00,1.222581514268274688000000000000e+18,2.319586265065630290259047533563e+34,2.773292021076635412332544000000e+25
1.132000000000000028421709430404e+01,1.664401067109611886962738935836e+00,1.234803572111162880000000000000e+18,2.375557997256689741339139038092e+34,1.780191638905354711780556800000e+25
1.131000000000000049737991503207e+01,1.674653573309302423410827032058e+00,1.247180197508459776000000000000e+18,2.432880330135315217123351113761e+34,7.945085334683742640275456000000e+24
1.130000000000000071054273576010e+01,1.684797808838648602858256708714e+00,1.259716458374188288000000000000e+18,2.491585853763416939813708651666e+34,3.176406193885417654190080000000e+23
1.127999999999999936051153781591e+01,1.694830167581634183804339954804e+00,1.272417572743102976000000000000e+18,2.551707944602720717113021382315e+34,3.795677201265683731159449600000e+25
1.126999999999999957367435854394e+01,1.704749659688312712901847589819e+00,1.285288789681109504000000000000e+18,2.613280784490639806450525798400e+34,1.910273326608681353084928000000e+25
1.125999999999999978683717927197e+01,1.714552630443020087014360797184e+00,1.298333554520660736000000000000e+18,2.676339380073982515564748394725e+34,3.771714110727112041168896000000e+24
1.124000000000000021316282072803e+01,1.724237959461829339247174175398e+00,1.311553820081204992000000000000e+18,2.740919582711821379136246047257e+34,4.907969474682123438994227200000e+25
1.123000000000000042632564145606e+01,1.733802976548206586926426098216e+00,1.324951511980937728000000000000e+18,2.807058108858179212015800011037e+34,2.054670475908497054629888000000e+25
1.122000000000000063948846218409e+01,1.743245143655789863856853116886e+00,1.338528570505486080000000000000e+18,2.874792560936988202983835911691e+34,1.220920470944699425751040000000e+23
1.120000000000000106581410364015e+01,1.752563306766199424657770578051e+00,1.352286955096284672000000000000e+18,2.944161448720543664629709093523e+34,3.449580991608451457718681600000e+25
1.118999999999999950262008496793e+01,1.761755333940669299153114479850e+00,1.366229127968294144000000000000e+18,3.015204211223866636943860009691e+34,4.217797537769366075998208000000e+24
1.116999999999999992894572642399e+01,1.770818971996079183028882653161e+00,1.380358501194134272000000000000e+18,3.087961239127375707157789057797e+34,4.740846194552196714358374400000e+25
1.116000000000000014210854715202e+01,1.779752448657213825811140850419e+00,1.394678660193892096000000000000e+18,3.162473897740621663515811802146e+34,8.090326591554433639776256000000e+24
1.114000000000000056843418860808e+01,1.788554316445172931437923580233e+00,1.409193269177650688000000000000e+18,3.238784550520135593242142247695e+34,4.793095473341479547148697600000e+25
1.113000000000000078159700933611e+01,1.797222946596024995002949253831e+00,1.423906073067774208000000000000e+18,3.316936583154767542336956489794e+34,1.943778716809531517566976000000e+24
1.110999999999999943156581139192e+01,1.805756630097987036620565959311e+00,1.438820899474523136000000000000e+18,3.396974428232201376629721856056e+34,4.177163760608291933336371200000e+25
1.108999999999999985789145284798e+01,1.814153788266297251396963474690e+00,1.453941660726612224000000000000e+18,3.478943590500619252725626525712e+34,1.009400077911136918684303360000e+26
1.108000000000000007105427357601e+01,1.822412952967860322317505961109e+00,1.469272355958511360000000000000e+18,3.562890672740215448028846925388e+34,1.901986248549317271250534400000e+25
1.106000000000000049737991503207e+01,1.830532640215495776558896068309e+00,1.484817064482178048000000000000e+18,3.648863402258423661519851157560e+34,6.841899785259512968826060800000e+25
1.104000000000000092370555648813e+01,1.838511529155120172163151437417e+00,1.500579910443127552000000000000e+18,3.736910658025041113862603851327e+34,1.322746910152522358157475840000e+26
1.102999999999999936051153781591e+01,1.846348405589279595417906421062e+00,1.516565094069691648000000000000e+18,3.827082498461841743741180376305e+34,2.631665289689180618830643200000e+25
1.100999999999999978683717927197e+01,1.854042009024913673087553434016e+00,1.532776908270608640000000000000e+18,3.919430189902813406298462321692e+34,6.186414102940158552283545600000e+25
1.099000000000000021316282072803e+01,1.861590906461446648378910140309e+00,1.549219740930519808000000000000e+18,4.014006235741136916311317961245e+34,1.329238372420259298504867840000e+26
1.098000000000000042632564145606e+01,1.868993862181607568118124618195e+00,1.565898077261584640000000000000e+18,4.110864406279488253181523377363e+34,3.621850149334021239209984000000e+24
1.096000000000000085265128291212e+01,1.876250113729595492273460877186e+00,1.582816502220725760000000000000e+18,4.210059769300627553592607547956e+34,2.673372448315372943808921600000e+25
1.093999999999999950262008496793e+01,1.883359039812637414357254783681e+00,1.599979702766434560000000000000e+18,4.311648721375656336436074221090e+34,6.842707244795560493003571200000e+25
1.091999999999999992894572642399e+01,1.890319415512517808863890422799e+00,1.617392326317217024000000000000e+18,4.415689019927748679724148722133e+34,1.002867867617261528411013120000e+26
1.090000000000000035527136788005e+01,1.897129725545023681831935391529e+00,1.635058726401857792000000000000e+18,4.522239816069579426790865516678e+34,1.568338792939342161510400000000e+26
1.088000000000000078159700933611e+01,1.903790302535593115251799645193e+00,1.652983275871106304000000000000e+18,4.631361688233117987952692438237e+34,2.198544600740992575361515520000e+26
1.087000000000000099475983006414e+01,1.910300054345466014282806099800e+00,1.671170432770402560000000000000e+18,4.743116676610918855907535756670e+34,2.395222723509656787877888000000e+24
1.084999999999999964472863211995e+01,1.916657738877806327337793845800e+00,1.689624742176008704000000000000e+18,4.857568318428394591805787329475e+34,1.340881018088181057401651200000e+25
1.083000000000000007105427357601e+01,1.922864114840871163636393248453e+00,1.708350838074638080000000000000e+18,4.974781684067613576193896792615e+34,4.219613186116962670870528000000e+25
1.081000000000000049737991503207e+01,1.928917071556096818341075049830e+00,1.727353445286889984000000000000e+18,5.094823414061967625340567997645e+34,4.604753037832460222804787200000e+25
1.079000000000000092370555648813e+01,1.934817964901412112865841663734e+00,1.746637486805241856000000000000e+18,5.217761756984318724819521807109e+34,4.783148687152150943157452800000e+25
1.076999999999999957367435854394e+01,1.940564717859981191949714229850e+00,1.766208654442288640000000000000e+18,5.343666608248996542166626391504e+34,4.575132146209792674758656000000e+25
1.075000000000000000000000000000e+01,1.946158788803711736647983343573e+00,1.786073034068282880000000000000e+18,5.472609549850160047416153850092e+34,5.448431279630832188470067200000e+25
1.073000000000000042632564145606e+01,1.951598375275782615290154353715e+00,1.806236859279855616000000000000e+18,5.604663891059056861739403058348e+34,5.798138855370470708582809600000e+25
1.071000000000000085265128291212e+01,1.956884581556923574652273600805e+00,1.826706514818307584000000000000e+18,5.739904710103302405544879979495e+34,6.601555503984503244298649600000e+25
1.068999999999999950262008496793e+01,1.962016897502591117330439374200e+00,1.847488540662864128000000000000e+18,5.878408896851886601523566955882e+34,5.430367363279973879329587200000e+25
1.066999999999999992894572642399e+01,1.966994662163910057017801591428e+00,1.868589636249485568000000000000e+18,6.020255196530172057456634838909e+34,3.078580410068948569240371200000e+25
1.065000000000000035527136788005e+01,1.971819049133767043358034243283e+00,1.890016496760154112000000000000e+18,6.165524254489732415390088409016e+34,9.478136191467643740356608000000e+24
1.062000000000000099475983006414e+01,1.976489502089281646846075091162e+00,1.911775325171111936000000000000e+18,6.314298662058392373266084662765e+34,3.923516671425218587089960960000e+26
1.059999999999999964472863211995e+01,1.981005743391551332521771655593e+00,1.933872300684795648000000000000e+18,6.466663003497143370941507978658e+34,3.148599499119593866930421760000e+26
1.058000000000000007105427357601e+01,1.985368852687108498500379027973e+00,1.956313733108611584000000000000e+18,6.622703904089099988859156731999e+34,2.435573055882733570322595840000e+26
1.056000000000000049737991503207e+01,1.989578956493626815671404983732e+00,1.979106065924873472000000000000e+18,6.782510079389879033332145932626e+34,1.771255462921908641385676800000e+26
1.054000000000000092370555648813e+01,1.993636126415151643698209227296e+00,2.002255879439509248000000000000e+18,6.946172385665876997873317519452e+34,1.142232464274631077920768000000e+26
1.051999999999999957367435854394e+01,1.997540441105374320329701731680e+00,2.025769924617869312000000000000e+18,7.113783871549728262112264854071e+34,5.452891173663796787308134400000e+25
1.050000000000000000000000000000e+01,2.001292822650222902325367613230e+00,2.049655618454855680000000000000e+18,7.285439830942207020761300560616e+34,3.344336337127411705446400000000e+24
1.047000000000000063948846218409e+01,2.004893817592084293011112094973e+00,2.073920989073781760000000000000e+18,7.461237857190666960912217474387e+34,4.135375490539341261077217280000e+26
1.045000000000000106581410364015e+01,2.008344042267008688895657542162e+00,2.098574276364760832000000000000e+18,7.641277898574793390802012344209e+34,2.112627124840642242538373120000e+26
1.042999999999999971578290569596e+01,2.011643983981397543203684108448e+00,2.123623924665225216000000000000e+18,7.825662315131246801227355669922e+34,6.467082066670553536030310400000e+25
1.040000000000000035527136788005e+01,2.014794213390048494005668544560e+00,2.149078588452378112000000000000e+18,8.014495936849470438364762535572e+34,5.777291353046696722390056960000e+26
1.038000000000000078159700933611e+01,2.017795599949955054341899085557e+00,2.174947127794619648000000000000e+18,8.207886123271780249969198881781e+34,3.500745798685299012460871680000e+26
1.035999999999999943156581139192e+01,2.020648794551015647869007807458e+00,2.201238361280981760000000000000e+18,8.405942824531598048372824470245e+34,1.996439649774179024487055360000e+26
1.033999999999999985789145284798e+01,2.023354612197426849462544851121e+00,2.227961044216363520000000000000e+18,8.608778643864546507305001287470e+34,9.969445769689477661117644800000e+25
1.031000000000000049737991503207e+01,2.025913836875314899543809588067e+00,2.255124125992932864000000000000e+18,8.816508901627789614678553364162e+34,7.340290197355289409182760960000e+26
1.029000000000000092370555648813e+01,2.028327580171142674458906185464e+00,2.282736768199207168000000000000e+18,9.029251700864893917092022901224e+34,2.688399377415402562529525760000e+26
1.026999999999999957367435854394e+01,2.030596641975993765782959599164e+00,2.310808350266064896000000000000e+18,9.247127994451317477031803035530e+34,4.087303093503725121883340800000e+25
1.024000000000000021316282072803e+01,2.032721935242222777162623970071e+00,2.339348475278490112000000000000e+18,9.470261653861578849372984167105e+34,7.068199567714731482415104000000e+26
1.022000000000000063948846218409e+01,2.034704671637454165278313666931e+00,2.368366975958726656000000000000e+18,9.698779539595050293872535652218e+34,5.134166268373712507229962240000e+26
1.020000000000000106581410364015e+01,2.036545851312529631371717186994e+00,2.397873920825845760000000000000e+18,9.932811573301277189289459051187e+34,7.023464248376985491026739200000e+25
1.016999999999999992894572642399e+01,2.038246491696273476890155507135e+00,2.427879620537821184000000000000e+18,1.017249081164568318725517958772e+35,5.571928367775643285365719040000e+26
1.015000000000000035527136788005e+01,2.039807920518220907268869268592e+00,2.458394634421711872000000000000e+18,1.041795352195765880812679035596e+35,2.955820010285668226071265280000e+26
1.013000000000000078159700933611e+01,2.041231231678127144846257579047e+00,2.489429777550826496000000000000e+18,1.066933925970404944132863257865e+35,1.257690364746960853962588160000e+26
1.009999999999999964472863211995e+01,2.042517616761969190264380813460e+00,2.520996176227492352000000000000e+18,1.092679094783206590491411976133e+35,4.626299173871135321185320960000e+26
1.008000000000000007105427357601e+01,2.043668515748241709673038712936e+00,2.553105328148588544000000000000e+18,1.119045495802676412579380249923e+35,9.810164422745132518447513600000e+25
1.006000000000000049737991503207e+01,2.044685219959716970805629898678e+00,2.585769027559771136000000000000e+18,1.146048119392906691621017288138e+35,2.193114985658728426818764800000e+25
1.002999999999999936051153781591e+01,2.045568871707545088867163940449e+00,2.618999361728540160000000000000e+18,1.173702317636278190911762137109e+35,3.564416270293238919053967360000e+26
1.000000000000000000000000000000e+01,2.046320579514054660563715515309e+00,2.652808719113183232000000000000e+18,1.202023813061629348014286575470e+35,1.161430637384084070640648192000e+27
9.980000000000000426325641456060e+00,2.046942125434865200617196023813e+00,2.687209797783604736000000000000e+18,1.231028707583221023170835482726e+35,9.509611340876567529379594240000e+26
9.960000000000000852651282912120e+00,2.047434872097779301469699930749e+00,2.722215614102041088000000000000e+18,1.260733491655308268188610343878e+35,1.000789819859421905540874240000e+26
9.929999999999999715782905695960e+00,2.047800154367592551096777242492e+00,2.757839511672384000000000000000e+18,1.291155053647629011079813184535e+35,6.993891262311113729570242560000e+26
9.910000000000000142108547152020e+00,2.048039863671464289041068695951e+00,2.794095170567102976000000000000e+18,1.322310689447125085761190343800e+35,6.108894271532295728125706240000e+26
9.880000000000000781597009336110e+00,2.048154778808050746619073834154e+00,2.830996616845481472000000000000e+18,1.354218112291351600307757159033e+35,1.159725690914313821006856192000e+27
9.859999999999999431565811391920e+00,2.048146765407540037529088294832e+00,2.868558259101777920000000000000e+18,1.386895462839169541238259669470e+35,3.207894787458184469964390400000e+26
9.839999999999999857891452847980e+00,2.048017278545192443317546349135e+00,2.906794964852523520000000000000e+18,1.420361319484441949169630670676e+35,2.600953514715867578179256320000e+26
9.810000000000000497379915032070e+00,2.047768074297185769694351620274e+00,2.945722003944684544000000000000e+18,1.454634708918601944065168602384e+35,4.132949373718563010274918400000e+26
9.790000000000000923705556488130e+00,2.047400852282804439852270661504e+00,2.985355041073563648000000000000e+18,1.489735116948094986130583620713e+35,6.868693099393982226078105600000e+25
9.759999999999999786837179271970e+00,2.046916433899268916718483524164e+00,3.025710147235458560000000000000e+18,1.525682499572847545973933727338e+35,1.223172379355455451035598848000e+27
9.730000000000000426325641456060e+00,2.046316978136409669986051085289e+00,3.066803811546814976000000000000e+18,1.562497294332059164586452448140e+35,1.907869487287322632811184128000e+27
9.710000000000000852651282912120e+00,2.045604250281888525364593078848e+00,3.108652953442482688000000000000e+18,1.600200431923742350702818886890e+35,1.924320361869570093862617088000e+27
9.689999999999999502620084967930e+00,2.044780097114754280340775949298e+00,3.151274935266779136000000000000e+18,1.638813348104774736592699446526e+35,2.129344830572244589902561280000e+26
9.660000000000000142108547152020e+00,2.043845188650787125794749954366e+00,3.194687575270730240000000000000e+18,1.678357995877837211295909342316e+35,1.157981707737989051901280256000e+27
9.640000000000000568434188608080e+00,2.042801852769194237424699167605e+00,3.238909090247513600000000000000e+18,1.718856857972685350818631927076e+35,1.025648386087511575530307584000e+27
9.609999999999999431565811391920e+00,2.041651905724153337473580904771e+00,3.283957590987934720000000000000e+18,1.760332959628465439719592837513e+35,1.179757147378436333417529344000e+27
9.589999999999999857891452847980e+00,2.040396887023625538404303370044e+00,3.329851359519129088000000000000e+18,1.802809881684490306268938727252e+35,9.484477973628209354789355520000e+26
9.560000000000000497379915032070e+00,2.039038076398848708947753038956e+00,3.376609133310740480000000000000e+18,1.846311773986902737148540474601e+35,2.327239580344956635385430016000e+27
9.540000000000000923705556488130e+00,2.037577730472593717792051393189e+00,3.424250119809313280000000000000e+18,1.890863369118834646819481632522e+35,4.123354251736688308539883520000e+26
9.519999999999999573674358543940e+00,2.036017661693661384703091243864e+00,3.472794009483461120000000000000e+18,1.936489996461883421043984970694e+35,9.199584679973441894476677120000e+26
9.490000000000000213162820728030e+00,2.034358959554421364401832761359e+00,3.522260989263370240000000000000e+18,1.983217596596885496048063861699e+35,6.211015413875254453505884160000e+26
9.470000000000000639488462184090e+00,2.032603694421492690480590681545e+00,3.572671756387425280000000000000e+18,2.031072736052186751065662407018e+35,2.313461515593201094712360960000e+26
9.439999999999999502620084967930e+00,2.030753576894875234160053878441e+00,3.624047532668542976000000000000e+18,2.080082622407751700869297236271e+35,1.978090309034435092328480768000e+27
9.410000000000000142108547152020e+00,2.028810678436458125872832169989e+00,3.676410079195034624000000000000e+18,2.130275119763908002666190116498e+35,2.758169685130497275323219968000e+27
9.400000000000000355271367880050e+00,2.026776404208281423535709109274e+00,3.729781711478986752000000000000e+18,2.181678764583010341188512856890e+35,3.439415763749967614454005760000e+26
9.370000000000000994759830064140e+00,2.024652324113683565798282870674e+00,3.784185315068034048000000000000e+18,2.234322781913707494746679075228e+35,3.142117898263030506182410240000e+26
9.339999999999999857891452847980e+00,2.022440783158529153951121770660e+00,3.839644361634724352000000000000e+18,2.288237102006527193080984692358e+35,1.942853828799455988891516928000e+27
9.320000000000000284217094304040e+00,2.020142926166107688601414338336e+00,3.896182925560040448000000000000e+18,2.343452377330435268599302630828e+35,2.915391999805811071744212992000e+27
9.290000000000000923705556488130e+00,2.017760855764578309390344657004e+00,3.953825701026593792000000000000e+18,2.400000000000001990756122845501e+35,2.185731191064918191243264000000e+27
