8.331250000000000000000000000000e+02,2.678642172181383562801215703075e-01,4.090914107463180000000000000000e+16,9.999999999999999635896294965248e+30,1.675340757746480448986403644085e+02
8.427400000000000090949470177293e+02,2.663992408690151747485685973516e-01,4.165329251514558400000000000000e+16,1.024130049842951555557272374477e+31,1.966898841522986458585364744067e+02
8.525869999999999890860635787249e+02,2.649281651538887838448488309950e-01,4.241032854938713600000000000000e+16,1.048842358991326268336533562982e+31,4.831124140317075443817884661257e+01
8.626730000000000018189894035459e+02,2.634505633329566887113060147385e-01,4.318039278486367200000000000000e+16,1.074150977391185629997765020877e+31,1.473350311056184409608249552548e+02
8.730080000000000381987774744630e+02,2.619659784355351517248777781788e-01,4.396362717944773600000000000000e+16,1.100070294014481148763403452416e+31,9.521098206375069139539846219122e+01
8.836009999999999990905052982271e+02,2.604739221080097921756646428548e-01,4.476017187807972800000000000000e+16,1.126615045039800702289979008614e+31,4.890134812068112069027847610414e+00
8.944600000000000363797880709171e+02,2.589738726395910961564084118436e-01,4.557016504446686400000000000000e+16,1.153800322230430236704182055731e+31,1.692128967034604443142598029226e+02
9.055980000000000700310920365155e+02,2.574652734324021086109723910340e-01,4.639374268774953600000000000000e+16,1.181641581514664018424809652224e+31,1.042505671202641792660870123655e+01
9.170230000000000245563569478691e+02,2.559475312292839310757130988350e-01,4.723103831897385600000000000000e+16,1.210154651773116762997299924173e+31,4.513786878781655786951887421310e+01
9.287470000000000709405867382884e+02,2.544200134304983595967541987193e-01,4.808216656292421600000000000000e+16,1.239355743838081672523509294694e+31,1.454909598367008243258169386536e+02
9.407830000000000154614099301398e+02,2.528820413742076667062974593136e-01,4.894720778877044800000000000000e+16,1.269261459710032231284934600294e+31,6.354664279638720358889258932322e+01
9.531420000000000527506927028298e+02,2.513328850745126796795148038655e-01,4.982623276311156000000000000000e+16,1.299888801996572774740441169920e+31,8.324761585332913682577782310545e+01
9.658379999999999654392013326287e+02,2.497717593663403290449309679389e-01,5.071930536406728800000000000000e+16,1.331255183579044443427699897139e+31,5.890511036400127409251581411809e+01
9.788849999999999909050529822707e+02,2.481978205814742710622056165448e-01,5.162648222989982400000000000000e+16,1.363378437512494383936062672077e+31,1.034305586879359850627224659547e+01
9.922960000000000491127138957381e+02,2.466101629717595000723662224118e-01,5.254781240102303200000000000000e+16,1.396276827164476242438448060826e+31,7.500676221073311467080202419311e+01
1.000000999999999976353137753904e+03,2.450078148428118662849328757147e-01,5.348333695563516000000000000000e+16,1.429969056598512986399775182029e+31,3.684361394411582500000000000000e+14
1.000000999999999976353137753904e+03,2.433897266844849416322915658384e-01,5.443309161910641600000000000000e+16,1.464474281208101503775477963162e+31,4.148630916721076000000000000000e+16
1.000000999999999976353137753904e+03,2.417547426076825378693513357575e-01,5.539714566162979200000000000000e+16,1.499812118607373516914180698931e+31,3.336185341373441920000000000000e+17
1.000000999999999976353137753904e+03,2.401015941811101561675911852944e-01,5.637559373424665600000000000000e+16,1.536002659784432097246496948224e+31,1.284243126715896064000000000000e+18
1.000000999999999976353137753904e+03,2.384289006836889102114440674995e-01,5.736852724724972000000000000000e+16,1.573066480523936334056136271462e+31,3.470031467228086272000000000000e+18
1.000000999999999976353137753904e+03,2.367351673846405935019987509804e-01,5.837603350009252000000000000000e+16,1.611024653105255184590314668032e+31,7.608157095466839040000000000000e+18
1.000000999999999976353137753904e+03,2.350187844376430690296331249556e-01,5.939819548589199200000000000000e+16,1.649898758282908525073617282662e+31,1.452776286797704396800000000000e+19
1.000000999999999976353137753904e+03,2.332780243498728811601949928445e-01,6.043509169254292800000000000000e+16,1.689710897556085029423537140531e+31,2.514142427057883136000000000000e+19
1.000000999999999976353137753904e+03,2.315110398160968585568042499290e-01,6.148679546197888800000000000000e+16,1.730483705734291764483965793075e+31,4.041644974379935334400000000000e+19
1.000000999999999976353137753904e+03,2.297158615999516650951761675969e-01,6.255334471939651200000000000000e+16,1.772240363806075548802413808845e+31,6.134586389523993395200000000000e+19
1.000000999999999976353137753904e+03,2.278903881746718040890442580348e-01,6.363471977777624800000000000000e+16,1.815004612118406441762931343360e+31,8.891906549080889753600000000000e+19
1.000000999999999976353137753904e+03,2.260323800752808698355522665224e-01,6.473088524332404800000000000000e+16,1.858800763874010412451795619021e+31,1.240919782679115366400000000000e+20
1.000000999999999976353137753904e+03,2.241394553380818832621912406466e-01,6.584179397880302400000000000000e+16,1.903653718954406611994278677709e+31,1.677566283190961438720000000000e+20
1.000000999999999976353137753904e+03,2.222090883129762273195950683657e-01,6.696738668423384000000000000000e+16,1.949588978076496321353225758310e+31,2.207099833792013271040000000000e+20
1.000000999999999976353137753904e+03,2.202386075233918605320582173590e-01,6.810759550206650400000000000000e+16,1.996632657290734618624952736154e+31,2.836220941763830087680000000000e+20
1.000000999999999976353137753904e+03,2.182251978443821849307227012105e-01,6.926237914584514400000000000000e+16,2.044811502829224531622427308851e+31,3.570034086981886279680000000000e+20
1.000000999999999976353137753904e+03,2.161659074443169070711689983000e-01,7.043170810866141600000000000000e+16,2.094152906311934505487194233242e+31,4.411712735686936494080000000000e+20
1.000000999999999976353137753904e+03,2.140576526719992211944543214486e-01,7.161554379860802400000000000000e+16,2.144684920320002924848381480141e+31,5.362160358607517122560000000000e+20
1.000000999999999976353137753904e+03,2.118972242871573485878400333604e-01,7.281383802167534400000000000000e+16,2.196436274344750931295462647398e+31,6.419670278234076610560000000000e+20
1.000000999999999976353137753904e+03,2.096812963761777726112711661699e-01,7.402653269332406400000000000000e+16,2.249436391121556426867462058803e+31,7.579589289663239290880000000000e+20
1.000000999999999976353137753904e+03,2.074064365573949353382943172619e-01,7.525355955007740800000000000000e+16,2.303715403357849790292383131238e+31,8.833993761793832386560000000000e+20
1.000000999999999976353137753904e+03,2.050691242029067939967035272275e-01,7.649485989242835200000000000000e+16,2.359304170864849643701035178394e+31,1.017138427587501621248000000000e+21
1.000000999999999976353137753904e+03,2.026657776986555969944703292640e-01,7.775044137843099200000000000000e+16,2.416234298102501633352289537229e+31,1.157641293738185588736000000000e+21
1.000000999999999976353137753904e+03,2.001927912090330774486091058861e-01,7.902032484993803200000000000000e+16,2.474538152147964091993909572403e+31,1.302966085402189103104000000000e+21
1.000000999999999976353137753904e+03,1.976465726095406882922844715722e-01,8.030452746320065600000000000000e+16,2.534248881097579576876598506291e+31,1.450749283751078658048000000000e+21
1.000000999999999976353137753904e+03,1.950235882610839854844897445219e-01,8.160306261011564800000000000000e+16,2.595400432912908086426219210342e+31,1.598201438776125554688000000000e+21
1.000000999999999976353137753904e+03,1.923204192372770793273417666569e-01,8.291592816158014400000000000000e+16,2.658027574721492334171314873958e+31,1.742116098457249513472000000000e+21
1.000000999999999976353137753904e+03,1.895338205918944973760176253563e-01,8.424305249711339200000000000000e+16,2.722165912583461406966988931072e+31,1.878896253824437059584000000000e+21
1.000000999999999976353137753904e+03,1.866607941860021213642539805733e-01,8.558433272345992000000000000000e+16,2.787851911734883678332374745088e+31,2.004601713475974856704000000000e+21
1.000000999999999976353137753904e+03,1.836986801943124580915878141241e-01,8.693965540850803200000000000000e+16,2.855122917319814324553332555776e+31,2.115022148544823558144000000000e+21
1.000000999999999976353137753904e+03,1.806452702354530148731726058031e-01,8.830889635677672000000000000000e+16,2.924017175622494150642441492890e+31,2.205780717280039272448000000000e+21
1.000000999999999976353137753904e+03,1.774989421447684956323342930773e-01,8.969197203886472000000000000000e+16,2.994573855811911236545901756416e+31,2.272473526752277692416000000000e+21
1.000000999999999976353137753904e+03,1.742588444693386751094266173823e-01,9.108902048328233600000000000000e+16,3.066833072211026985979509473280e+31,2.310849546646240886784000000000e+21
1.000000999999999976353137753904e+03,1.709251117180015377972068790768e-01,9.250024950535604800000000000000e+16,3.140835907103491028192604454912e+31,2.317036302023970258944000000000e+21
1.000000999999999976353137753904e+03,1.674990914773546168969886593914e-01,9.392587709315916800000000000000e+16,3.216624434090429831458714969702e+31,2.287811634142127587328000000000e+21
1.000000999999999976353137753904e+03,1.639835915546041522627973563431e-01,9.536613008037728000000000000000e+16,3.294241742011087340992876825805e+31,2.220917537767734378496000000000e+21
1.000000999999999976353137753904e+03,1.603831444435293851480395233011e-01,9.682102037572464000000000000000e+16,3.373731959440546064481102122189e+31,2.115405517653733015552000000000e+21
1.000000999999999976353137753904e+03,1.567042361695160090917511297448e-01,9.829009744428299200000000000000e+16,3.455140279778605056217306890240e+31,1.971991489815254401024000000000e+21
1.000000999999999976353137753904e+03,1.529555702529077354512310193968e-01,9.977282445495635200000000000000e+16,3.538512986944052029349703974912e+31,1.793391479135376769024000000000e+21
1.000000999999999976353137753904e+03,1.491483867959821074666848517154e-01,1.012686300436641440000000000000e+17,3.623897481688913152550012295578e+31,1.584599050708154318848000000000e+21
1.000000999999999976353137753904e+03,1.452967919878795088894918308142e-01,1.027770558836670560000000000000e+17,3.711342308547813076213410090189e+31,1.353045052929906835456000000000e+21
1.000000999999999976353137753904e+03,1.414181974001502417603859385054e-01,1.042992073787046240000000000000e+17,3.800897183437326432437952472678e+31,1.108569804326164365312000000000e+21
1.000000999999999976353137753904e+03,1.375338412938319765377315206933e-01,1.058372257790551200000000000000e+17,3.892613021921602672516285857792e+31,8.631113192727739105280000000000e+20
1.000000999999999976353137753904e+03,1.336689817512763389650842782430e-01,1.073933903216626080000000000000e+17,3.986541968159893083726523085619e+31,6.299674941290593648640000000000e+20
1.000000999999999976353137753904e+03,1.298528071552421947476574359825e-01,1.089700422914920960000000000000e+17,4.082737424552608626326419328205e+31,4.225394134474015375360000000000e+20
1.000000999999999976353137753904e+03,1.261177975694884600965650633952e-01,1.105654352902026400000000000000e+17,4.181254082102712421680493572915e+31,2.525204464201302999040000000000e+20
1.000000999999999976353137753904e+03,1.224979466415025697312302099817e-01,1.121709894088177120000000000000e+17,4.282147951509895187556417195213e+31,1.276465911234271641600000000000e+20
1.000000999999999976353137753904e+03,1.190271132363305423007560079895e-01,1.137770610069418240000000000000e+17,4.385476395014721608568529118822e+31,4.945903912299035852800000000000e+19
1.000000999999999976353137753904e+03,1.157377947388442129827978988033e-01,1.153863925813074560000000000000e+17,4.491298159011513691055767683072e+31,1.174091036459024384000000000000e+19
1.000000999999999976353137753904e+03,1.126614089981985422639354510466e-01,1.170340565428092000000000000000e+17,4.599673407448017476460855531930e+31,8.208851070343287040000000000000e+17
9.950360000000000582076609134674e+02,1.098251167389982935196357516361e-01,1.187620273849008800000000000000e+17,4.710663756031036646183484889498e+31,3.549952358329897528221863467479e-01
8.959950000000000045474735088646e+02,1.072439149452377865623375896575e-01,1.205715147703084800000000000000e+17,4.824332307257411106384152992154e+31,8.989508838570277049484502640553e-01
8.042649999999999863575794734061e+02,1.049129382517093173055044985631e-01,1.223320891256793440000000000000e+17,4.940743686290493260351205172838e+31,2.766841385989781798571129911579e+00
7.203229999999999790816218592227e+02,1.028104416388905123502794936030e-01,1.238811705324208960000000000000e+17,5.059964077701930601032111987098e+31,2.507857368308414436341990949586e+00
6.439640000000000554791768081486e+02,1.009105302970365464210189543337e-01,1.253457937954649920000000000000e+17,5.182061263100422342256185311232e+31,6.344819202060457996594777796417e+01
5.760489999999999781721271574497e+02,9.922133876789664130857460122570e-02,1.277153340627797760000000000000e+17,5.307104659668263924686588896870e+31,3.197828786771523823517782147974e+01
5.180729999999999790816218592227e+02,9.777052484337296622829427406032e-02,1.307636835750532480000000000000e+17,5.435165359627819092269796740301e+31,3.202718467656062557580298744142e+02
4.681150000000000090949470177293e+02,9.650809830144507772686779389915e-02,1.328487842731428800000000000000e+17,5.566316170660276308452691882803e+31,1.503623676088698175590252503753e+02
4.237819999999999822648533154279e+02,9.537797920785831551349076562474e-02,1.342527818020491360000000000000e+17,5.700631657299935292003941194138e+31,4.925347788877934362972155213356e+01
3.838779999999999859028321225196e+02,9.435483678795018869234212388619e-02,1.354135228386546560000000000000e+17,5.838188183326889348467731621478e+31,2.563885958608157125127036124468e+02
3.479770000000000322870619129390e+02,9.343234439832515114687794266501e-02,1.366813763503056000000000000000e+17,5.979063955183097574461848682496e+31,1.537257974114363605622202157974e+02
3.158709999999999809006112627685e+02,9.260913216687335913768208683905e-02,1.380849398997746080000000000000e+17,6.123339066435860128033236687258e+31,2.747301678413048648508265614510e+03
2.872860000000000013642420526594e+02,9.188176259589360406199176622977e-02,1.395891403982895520000000000000e+17,6.271095543314249088636815409152e+31,2.161430199233436724171042442322e+02
2.618919999999999959072738420218e+02,9.124510989886829015471647608138e-02,1.411575060887941600000000000000e+17,6.422417391344280716764025716736e+31,5.343526771383089362643659114838e+04
2.393430000000000177351466845721e+02,9.069316494481363677415686197492e-02,1.427519429126687520000000000000e+17,6.577390643109656155481424737075e+31,3.141408800360470195300877094269e+03
2.192899999999999920419213594869e+02,9.021970328853178011652147461064e-02,1.443329235014781760000000000000e+17,6.736103407164454461936317864346e+31,2.260537772211080882698297500610e+05
2.014130000000000109139364212751e+02,8.981885905531790392775093323507e-02,1.458781687337567680000000000000e+17,6.898645918126608212204002580890e+31,2.289142358823368558660149574280e+05
1.854300000000000068212102632970e+02,8.948563738460248162542853833656e-02,1.473942691938968960000000000000e+17,7.065110587979876831583462123110e+31,9.856089335206034593284130096436e+04
1.711030000000000086401996668428e+02,8.921591256446549655922950705644e-02,1.488907541825456960000000000000e+17,7.235592058613795511342499836723e+31,3.128513111284491606056690216064e+05
1.582309999999999945430317893624e+02,8.900623493815476572343925454334e-02,1.503775943723736640000000000000e+17,7.410187255631349590330798243840e+31,2.491423090585949830710887908936e+06
1.466440000000000054569682106376e+02,8.885366382538618934550100902925e-02,1.518651918860883520000000000000e+17,7.588995443455337549619000455987e+31,2.968387566240804269909858703613e+06
1.361949999999999931787897367030e+02,8.875562720260732341159837233135e-02,1.533637072045101440000000000000e+17,7.772118281763846237086552581734e+31,4.838806413197852671146392822266e+05
1.267560000000000002273736754432e+02,8.870980637226470733036620686107e-02,1.548766089532492480000000000000e+17,7.959659883288122625364351516672e+31,1.058921477865781635046005249023e+06
1.182150000000000034106051316485e+02,8.871407926642081720469690253594e-02,1.564032198533316480000000000000e+17,8.151726873004806851847422948147e+31,2.032732691989441215991973876953e+07
1.104750000000000085265128291212e+02,8.876651073370735167689105082900e-02,1.579427739226932160000000000000e+17,8.348428448756538625883457034650e+31,2.383267801404207944869995117188e+06
1.034459999999999979536369210109e+02,8.886534553597101593336304858894e-02,1.594944714477839680000000000000e+17,8.549876443335348107170014245683e+31,6.003992404026025533676147460938e+07
9.705299999999999727151589468122e+01,8.900900009473836083095932281140e-02,1.610574782835349760000000000000e+17,8.756185388064035893647556529357e+31,8.734841794156950712203979492188e+07
9.122700000000000386535248253495e+01,8.919605382649718749998868361217e-02,1.626309251953073280000000000000e+17,8.967472577912143773779869302784e+31,2.056375622173289060592651367188e+08
8.590900000000000602540239924565e+01,8.942524049246851347572118129392e-02,1.642139072462589760000000000000e+17,9.183858138182463975447545564365e+31,5.929138454215002059936523437500e+07
8.104399999999999693045538151637e+01,8.969543955653776212688654823069e-02,1.658054832335804480000000000000e+17,9.405465092807401534761625609830e+31,5.053618948958775997161865234375e+08
7.658700000000000329691829392686e+01,9.000566860393795221018109486977e-02,1.674046751772626560000000000000e+17,9.632419434292985794310136502682e+31,7.119338686989083290100097656250e+08
7.249599999999999511146597797051e+01,9.035507566251731181861117647713e-02,1.690104678650341440000000000000e+17,9.864850195350688727994868537754e+31,8.434036027838897705078125000000e+08
6.873399999999999465671862708405e+01,9.074293231469122977816965658349e-02,1.706219170340590720000000000000e+17,1.010288952225766895821756867543e+32,1.743219153366055488586425781250e+09
6.526900000000000545696821063757e+01,9.116862217986546057524321895471e-02,1.722388838056391040000000000000e+17,1.034667274998757714352922930708e+32,2.259828830606842994689941406250e+09
6.207200000000000272848410531878e+01,9.163162445177830406350949488115e-02,1.738616183367310720000000000000e+17,1.059633847915348555698354918523e+32,3.217840135020532608032226562500e+09
5.911800000000000210320649784990e+01,9.213150197064201574193020860548e-02,1.754903851006931520000000000000e+17,1.085202865480824446456621181174e+32,9.584379878569335937500000000000e+08
5.638300000000000267164068645798e+01,9.266789231788692682290076163554e-02,1.771254609683226560000000000000e+17,1.111388864714590338264935044219e+32,7.255144723119846343994140625000e+09
5.384799999999999897681846050546e+01,9.324049959754658611910116405852e-02,1.787671353491119680000000000000e+17,1.138206733415054646039624590295e+32,1.734620695581346893310546875000e+10
5.149500000000000454747350886464e+01,9.384908734775458671872883087417e-02,1.804157103369668160000000000000e+17,1.165671718623942986355673692897e+32,2.655718885580941772460937500000e+10
4.930799999999999982946974341758e+01,9.449347220073481268265425114805e-02,1.820715008607744320000000000000e+17,1.193799435294857544830903931372e+32,2.284990037786537170410156250000e+10
4.727199999999999846522769075818e+01,9.517351820098109149714815657717e-02,1.837348348402778880000000000000e+17,1.222605875171009731083081089024e+32,3.837986038046153259277343750000e+10
4.537500000000000000000000000000e+01,9.588913183474415125040479779273e-02,1.854060533476925120000000000000e+17,1.252107415877171593994481948426e+32,9.924826729427444458007812500000e+09
4.360399999999999920419213594869e+01,9.664025737683185068860325372953e-02,1.870855149129405120000000000000e+17,1.282320830230995953529812093501e+32,4.398595801964132690429687500000e+10
4.195000000000000284217094304040e+01,9.742687191591373196963843383855e-02,1.887737524653093120000000000000e+17,1.313263295779124700755067278459e+32,1.195082042254507446289062500000e+10
4.040200000000000102318153949454e+01,9.824897720425773695041016253526e-02,1.904715283541272640000000000000e+17,1.344952404563193789186657264599e+32,1.488503012012667846679687500000e+11
3.895300000000000295585778076202e+01,9.910659358548443154113272157701e-02,1.921796463935005120000000000000e+17,1.377406173121700925969162368451e+32,2.090918217439215087890625000000e+11
3.759499999999999886313162278384e+01,9.999975572743051432933469868658e-02,1.938989387174722560000000000000e+17,1.410643052733116683572519895040e+32,1.495599639273077392578125000000e+11
3.632000000000000028421709430404e+01,1.009285087632195848650340508357e-01,1.956302662322627520000000000000e+17,1.444681939906180000493082519798e+32,6.436693966249418945312500000000e+11
3.512299999999999755573298898526e+01,1.018929047194458009650830376813e-01,1.973745191057643520000000000000e+17,1.479542187123327866498260328776e+32,7.999143703393178710937500000000e+11
3.399799999999999755573298898526e+01,1.028929992718002617291261913124e-01,1.991326172964125760000000000000e+17,1.515243613843363191205699392635e+32,4.898610703857807617187500000000e+11
3.293900000000000005684341886081e+01,1.039288486434463282259699212773e-01,2.009055111236598080000000000000e+17,1.551806517769617436743325062267e+32,7.990370034867666015625000000000e+11
3.194200000000000017053025658242e+01,1.050005066989450064340871904278e-01,2.026941818823097280000000000000e+17,1.589251686390015375752102538117e+32,4.975087052750869140625000000000e+11
3.100199999999999889155333221424e+01,1.061080224046554026928745884106e-01,2.044995989316140800000000000000e+17,1.627600408795601197372802198405e+32,7.329467519182470703125000000000e+11
3.011500000000000198951966012828e+01,1.072514450090886473088147567978e-01,2.063219629042874560000000000000e+17,1.666874487784246953156672319652e+32,2.260690015933719726562500000000e+12
2.927800000000000224531504500192e+01,1.084308441298807990094132946979e-01,2.081607740778330880000000000000e+17,1.707096252256397100956936705147e+32,2.438398859963886718750000000000e+12
2.848700000000000187583282240666e+01,1.096463174772785986732515084441e-01,2.100154868978748160000000000000e+17,1.748288569910059770092507575091e+32,4.086101743204458984375000000000e+12
2.773900000000000076738615462091e+01,1.108979927852729030490763761918e-01,2.118855324020199680000000000000e+17,1.790474860241851848548691675709e+32,7.394975043199234375000000000000e+12
2.703200000000000002842170943040e+01,1.121860294468562391223542817897e-01,2.137703177086626240000000000000e+17,1.833679107862039359653809645158e+32,1.446771403553525390625000000000e+12
2.636200000000000187583282240666e+01,1.135106200719599861548303465497e-01,2.156692255212623680000000000000e+17,1.877925876130729167895635259556e+32,3.779195802663261718750000000000e+11
2.572599999999999909050529822707e+01,1.148719919376702675029022771014e-01,2.175816136494355200000000000000e+17,1.923240321123131864038363218575e+32,1.536576558737135156250000000000e+13
2.512399999999999877786649449263e+01,1.162704084049900749020522994215e-01,2.195068145482923200000000000000e+17,1.969648205931807032789529578701e+32,7.323074239196632812500000000000e+12
2.455199999999999960209606797434e+01,1.177061702484276106694949248777e-01,2.214441451243520640000000000000e+17,2.017175915314021521640154432799e+32,1.545759684310707812500000000000e+13
2.400900000000000034106051316485e+01,1.191796134527437489580847795878e-01,2.233932555878747840000000000000e+17,2.065850470692549848172950926131e+32,1.409576420463346875000000000000e+13
2.349300000000000210320649784990e+01,1.206910968289499896943794965409e-01,2.253542296583420480000000000000e+17,2.115699545518445842956899948954e+32,7.255961358453687500000000000000e+12
2.300199999999999889155333221424e+01,1.222409963396697968329718264613e-01,2.273271807401492480000000000000e+17,2.166751481004515665833855664783e+32,7.032936234534312500000000000000e+12
2.253399999999999891997504164465e+01,1.238297043153594179099030725411e-01,2.293122250537463360000000000000e+17,2.219035302238443550216543472189e+32,5.510359527119215625000000000000e+13
2.208900000000000218847162614111e+01,1.254576288602915479231114659342e-01,2.313094816820957120000000000000e+17,2.272580734684688803635479990764e+32,5.223441914036584375000000000000e+13
2.166499999999999914734871708788e+01,1.271251933165036818174087329680e-01,2.333190726177827840000000000000e+17,2.327418221084761863835862192620e+32,3.945121765251628125000000000000e+13
2.126099999999999923261384537909e+01,1.288328358007018448194713755584e-01,2.353411228106920320000000000000e+17,2.383578938764930564811529807462e+32,1.252339294466203125000000000000e+12
2.087500000000000000000000000000e+01,1.305810087635213001533429633128e-01,2.373757602163950400000000000000e+17,2.441094817361937549884530339348e+32,8.201610268077781250000000000000e+12
2.050600000000000022737367544323e+01,1.323701785808492348284204354059e-01,2.394231158451666240000000000000e+17,2.499998556976251603170369061519e+32,1.165343196152419375000000000000e+14
2.015399999999999991473487170879e+01,1.342008251700471110900991789094e-01,2.414833238116982720000000000000e+17,2.560323646763395285724663035986e+32,1.893121023225838750000000000000e+14
1.981800000000000139266376208980e+01,1.360734416290801385152064995054e-01,2.435565213855298880000000000000e+17,2.622104383973883336331574032466e+32,1.396373550771355000000000000000e+14
1.949699999999999988631316227838e+01,1.379885338644878944869276438112e-01,2.456428490421921600000000000000e+17,2.685375893452594527270546933023e+32,2.886732357068012500000000000000e+13
1.918900000000000005684341886081e+01,1.399466203460795199475796835031e-01,2.477424505151200960000000000000e+17,2.750174147608666278495820542116e+32,2.372419733116793750000000000000e+14
1.889499999999999957367435854394e+01,1.419482316935779808719786387883e-01,2.498554728483157760000000000000e+17,2.816535986867259660137803693425e+32,1.531660034872975000000000000000e+14
1.861299999999999954525264911354e+01,1.439939104304703010317467715140e-01,2.519820664498451520000000000000e+17,2.884499140614833165627352584028e+32,3.991784793110795000000000000000e+14
1.834299999999999997157829056960e+01,1.460842106730659561986129801880e-01,2.541223851460962560000000000000e+17,2.954102248649819802490790100337e+32,7.073278953142150000000000000000e+14
1.808500000000000085265128291212e+01,1.482196978133757947482251893234e-01,2.562765862369406080000000000000e+17,3.025384883150865418369716526776e+32,2.750677212279507500000000000000e+14
1.783699999999999974420461512636e+01,1.504009482838412070648814733431e-01,2.584448305517311040000000000000e+17,3.098387571175407676568238156677e+32,5.805638010129460000000000000000e+14
1.760000000000000142108547152020e+01,1.526285491903621172049554388650e-01,2.606272825061852160000000000000e+17,3.173151817700651637186099528335e+32,5.870932441633025000000000000000e+13
1.737199999999999988631316227838e+01,1.549030981207999146942455581666e-01,2.628241101602166080000000000000e+17,3.249720129221020556560849646387e+32,1.569197599769787500000000000000e+14
1.715299999999999869260136620142e+01,1.572252027902201754194777549856e-01,2.650354852766849600000000000000e+17,3.328136037914766563585508832707e+32,6.429617461733845000000000000000e+14
1.694300000000000139266376208980e+01,1.595954807707537781436002433111e-01,2.672615833811331840000000000000e+17,3.408444126393772267612801534525e+32,9.789267784141505000000000000000e+14
1.674200000000000088107299234252e+01,1.620145592150898095074040838881e-01,2.695025838225218240000000000000e+17,3.490690053050569308625437762519e+32,1.018469593316615000000000000000e+14
1.654800000000000181898940354586e+01,1.644830745650541492519636221914e-01,2.717586698349927360000000000000e+17,3.574920578016974559840923056865e+32,1.040899546894024000000000000000e+15
1.636200000000000187583282240666e+01,1.670016722433297906569293900247e-01,2.740300274273006080000000000000e+17,3.661183589749116870392582777078e+32,1.349985877238743000000000000000e+15
1.618299999999999982946974341758e+01,1.695710065472165184452535413584e-01,2.763168376063022400000000000000e+17,3.749528132253959421237001359196e+32,3.006188444939274000000000000000e+15
1.601200000000000045474735088646e+01,1.721917406457213750581303202125e-01,2.786192809682658560000000000000e+17,3.840004432972795665487223460987e+32,1.814086514503100000000000000000e+14
1.584600000000000008526512829121e+01,1.748645462976759767936840717084e-01,2.809375417478802560000000000000e+17,3.932663931337583773651047588823e+32,4.600026792127686000000000000000e+15
1.568800000000000061106675275369e+01,1.775901036225262796808266330117e-01,2.832718078983765120000000000000e+17,4.027559308016337586464528646799e+32,2.942797454302170000000000000000e+14
1.553500000000000014210854715202e+01,1.803691007523567924053509159421e-01,2.856222711515000640000000000000e+17,4.124744514864147321949412833362e+32,1.329936352385302000000000000000e+15
1.538799999999999990052401699359e+01,1.832022335513546207330648485367e-01,2.879891270785641920000000000000e+17,4.224274805597260048116339273892e+32,1.615258474410154000000000000000e+15
1.524600000000000044053649617126e+01,1.860902053026035896099443789353e-01,2.903725751525244800000000000000e+17,4.326206767206645449874754062254e+32,7.653296299206244000000000000000e+15
1.510999999999999943156581139192e+01,1.890337263530350309093108762681e-01,2.927728188111719680000000000000e+17,4.430598352130256003568167540490e+32,6.760780410926696000000000000000e+15
1.497900000000000098054897534894e+01,1.920335138314335221565443134750e-01,2.951900655214253440000000000000e+17,4.537508911201258087881288418591e+32,7.000982763626408000000000000000e+15
1.485299999999999975841546984157e+01,1.950902912550761258980713819255e-01,2.976245268447731840000000000000e+17,4.646999227391380454430852566221e+32,5.310296081433500000000000000000e+15
1.473200000000000109423581307055e+01,1.982047882013083239804984714283e-01,3.000764185039178240000000000000e+17,4.759131550368491173130885723587e+32,3.391433382873440000000000000000e+14
1.461500000000000021316282072803e+01,2.013777399100178111535086600270e-01,3.025459604505579520000000000000e+17,4.873969631888045952467139286794e+32,3.262624883472360000000000000000e+14
1.450200000000000066791017161449e+01,2.046098869554516808122457405261e-01,3.050333769344917120000000000000e+17,4.991578762038536402999253957345e+32,4.159638211206572000000000000000e+15
1.439300000000000068212102632970e+01,2.079019748072485629375449889267e-01,3.075388965739456000000000000000e+17,5.112025806361544554257677507625e+32,1.543746136300354400000000000000e+16
1.428899999999999970157205098076e+01,2.112547534353247380423113099823e-01,3.100627524271926400000000000000e+17,5.235379243867502088569641962045e+32,2.556432118948160000000000000000e+15
1.418800000000000061106675275369e+01,2.146689769163778460647762358349e-01,3.126051820655434240000000000000e+17,5.361709205968778775784982367437e+32,7.947242980809160000000000000000e+15
1.409100000000000108002495835535e+01,2.181454029771488223321540544930e-01,3.151664276476891520000000000000e+17,5.491087516352127394823251343442e+32,6.257949323825672000000000000000e+15
1.399699999999999988631316227838e+01,2.216847925477798131321804930849e-01,3.177467359954498560000000000000e+17,5.623587731813712907480255483085e+32,2.388619558060158400000000000000e+16
1.390700000000000002842170943040e+01,2.252879093305759639065399824176e-01,3.203463586709697280000000000000e+17,5.759285184078588158525120939295e+32,1.815280785353944000000000000000e+16
1.382000000000000028421709430404e+01,2.289555192890415924455993490483e-01,3.229655520553726080000000000000e+17,5.898257022630176371845021994844e+32,2.585735092111152000000000000000e+16
1.373600000000000065369931689929e+01,2.326883902010027649343015809791e-01,3.256045764253235840000000000000e+17,6.040582258572780682204869453414e+32,4.764428811095214400000000000000e+16
1.365600000000000058264504332328e+01,2.364872915177158585464667339693e-01,3.282636754052913280000000000000e+17,6.186341809552590179810604860047e+32,6.297481894023056000000000000000e+15
1.357799999999999940314410196152e+01,2.403529950724606623069234956347e-01,3.309430760661996800000000000000e+17,6.335618545762628886434654422303e+32,1.699976917175249600000000000000e+16
1.350300000000000011368683772162e+01,2.442862749657837562189399704948e-01,3.336430083466024320000000000000e+17,6.488497337057808893194952748564e+32,1.980430360215011200000000000000e+16
1.343100000000000093791641120333e+01,2.482879071567382911478460982835e-01,3.363637059313643520000000000000e+17,6.645065101206871467691434217308e+32,5.471225977844848000000000000000e+15
1.336100000000000065369931689929e+01,2.523586689537843374964154463669e-01,3.391054063111272320000000000000e+17,6.805410853308651338853992659681e+32,3.031271042872768000000000000000e+16
1.329400000000000048316906031687e+01,2.564993385595591979253526915272e-01,3.418683508427624960000000000000e+17,6.969625756400751489081953285571e+32,2.114816284855379200000000000000e+16
1.322900000000000098054897534894e+01,2.607106945864046121386081722449e-01,3.446527848109156480000000000000e+17,7.137803173289419065372910959985e+32,5.738328774771318400000000000000e+16
1.316699999999999981525888870237e+01,2.649935155120735075229276844766e-01,3.474589574906035200000000000000e+17,7.310038719630070906972355218637e+32,2.026579133895280000000000000000e+16
1.310700000000000109423581307055e+01,2.693485791534329099050637523760e-01,3.502871222109082880000000000000e+17,7.486430318288526794321063281951e+32,1.376939138718963200000000000000e+16
1.304899999999999948840923025273e+01,2.737766621507295994319974852260e-01,3.531375364198268160000000000000e+17,7.667078255014611805544586223288e+32,2.591948012094038400000000000000e+16
1.299300000000000032684965844965e+01,2.782785393982792898626144051377e-01,3.560104617502308480000000000000e+17,7.852085235457923595619511492936e+32,6.101532195106816000000000000000e+16
1.293900000000000005684341886081e+01,2.828549834519071271010659529566e-01,3.589061640870093440000000000000e+17,8.041556443560626062212051333284e+32,1.253000060475996800000000000000e+17
1.288700000000000045474735088646e+01,2.875067639493465443401021275349e-01,3.618249136354261120000000000000e+17,8.235599601358651921544355459891e+32,2.122499570575912960000000000000e+17
1.283800000000000096633812063374e+01,2.922346470168821208623910479218e-01,3.647669849906856960000000000000e+17,8.434325030226027219640379412316e+32,1.002998612952691200000000000000e+16
1.279000000000000092370555648813e+01,2.970393946102866666869601885992e-01,3.677326572087472000000000000000e+17,8.637845713597035127758782254285e+32,6.485970301722304000000000000000e+15
1.274300000000000032684965844965e+01,3.019217639237448125300034007523e-01,3.707222138784172800000000000000e+17,8.846277361201855825720251263222e+32,2.122380312170698240000000000000e+17
1.269899999999999984368059813278e+01,3.068825066913324350892366965127e-01,3.737359431947637760000000000000e+17,9.059738474852230084825290658284e+32,4.915128326365241600000000000000e+16
1.265600000000000058264504332328e+01,3.119223685419373892635519496253e-01,3.767741380338441600000000000000e+17,9.278350415814518500934305311621e+32,9.051722057330726400000000000000e+16
1.261500000000000021316282072803e+01,3.170420883010234280874328760547e-01,3.798370956538638080000000000000e+17,9.502237473808492458890037863383e+32,2.454386872161798400000000000000e+16
1.257500000000000106581410364015e+01,3.222423973526780671683411583217e-01,3.829251166590303360000000000000e+17,9.731526937671053277135230520525e+32,1.191073958371169280000000000000e+17
1.253700000000000081001871876651e+01,3.275240189614126440353913949366e-01,3.860385061431910400000000000000e+17,9.966349167724917614076745817784e+32,5.387072116756902400000000000000e+16
1.250000000000000000000000000000e+01,3.328876675574542476354622522194e-01,3.891775741205087360000000000000e+17,1.020683766989437671184814990950e+33,1.639576917221743360000000000000e+17
1.246499999999999985789145284798e+01,3.383340479722421467734250200010e-01,3.923426356057877120000000000000e+17,1.045312917160784329984882199495e+33,3.085798714096960000000000000000e+16
1.243100000000000093791641120333e+01,3.438638547078290974567948978802e-01,3.955340106962759680000000000000e+17,1.070536369953355089636735422824e+33,3.958605795233126400000000000000e+16
1.239799999999999968736119626556e+01,3.494777711283899579441936111834e-01,3.987520246549612800000000000000e+17,1.096368465919021764780569017713e+33,2.195250045388034560000000000000e+17
1.236700000000000088107299234252e+01,3.551764686841282214757598012511e-01,4.019970079954555520000000000000e+17,1.122823891647888091710488274010e+33,2.339197055983168000000000000000e+16
1.233600000000000029842794901924e+01,3.609606061005323773827058175812e-01,4.052692965684146560000000000000e+17,1.149917688118208289223949877772e+33,7.422877695872729600000000000000e+17
1.230700000000000038369307731045e+01,3.668308285563107173921082448942e-01,4.085692316495738240000000000000e+17,1.177665259247792199228928013894e+33,8.640412924586496000000000000000e+17
1.228000000000000113686837721616e+01,3.727877668698534874280881012965e-01,4.118971600294497920000000000000e+17,1.206082380651753833062150526992e+33,6.578963410530380800000000000000e+16
1.225300000000000011368683772162e+01,3.788320366046103448987025785755e-01,4.152534341047158400000000000000e+17,1.235185208611586106146127857320e+33,3.237502331207400960000000000000e+17
1.222700000000000031263880373444e+01,3.849642372390185141028950965847e-01,4.186384119712776320000000000000e+17,1.264990289260660123993534304879e+33,9.108795668064855040000000000000e+17
1.220299999999999940314410196152e+01,3.911849513002290668062244094472e-01,4.220524575191372800000000000000e+17,1.295514567991369448131801424855e+33,1.953046211449305600000000000000e+17
1.217900000000000027000623958884e+01,3.974947434478547370062528898416e-01,4.254959405290182400000000000000e+17,1.326775399089270915341932386320e+33,8.505480005377822720000000000000e+17
1.215700000000000002842170943040e+01,4.038941595918974503121035013464e-01,4.289692367708442880000000000000e+17,1.358790555599674608352387301114e+33,1.057611703693294080000000000000e+17
1.213499999999999978683717927197e+01,4.103837259980197549324998362863e-01,4.324727257365943680000000000000e+17,1.391578239432426544693614682833e+33,6.201852073549086720000000000000e+17
1.211400000000000076738615462091e+01,4.169639489879820581919034339080e-01,4.360067724997017600000000000000e+17,1.425157091710297482522922410050e+33,1.338531137498425856000000000000e+18
1.209399999999999941735495667672e+01,4.236353150537117695506594827748e-01,4.395717371225190400000000000000e+17,1.459546203367302914909149432119e+33,2.026244308365997056000000000000e+18
1.207600000000000051159076974727e+01,4.303982902032598700792220824951e-01,4.431679848721094400000000000000e+17,1.494765126002646514275758372815e+33,1.552775791935641600000000000000e+16
1.205700000000000038369307731045e+01,4.372533190487897791776106259931e-01,4.467958863861393920000000000000e+17,1.530833882996595813475557698437e+33,2.014447184811652096000000000000e+18
1.204000000000000092370555648813e+01,4.442008239290370363860915858822e-01,4.504558177580408320000000000000e+17,1.567772980894582769069197621199e+33,1.058295086474276864000000000000e+18
1.202299999999999968736119626556e+01,4.512412039934429741627752719069e-01,4.541481606236336640000000000000e+17,1.605603421066001419903926425092e+33,2.897582350663811072000000000000e+18
1.200800000000000089528384705773e+01,4.583748343296961125226118838327e-01,4.578733022493554560000000000000e+17,1.644346711644337416021243466875e+33,3.053292049926717440000000000000e+17
1.199300000000000032684965844965e+01,4.656020650064236487963853505789e-01,4.616316356219946880000000000000e+17,1.684024879755408596340537112396e+33,1.690369078452367360000000000000e+17
1.197799999999999975841546984157e+01,4.729232201979595706653469733283e-01,4.654235595400521600000000000000e+17,1.724660484040677090472395295162e+33,2.195931355887025152000000000000e+18
1.196499999999999985789145284798e+01,4.803385972369861867115048426058e-01,4.692494787067130240000000000000e+17,1.766276627482747335036141398131e+33,2.129502239914393600000000000000e+16
1.195100000000000051159076974727e+01,4.878484656882383641018918751797e-01,4.731098038244917120000000000000e+17,1.808896970540316868725132415205e+33,4.069736803557632000000000000000e+18
1.193900000000000005684341886081e+01,4.954530664342666201882536824996e-01,4.770049516915564160000000000000e+17,1.852545744600218587548592057090e+33,1.764401846630548480000000000000e+18
1.192699999999999960209606797434e+01,5.031526107485406740238431666512e-01,4.809353452997967360000000000000e+17,1.897247765753769443025808449864e+33,2.962037209916471296000000000000e+18
1.191600000000000036948222259525e+01,5.109472793258960088280673517147e-01,4.849014137970288640000000000000e+17,1.943028448905836145708803374973e+33,1.783226951156877312000000000000e+18
1.190499999999999936051153781591e+01,5.188372215867305126124620073824e-01,4.889035843280147200000000000000e+17,1.989913822224206691607171469148e+33,4.247048878945339392000000000000e+18
1.189499999999999957367435854394e+01,5.268225554856111880752678189310e-01,4.929422770957900800000000000000e+17,2.037930541937654927230728044282e+33,3.538685038799017984000000000000e+18
1.188600000000000100897068477934e+01,5.349033670156846387300220158068e-01,4.970179170376333440000000000000e+17,2.087105907491083351352971125326e+33,2.810066123640872960000000000000e+17
1.187599999999999944577666610712e+01,5.430797093310827383660921441333e-01,5.011309350237772800000000000000e+17,2.137467877066361665281541583929e+33,7.460779635914813440000000000000e+18
1.186800000000000032684965844965e+01,5.513516018769519799747058641515e-01,5.052817679487359360000000000000e+17,2.189045083477680632915547595473e+33,1.926969621602609152000000000000e+18
1.185999999999999943156581139192e+01,5.597190295124875314414225613291e-01,5.094708588241400960000000000000e+17,2.241866850450465055102265678889e+33,1.144037757705820160000000000000e+18
1.185200000000000031263880373444e+01,5.681819416463760319402354070917e-01,5.136986568731847680000000000000e+17,2.295963209293095459294302900847e+33,3.691686118458652672000000000000e+18
1.184500000000000063948846218409e+01,5.767402513669135366569662437541e-01,5.179656176266828160000000000000e+17,2.351364915970920419191483105542e+33,1.645544656145123328000000000000e+18
1.183800000000000096633812063374e+01,5.853938345875825399744485366682e-01,5.222722030207321600000000000000e+17,2.408103468592266238745118366499e+33,3.112453310518876160000000000000e+18
1.183099999999999951683093968313e+01,5.941425292403964553145101490372e-01,5.266188814961164800000000000000e+17,2.466211125316341543411339289952e+33,1.157207083231388057600000000000e+19
1.182500000000000106581410364015e+01,6.029861344012329427144436522212e-01,5.310061280993637120000000000000e+17,2.525720922693466394814533859279e+33,1.098560448998446284800000000000e+19
1.182000000000000028421709430404e+01,6.119244094917906107156113648671e-01,5.354344245855578240000000000000e+17,2.586666694447445073045255184450e+33,1.474829328258506752000000000000e+18
1.181400000000000005684341886081e+01,6.209570734882948750410491811635e-01,5.399042601394712960000000000000e+17,2.649083090711564183626601593831e+33,1.122560439712045056000000000000e+19
1.180900000000000105160324892495e+01,6.300838035703344441884610205307e-01,5.444161540850897280000000000000e+17,2.713005597728554336280878665171e+33,1.145253486103183769600000000000e+19
1.180499999999999971578290569596e+01,6.393042324031064094214116266812e-01,5.489706634059299200000000000000e+17,2.778470558025950647439986207490e+33,8.792715214560706560000000000000e+17
1.180000000000000071054273576010e+01,6.486179464256731641569331259234e-01,5.535683559944156800000000000000e+17,2.845515191078290200746734722744e+33,1.037631921248061849600000000000e+19
1.179599999999999937472239253111e+01,6.580244850956081803516894979111e-01,5.582098089172023680000000000000e+17,2.914177614467884935846245959729e+33,8.412720055648571392000000000000e+18
1.179199999999999981525888870237e+01,6.675233400214415357964981012628e-01,5.628956085748528000000000000000e+17,2.984496865556208195357789952934e+33,1.289763418312726118400000000000e+19
1.178899999999999970157205098076e+01,6.771139542663457966398254939122e-01,5.676263508646791680000000000000e+17,3.056512923678211878691149644300e+33,1.676314814748155904000000000000e+18
1.178500000000000014210854715202e+01,6.867957215570487106148789280269e-01,5.724026413468135040000000000000e+17,3.130266732872192352114682724614e+33,1.725700653929407283200000000000e+19
1.178200000000000002842170943040e+01,6.965679856492894561625917049241e-01,5.772250954134951680000000000000e+17,3.205800225158131094523980359401e+33,1.477737943387756134400000000000e+19
1.177899999999999991473487170879e+01,7.064300395890525940956194972387e-01,5.820943384617971200000000000000e+17,3.283156344377687971708779060265e+33,1.996814191733837004800000000000e+19
1.177700000000000102318153949454e+01,7.163811251343997765772542152263e-01,5.870110060697816320000000000000e+17,3.362379070609724278808326015287e+33,1.855807474771427328000000000000e+18
1.177400000000000090949470177293e+01,7.264204321108089779102101601893e-01,5.919757441760602880000000000000e+17,3.443513445174433716042705647174e+33,1.583647094441032908800000000000e+19
1.177200000000000024158453015843e+01,7.365470979126055306451803517120e-01,5.969892054122557440000000000000e+17,3.526605596241366154567452672918e+33,6.743441815948222464000000000000e+18
1.176999999999999957367435854394e+01,7.467602081090353172143636584224e-01,6.020520149417374720000000000000e+17,3.611702765055102004765925169955e+33,3.640862958572544000000000000000e+18
1.176800000000000068212102632970e+01,7.570587982268711657596327313513e-01,6.071647856688089600000000000000e+17,3.698853332793807280055294097359e+33,4.327812339721838592000000000000e+18
1.176600000000000001421085471520e+01,7.674418537721892086267416743794e-01,6.123281391607508480000000000000e+17,3.788106848075889072988464259006e+33,9.640700198562095104000000000000e+18
1.176400000000000112265752250096e+01,7.779083099339546558681490751042e-01,6.175427060334394880000000000000e+17,3.879514055130385635715147857134e+33,2.384533655170331443200000000000e+19
1.176299999999999990052401699359e+01,7.884570512478865644823144975817e-01,6.228091260973820160000000000000e+17,3.973126922647112638490859685282e+33,1.873228788838293504000000000000e+18
1.176100000000000100897068477934e+01,7.990869113910383791932190433727e-01,6.281280485063682560000000000000e+17,4.068998673322960150029343324635e+33,2.409647890530395750400000000000e+19
1.175999999999999978683717927197e+01,8.097966729023364784723071352346e-01,6.335001319087822080000000000000e+17,4.167183814121146476471082352116e+33,7.350636098038317056000000000000e+18
1.175800000000000089528384705773e+01,8.205850670028871363115285930689e-01,6.389260446016387840000000000000e+17,4.267738167260630447816630717121e+33,5.616403992373916467200000000000e+19
1.175699999999999967315034155035e+01,8.314507735072190763858657192031e-01,6.444064646873424640000000000000e+17,4.370718901953295333650641088152e+33,4.093204700920800870400000000000e+19
1.175600000000000022737367544323e+01,8.423924206702263495216698174772e-01,6.499420802337971200000000000000e+17,4.476184566906885351942439554777e+33,3.249206099159949312000000000000e+19
1.175500000000000078159700933611e+01,8.534085851188326632410507954773e-01,6.555335927912476160000000000000e+17,4.584195123612598648373432851366e+33,2.873349495066594508800000000000e+19
1.175399999999999955946350382874e+01,8.644977913658240531447063403903e-01,6.611817257629250560000000000000e+17,4.694811980435185700464919004054e+33,2.858993073451918950400000000000e+19
1.175300000000000011368683772162e+01,8.756585113951593779546556106652e-01,6.668872159648446720000000000000e+17,4.808098027526372603036491843633e+33,3.161262849483856281600000000000e+19
1.175200000000000066791017161449e+01,8.868891647053419591273382138752e-01,6.726508114566465280000000000000e+17,4.924117672580380526472295763411e+33,3.764195449538782822400000000000e+19
1.175099999999999944577666610712e+01,8.981881184618597524504934881406e-01,6.784732717316542720000000000000e+17,5.042936877452303158250090822369e+33,4.679384852815970304000000000000e+19
1.175000000000000000000000000000e+01,9.095536876732991382610293840116e-01,6.843553679105041920000000000000e+17,5.164623195660085491444014584431e+33,5.887533071593868492800000000000e+19
1.174900000000000055422333389288e+01,9.209841354569650029304739291547e-01,6.902978829384527360000000000000e+17,5.289245810791426090507239721796e+33,7.348643822391833395200000000000e+19
1.174800000000000110844666778576e+01,9.324776732865956985207844809338e-01,6.963016117863728640000000000000e+17,5.416875575837445508700056401740e+33,8.952295526375689420800000000000e+19
1.174699999999999988631316227838e+01,9.440324614350118492822616644844e-01,7.023673616555130880000000000000e+17,5.547585053475469664069430882075e+33,1.051673529178823720960000000000e+20
1.174600000000000044053649617126e+01,9.556466093252606874841603712412e-01,7.084959525049500160000000000000e+17,5.681448557323844794727110612615e+33,1.179261624812708167680000000000e+20
1.174500000000000099475983006414e+01,9.673181754132574861060334114882e-01,7.146882493739571200000000000000e+17,5.818542194192233840369226806723e+33,1.247282545416106147840000000000e+20
1.174399999999999977262632455677e+01,9.790451646108242478305783151882e-01,7.209451915790568960000000000000e+17,5.958943907351311606650463523439e+33,1.224435629163186749440000000000e+20
1.174300000000000032684965844965e+01,9.908255269608688964311227209691e-01,7.272677413642629120000000000000e+17,6.102733520847050623749205170061e+33,1.087856591607403642880000000000e+20
1.174200000000000088107299234252e+01,1.002657158187940433791141003894e+00,7.336568778945568000000000000000e+17,6.249992784883340964589535831785e+33,8.350625627374360985600000000000e+19
1.174099999999999965893948683515e+01,1.014537900318157381818195972301e+00,7.401135975800136960000000000000e+17,6.400805422300662561533848243405e+33,4.928571313303882956800000000000e+19
1.174000000000000021316282072803e+01,1.026465542456097335133335946011e+00,7.466389144069698560000000000000e+17,6.555257176175812277294966486598e+33,1.274787591751086899200000000000e+19
1.173799999999999954525264911354e+01,1.038437821603070743137209319684e+00,7.532338602764235520000000000000e+17,6.713435858570299353024621004718e+33,1.358219302510683095040000000000e+20
1.173700000000000009947598300641e+01,1.050452423540130020285232603783e+00,7.598994853498412800000000000000e+17,6.875431400455058597101757339271e+33,4.108883121896167833600000000000e+19
1.173499999999999943156581139192e+01,1.062506983812098404484913771739e+00,7.666368579342343680000000000000e+17,7.041335902839832807340465562059e+33,1.555450112727861821440000000000e+20
1.173399999999999998578914528480e+01,1.074599089946633334591297170846e+00,7.734469926937326080000000000000e+17,7.211243689136320706629293400130e+33,1.568867599623441612800000000000e+19
1.173200000000000109423581307055e+01,1.086726289657724331405574957898e+00,7.803307695276250880000000000000e+17,7.385251358784849601878854987678e+33,6.225530778716779315200000000000e+19
1.173000000000000042632564145606e+01,1.098886096619519747719095903449e+00,7.872890610407613440000000000000e+17,7.563457842175053705016531065242e+33,1.013058574966356049920000000000e+20
1.172799999999999975841546984157e+01,1.111075991985469357814508839510e+00,7.943227509714700800000000000000e+17,7.745964456891798830038592358711e+33,1.124904469049561579520000000000e+20
1.172600000000000086686213762732e+01,1.123293425812933454821518353128e+00,8.014327343415454720000000000000e+17,7.932874965318328591128512432177e+33,8.601998699515582873600000000000e+19
1.172400000000000019895196601283e+01,1.135535818382732431430781616655e+00,8.086199176082316800000000000000e+17,8.124295633629228651541219399172e+33,3.040033980569537740800000000000e+19
1.172100000000000008526512829121e+01,1.147800561555409437630714819534e+00,8.158852188184465920000000000000e+17,8.320335292207575307462607386968e+33,2.512171080083018874880000000000e+20
1.171899999999999941735495667672e+01,1.160085020137221256675275071757e+00,8.232295677651046400000000000000e+17,8.521105397518612466734548238991e+33,5.806103204221609574400000000000e+19
1.171600000000000108002495835535e+01,1.172386532918454848939404655539e+00,8.306539518338234880000000000000e+17,8.726720095477778612404031070405e+33,1.817256278486946938880000000000e+20
1.171300000000000096633812063374e+01,1.184702405380641421217546849221e+00,8.381596836880179200000000000000e+17,8.937296286347144511107029757067e+33,2.845102728189264527360000000000e+20
1.171000000000000085265128291212e+01,1.197029898014696502883680295781e+00,8.457482313643507200000000000000e+17,9.152953691197925305999594834887e+33,3.084935911330278277120000000000e+20
1.170700000000000073896444519050e+01,1.209366225757291468667631306744e+00,8.534210937721160960000000000000e+17,9.373814919976758304064776850899e+33,2.321020532347625799680000000000e+20
1.170400000000000062527760746889e+01,1.221708559274795602433982821822e+00,8.611798009551745280000000000000e+17,9.600005541214399304158830317797e+33,8.729691246046779801600000000000e+19
1.170000000000000106581410364015e+01,1.234054026810138537939565139823e+00,8.690259147763916800000000000000e+17,9.831654153416512953534733696893e+33,3.830508205103125626880000000000e+20
1.169700000000000095212726591853e+01,1.246399715872393398896633698314e+00,8.769610296198732800000000000000e+17,1.006889245817711460553208507243e+34,3.003339525674552524800000000000e+19
1.169299999999999961630692268955e+01,1.258742675213173844994685168786e+00,8.849867731118059520000000000000e+17,1.031185533505624609834002866713e+34,8.231153139794588467200000000000e+19
1.168900000000000005684341886081e+01,1.271079917678991533236398936424e+00,8.931047368480542720000000000000e+17,1.056068091826445823431232463045e+34,6.317719376607431884800000000000e+19
1.168400000000000105160324892495e+01,1.283408431166258134581426020304e+00,9.013162509131032320000000000000e+17,1.081551067519750976032601910175e+34,6.417137505689783500800000000000e+20
1.167999999999999971578290569596e+01,1.295725190421561201503664051415e+00,9.096225904421871360000000000000e+17,1.107648948686699849268438524494e+34,2.503917473787289272320000000000e+20
1.167500000000000071054273576010e+01,1.308027160405557332012449478498e+00,9.180250501767089920000000000000e+17,1.134376573027002655701386222843e+34,6.047945648559858647040000000000e+20
1.166999999999999992894572642399e+01,1.320311298595017612811375329329e+00,9.265249447973936640000000000000e+17,1.161749136274820747300851191854e+34,8.343883770644681195520000000000e+20
1.166500000000000092370555648813e+01,1.332574557204630139040091307834e+00,9.351236092633478400000000000000e+17,1.189782200838138023938526350095e+34,7.894985092692382842880000000000e+20
1.166000000000000014210854715202e+01,1.344813885298185907046786269348e+00,9.438223991574863360000000000000e+17,1.218491704646618826910786690797e+34,4.725881054803638353920000000000e+20
1.165499999999999936051153781591e+01,1.357026230918311648920848710986e+00,9.526226924414429440000000000000e+17,1.247893970212964528437083311702e+34,7.028764345271818649600000000000e+19
1.164900000000000090949470177293e+01,1.369208542892423663417389434471e+00,9.615259064075432960000000000000e+17,1.278005713912921915091326895286e+34,2.977721150047699599360000000000e+20
1.164300000000000068212102632970e+01,1.381357772092423052967546936998e+00,9.705334932099048960000000000000e+17,1.308844055489217519881235121517e+34,3.809922766962129633280000000000e+20
1.163700000000000045474735088646e+01,1.393470873411112309625536909152e+00,9.796469285342773760000000000000e+17,1.340426527784823029573541833159e+34,2.305205540693519892480000000000e+20
1.163000000000000078159700933611e+01,1.405544807699000031675495847594e+00,9.888677117754636800000000000000e+17,1.372771086711085329318578976352e+34,1.151928122321950212096000000000e+21
1.162400000000000055422333389288e+01,1.417576544101004420994627253094e+00,9.981973664601139200000000000000e+17,1.405896121456386410263568441147e+34,2.375052837789161226240000000000e+20
1.161700000000000088107299234252e+01,1.429563061920608335597648874682e+00,1.007637440677660032000000000000e+18,1.439820464941141097526231254329e+34,4.187586268782348206080000000000e+20
1.160999999999999943156581139192e+01,1.441501353000391505432276062493e+00,1.017189483836197760000000000000e+18,1.474563404525048238768851856340e+34,3.159815974631429898240000000000e+20
1.160299999999999975841546984157e+01,1.453388427994728449021977212396e+00,1.026854847739425536000000000000e+18,1.510144692972829891701109448036e+34,1.578896601647153152000000000000e+18
1.159500000000000063948846218409e+01,1.465221326510215638094791756885e+00,1.036634778925005056000000000000e+18,1.546584559684332876161949213970e+34,4.779480139654082068480000000000e+20
1.158699999999999974420461512636e+01,1.476997120685856090815946117800e+00,1.046530534760381952000000000000e+18,1.583903722195855110160214296782e+34,8.358181595096185569280000000000e+20
1.157900000000000062527760746889e+01,1.488712917454506179382178743253e+00,1.056543384668570880000000000000e+18,1.622123397958877311475934907964e+34,7.451254070738776227840000000000e+20
1.157099999999999972999376041116e+01,1.500365860204013079837181976472e+00,1.066674610175575808000000000000e+18,1.661265316403042884536417133160e+34,2.469511929426739200000000000000e+20
1.156199999999999938893324724631e+01,1.511953130607171180699310752971e+00,1.076925509105163136000000000000e+18,1.701351731290214746638917786665e+34,1.138568154507300569088000000000e+21
1.155300000000000082422957348172e+01,1.523471942068665097025359500549e+00,1.087298211447128576000000000000e+18,1.742405433366639378270696946585e+34,1.787995014602169516032000000000e+21
1.154400000000000048316906031687e+01,1.534919488713714086358663735155e+00,1.097796705295264640000000000000e+18,1.784449763320405871354769097464e+34,1.674994554117414715392000000000e+21
1.153500000000000014210854715202e+01,1.546292910973542378272327368904e+00,1.108425336807566336000000000000e+18,1.827508625051570141431702610353e+34,8.263119439280466821120000000000e+20
1.152500000000000035527136788005e+01,1.557589294571605442740747093922e+00,1.119188580030610048000000000000e+18,1.871606499262488330350712002812e+34,2.356784788723189415936000000000e+21
1.151600000000000001421085471520e+01,1.568805672842265908073500213504e+00,1.130091040522983296000000000000e+18,1.916768457376083973550908853610e+34,1.107601262612541603840000000000e+20
1.150600000000000022737367544323e+01,1.579939030004847921873079030775e+00,1.141137459115277696000000000000e+18,1.963020175789933992687018519927e+34,7.408131816829222912000000000000e+18
1.149500000000000099475983006414e+01,1.590986312548472891847950450028e+00,1.152331702012787072000000000000e+18,2.010387950474464402723491415065e+34,1.761726314207226363904000000000e+21
1.148499999999999943156581139192e+01,1.601944511841253637740578597004e+00,1.163673999533613824000000000000e+18,2.058898711923082456423182888023e+34,1.438910547580813312000000000000e+20
1.147400000000000019895196601283e+01,1.612810747145638989863414280990e+00,1.175163678753776384000000000000e+18,2.108580040463374981041282404791e+34,4.980287487629454213120000000000e+20
1.146300000000000096633812063374e+01,1.623582278814440948977448897494e+00,1.186799989303534336000000000000e+18,2.159460181937608686700500582033e+34,2.831025909645658030080000000000e+20
1.145100000000000051159076974727e+01,1.634256511565377545380783885776e+00,1.198582100343140864000000000000e+18,2.211568063761632455883375916351e+34,2.818965574991811182592000000000e+21
1.143999999999999950262008496793e+01,1.644830995849781762885299940535e+00,1.210509102010532096000000000000e+18,2.264933311371280239971757524097e+34,3.927218910598896025600000000000e+20
1.142800000000000082422957348172e+01,1.655303416487800216572168210405e+00,1.222581514268274688000000000000e+18,2.319586265065630290259047533563e+34,8.135152559017227714560000000000e+20
1.141600000000000036948222259525e+01,1.665671510210252614925252601097e+00,1.234803572111162880000000000000e+18,2.375557997256689741339139038092e+34,4.404118840388962222080000000000e+20
1.140300000000000046895820560167e+01,1.675933002366855051334937343199e+00,1.247180197508459776000000000000e+18,2.432880330135315217123351113761e+34,3.540085920591790473216000000000e+21
1.139100000000000001421085471520e+01,1.686085600263966144396476920519e+00,1.259716458374188288000000000000e+18,2.491585853763416939813708651666e+34,4.094746673125754142720000000000e+20
1.137800000000000011368683772162e+01,1.696126993167839547282937928685e+00,1.272417572743102976000000000000e+18,2.551707944602720717113021382315e+34,8.087833488211344097280000000000e+20
1.136500000000000021316282072803e+01,1.706054854053282276993286359357e+00,1.285288789681109504000000000000e+18,2.613280784490639806450525798400e+34,3.011400375087461826560000000000e+20
1.135100000000000086686213762732e+01,1.715866862203460296854018451995e+00,1.298333554520660736000000000000e+18,2.676339380073982515564748394725e+34,3.631103736908166987776000000000e+21
1.133800000000000096633812063374e+01,1.725560758818611484244343046157e+00,1.311553820081204992000000000000e+18,2.740919582711821379136246047257e+34,1.328787881670108774400000000000e+20
1.132399999999999984368059813278e+01,1.735134367281789158354854407662e+00,1.324951511980937728000000000000e+18,2.807058108858179212015800011037e+34,4.741348207893099315200000000000e+20
1.130900000000000105160324892495e+01,1.744585596776843328115091935615e+00,1.338528570505486080000000000000e+18,2.874792560936988202983835911691e+34,7.282266276731411234816000000000e+21
1.129499999999999992894572642399e+01,1.753912444529461378550649897079e+00,1.352286955096284672000000000000e+18,2.944161448720543664629709093523e+34,3.287911333527619108864000000000e+21
1.127999999999999936051153781591e+01,1.763112993784113458062279278238e+00,1.366229127968294144000000000000e+18,3.015204211223866636943860009691e+34,7.240127091574292086784000000000e+21
1.126600000000000001421085471520e+01,1.772185397133380968526239485072e+00,1.380358501194134272000000000000e+18,3.087961239127375707157789057797e+34,3.030262199193436160000000000000e+19
1.125000000000000000000000000000e+01,1.781127865634087870105872752902e+00,1.394678660193892096000000000000e+18,3.162473897740621663515811802146e+34,7.347587258810277822464000000000e+21
1.123499999999999943156581139192e+01,1.789938668041567204625152953668e+00,1.409193269177650688000000000000e+18,3.238784550520135593242142247695e+34,3.107341757176076042240000000000e+21
1.121899999999999941735495667672e+01,1.798616131493523617734808794921e+00,1.423906073067774208000000000000e+18,3.316936583154767542336956489794e+34,7.810497991133783654400000000000e+21
1.120299999999999940314410196152e+01,1.807158641754696537518043442105e+00,1.438820899474523136000000000000e+18,3.396974428232201376629721856056e+34,1.037734801997296775987200000000e+22
1.118699999999999938893324724631e+01,1.815564644225442947345072752796e+00,1.453941660726612224000000000000e+18,3.478943590500619252725626525712e+34,8.977104835617734262784000000000e+21
1.117099999999999937472239253111e+01,1.823832644407469505409835619503e+00,1.469272355958511360000000000000e+18,3.562890672740215448028846925388e+34,4.314210703686426951680000000000e+21
1.115399999999999991473487170879e+01,1.831961208867411095013721933356e+00,1.484817064482178048000000000000e+18,3.648863402258423661519851157560e+34,1.144409258764330755686400000000e+22
1.113799999999999990052401699359e+01,1.839948966617550141222636739258e+00,1.500579910443127552000000000000e+18,3.736910658025041113862603851327e+34,8.007140706285728563200000000000e+20
1.112100000000000044053649617126e+01,1.847794609855771152950865143794e+00,1.516565094069691648000000000000e+18,3.827082498461841743741180376305e+34,5.514446742810609582080000000000e+20
1.110299999999999975841546984157e+01,1.855496895339072915831479804183e+00,1.532776908270608640000000000000e+18,3.919430189902813406298462321692e+34,1.081491553092484936499200000000e+22
1.108600000000000029842794901924e+01,1.863054644450764074647963752795e+00,1.549219740930519808000000000000e+18,4.014006235741136916311317961245e+34,3.085674734790329237504000000000e+21
1.106799999999999961630692268955e+01,1.870466744169031692024418589426e+00,1.565898077261584640000000000000e+18,4.110864406279488253181523377363e+34,7.777745080115672383488000000000e+21
1.105000000000000071054273576010e+01,1.877732147185747102469122182811e+00,1.582816502220725760000000000000e+18,4.210059769300627553592607547956e+34,9.648752306379644993536000000000e+21
1.103200000000000002842170943040e+01,1.884849872102896561898432992166e+00,1.599979702766434560000000000000e+18,4.311648721375656336436074221090e+34,7.142265940881979736064000000000e+21
1.101399999999999934630068310071e+01,1.891819004822199001836224852013e+00,1.617392326317217024000000000000e+18,4.415689019927748679724148722133e+34,1.879815350765236518912000000000e+21
1.099500000000000099475983006414e+01,1.898638702275858625156956804858e+00,1.635058726401857792000000000000e+18,4.522239816069579426790865516678e+34,9.516739262956684967936000000000e+21
1.097600000000000086686213762732e+01,1.905308196410785859242764672672e+00,1.652983275871106304000000000000e+18,4.631361688233117987952692438237e+34,1.618593803664663930470400000000e+22
1.095700000000000073896444519050e+01,1.911826794847986565883957155165e+00,1.671170432770402560000000000000e+18,4.743116676610918855907535756670e+34,1.765127532781351049625600000000e+22
1.093800000000000061106675275369e+01,1.918193880581079646674425021047e+00,1.689624742176008704000000000000e+18,4.857568318428394591805787329475e+34,1.276246642969820738355200000000e+22
1.091900000000000048316906031687e+01,1.924408911993931159400972319418e+00,1.708350838074638080000000000000e+18,4.974781684067613576193896792615e+34,4.332226076947720962048000000000e+21
1.089900000000000090949470177293e+01,1.930471422190238817151453076804e+00,1.727353445286889984000000000000e+18,5.094823414061967625340567997645e+34,1.554101024740717939916800000000e+22
1.087899999999999955946350382874e+01,1.936381018254040631276780004555e+00,1.746637486805241856000000000000e+18,5.217761756984318724819521807109e+34,2.552456546900607657574400000000e+22
1.085999999999999943156581139192e+01,1.942137376554439187614775619295e+00,1.766208654442288640000000000000e+18,5.343666608248996542166626391504e+34,7.620900378665969254400000000000e+19
1.083900000000000041211478674086e+01,1.947740235872890579571503621992e+00,1.786073034068282880000000000000e+18,5.472609549850160047416153850092e+34,2.358975231100443636531200000000e+22
1.081900000000000083844042819692e+01,1.953189394454690752667147535249e+00,1.806236859279855616000000000000e+18,5.604663891059056861739403058348e+34,1.209081974138466834841600000000e+22
1.079899999999999948840923025273e+01,1.958484709727458916717068859725e+00,1.826706514818307584000000000000e+18,5.739904710103302405544879979495e+34,5.891540119301694423040000000000e+20
1.077800000000000046895820560167e+01,1.963626096996440972830555438122e+00,1.847488540662864128000000000000e+18,5.878408896851886601523566955882e+34,7.645618245191008780288000000000e+21
1.075699999999999967315034155035e+01,1.968613528902348086546680860920e+00,1.868589636249485568000000000000e+18,6.020255196530172057456634838909e+34,1.298941647358267490304000000000e+22
1.073600000000000065369931689929e+01,1.973447035334970456332825960999e+00,1.890016496760154112000000000000e+18,6.165524254489732415390088409016e+34,1.298019057552070803456000000000e+22
1.071499999999999985789145284798e+01,1.978126706152923075521243845287e+00,1.911775325171111936000000000000e+18,6.314298662058392373266084662765e+34,7.471594591050725851136000000000e+21
1.069299999999999961630692268955e+01,1.982652695108055862505125332973e+00,1.933872300684795648000000000000e+18,6.466663003497143370941507978658e+34,4.023353369333780709376000000000e+22
1.067200000000000059685589803848e+01,1.987025220247190082645261099970e+00,1.956313733108611584000000000000e+18,6.622703904089099988859156731999e+34,1.417931366309867762483200000000e+22
1.065000000000000035527136788005e+01,1.991244562985061250515173014719e+00,1.979106065924873472000000000000e+18,6.782510079389879033332145932626e+34,3.371932255329738083532800000000e+22
1.062899999999999955946350382874e+01,1.995311067876445187962985983177e+00,2.002255879439509248000000000000e+18,6.946172385665876997873317519452e+34,6.959095561653678243840000000000e+20
1.060700000000000109423581307055e+01,1.999225141197684907368170570408e+00,2.025769924617869312000000000000e+18,7.113783871549728262112264854071e+34,2.040282864870005669888000000000e+21
1.058500000000000085265128291212e+01,2.002987248604032988197332088021e+00,2.049655618454855680000000000000e+18,7.285439830942207020761300560616e+34,1.137589184637593190400000000000e+19
1.056199999999999938893324724631e+01,2.006597909748951469310895845410e+00,2.073920989073781760000000000000e+18,7.461237857190666960912217474387e+34,3.588685889738222495334400000000e+22
1.054000000000000092370555648813e+01,2.010057695539614996960153803229e+00,2.098574276364760832000000000000e+18,7.641277898574793390802012344209e+34,1.505412417059489946009600000000e+22
1.051699999999999945998752082232e+01,2.013367226006864019183240088751e+00,2.123623924665225216000000000000e+18,7.825662315131246801227355669922e+34,5.221616246803284570931200000000e+22
1.049500000000000099475983006414e+01,2.016527169376508776821310675587e+00,2.149078588452378112000000000000e+18,8.014495936849470438364762535572e+34,1.117637746476926684364800000000e+22
1.047199999999999953104179439833e+01,2.019538240674376705641179796658e+00,2.174947127794619648000000000000e+18,8.207886123271780249969198881781e+34,2.695824304298400101171200000000e+22
1.044899999999999984368059813278e+01,2.022401201221065036861546104774e+00,2.201238361280981760000000000000e+18,8.405942824531598048372824470245e+34,3.937755436335854151270400000000e+22
1.042600000000000015631940186722e+01,2.025116859076978581555295022554e+00,2.227961044216363520000000000000e+18,8.608778643864546507305001287470e+34,4.363821592202438927974400000000e+22
1.040300000000000046895820560167e+01,2.027686069292241821671041179798e+00,2.255124125992932864000000000000e+18,8.816508901627789614678553364162e+34,3.809863365791789036339200000000e+22
1.038000000000000078159700933611e+01,2.030109732741765871111283559003e+00,2.282736768199207168000000000000e+18,9.029251700864893917092022901224e+34,2.446776269592149884928000000000e+22
1.035700000000000109423581307055e+01,2.032388795284270965879613868310e+00,2.310808350266064896000000000000e+18,9.247127994451317477031803035530e+34,7.679997871865213222912000000000e+21
1.033300000000000018474111129763e+01,2.034524246608697239935281686485e+00,2.339348475278490112000000000000e+18,9.470261653861578849372984167105e+34,5.741052960099705605324800000000e+22
1.031000000000000049737991503207e+01,2.036517118987569485710764638497e+00,2.368366975958726656000000000000e+18,9.698779539595050293872535652218e+34,1.603142415766063467724800000000e+22
1.028599999999999958788521325914e+01,2.038368486126485912279804324498e+00,2.397873920825845760000000000000e+18,9.932811573301277189289459051187e+34,5.543845832214619304755200000000e+22
1.026299999999999990052401699359e+01,2.040079461912813307833403086988e+00,2.427879620537821184000000000000e+18,1.017249081164568318725517958772e+35,3.732449326637783187456000000000e+21
1.023900000000000076738615462091e+01,2.041651199147072492934285037336e+00,2.458394634421711872000000000000e+18,1.041795352195765880812679035596e+35,1.986876232246183644364800000000e+22
1.021499999999999985789145284798e+01,2.043084888248553721012967798742e+00,2.489429777550826496000000000000e+18,1.066933925970404944132863257865e+35,3.674382424924949053440000000000e+22
1.019100000000000072475359047530e+01,2.044381755946855339090006964398e+00,2.520996176227492352000000000000e+18,1.092679094783206590491411976133e+35,5.003820839719922355404800000000e+22
1.016699999999999981525888870237e+01,2.045543063731769528601489582798e+00,2.553105328148588544000000000000e+18,1.119045495802676412579380249923e+35,5.648310087296032020889600000000e+22
1.014300000000000068212102632970e+01,2.046570106219591789198375408887e+00,2.585769027559771136000000000000e+18,1.146048119392906691621017288138e+35,5.456305007213915249049600000000e+22
1.011899999999999977262632455677e+01,2.047464209973667514930184552213e+00,2.618999361728540160000000000000e+18,1.173702317636278190911762137109e+35,4.477670279560720862412800000000e+22
1.009500000000000063948846218409e+01,2.048226731918788789954533058335e+00,2.652808719113183232000000000000e+18,1.202023813061629348014286575470e+35,2.940407470640854990848000000000e+22
1.007099999999999972999376041116e+01,2.048859058343743377861301269149e+00,2.687209797783604736000000000000e+18,1.231028707583221023170835482726e+35,1.194890087846571619123200000000e+22
1.004599999999999937472239253111e+01,2.049362603246883463015137749608e+00,2.722215614102041088000000000000e+18,1.260733491655308268188610343878e+35,1.154841022409827963371520000000e+23
1.002200000000000024158453015843e+01,2.049738807469460688537310488755e+00,2.757839511672384000000000000000e+18,1.291155053647629011079813184535e+35,6.430471008908320387891200000000e+22
9.997999999999999332089828385506e+00,2.049989137241988945703496938222e+00,2.794095170567102976000000000000e+18,1.322310689447125085761190343800e+35,2.226463251116531594035200000000e+22
9.973000000000000753175299905706e+00,2.050115082972010949191599138430e+00,2.830996616845481472000000000000e+18,1.354218112291351600307757159033e+35,1.217823261106205423042560000000e+23
9.948999999999999843680598132778e+00,2.050118158096633891318560927175e+00,2.868558259101777920000000000000e+18,1.386895462839169541238259669470e+35,4.875603545455963458764800000000e+22
9.925000000000000710542735760100e+00,2.049999897650607749710616189986e+00,2.906794964852523520000000000000e+18,1.420361319484441949169630670676e+35,2.259434778755082485760000000000e+21
9.900000000000000355271367880050e+00,2.049761856959373851339023531182e+00,2.945722003944684544000000000000e+18,1.454634708918601944065168602384e+35,6.464471423337172566016000000000e+22
9.875999999999999445776666107122e+00,2.049405610831725788045787339797e+00,2.985355041073563648000000000000e+18,1.489735116948094986130583620713e+35,4.626375307435138088960000000000e+21
9.851000000000000866862137627322e+00,2.048932751782383654415298224194e+00,3.025710147235458560000000000000e+18,1.525682499572847545973933727338e+35,6.721478805843241808691200000000e+22
9.826999999999999957367435854394e+00,2.048344888782630324186584402923e+00,3.066803811546814976000000000000e+18,1.562497294332059164586452448140e+35,1.117595915946895081472000000000e+21
9.801999999999999602096067974344e+00,2.047643647431016233895206823945e+00,3.108652953442482688000000000000e+18,1.600200431923742350702818886890e+35,5.829641811496788610252800000000e+22
9.777000000000001023181539494544e+00,2.046830666789923203197076873039e+00,3.151274935266779136000000000000e+18,1.638813348104774736592699446526e+35,1.671939073579843825172480000000e+23
9.753000000000000113686837721616e+00,2.045907600742018495054708182579e+00,3.194687575270730240000000000000e+18,1.678357995877837211295909342316e+35,4.508920894610336225689600000000e+22
9.727999999999999758415469841566e+00,2.044876114513543452488875118433e+00,3.238909090247513600000000000000e+18,1.718856857972685350818631927076e+35,1.472449752574085772083200000000e+23
9.704000000000000625277607468888e+00,2.043737885831249379009477706859e+00,3.283957590987934720000000000000e+18,1.760332959628465439719592837513e+35,3.213887964456004511334400000000e+22
9.679000000000000270006239588838e+00,2.042494603663341123933605558705e+00,3.329851359519129088000000000000e+18,1.802809881684490306268938727252e+35,1.308658674494797628047360000000e+23
9.654999999999999360511537815910e+00,2.041147967216935921186404812033e+00,3.376609133310740480000000000000e+18,1.846311773986902737148540474601e+35,2.408973637123131310080000000000e+22
9.630000000000000781597009336110e+00,2.039699686326687633197707327781e+00,3.424250119809313280000000000000e+18,1.890863369118834646819481632522e+35,1.274117380330181791580160000000e+23
9.605999999999999872102307563182e+00,2.038151480257482273117375370930e+00,3.472794009483461120000000000000e+18,1.936489996461883421043984970694e+35,2.494224610572273870438400000000e+22
9.580999999999999516830939683132e+00,2.036505076380958900728046501172e+00,3.522260989263370240000000000000e+18,1.983217596596885496048063861699e+35,1.471635000098002053365760000000e+23
9.557000000000000383693077310454e+00,2.034762209501217888885093998397e+00,3.572671756387425280000000000000e+18,2.031072736052186751065662407018e+35,4.114744536430102026649600000000e+22
9.532000000000000028421709430404e+00,2.032924621349672111847439737176e+00,3.624047532668542976000000000000e+18,2.080082622407751700869297236271e+35,2.060737459493397415854080000000e+23
9.508000000000000895283847057726e+00,2.030994059505713433821938451729e+00,3.676410079195034624000000000000e+18,2.130275119763908002666190116498e+35,8.886714510544199902822400000000e+22
9.483999999999999985789145284798e+00,2.028972276322408507809313960024e+00,3.729781711478986752000000000000e+18,2.181678764583010341188512856890e+35,2.041841368290298744012800000000e+22
9.458999999999999630517777404748e+00,2.026861027790784142155189329060e+00,3.784185315068034048000000000000e+18,2.234322781913707494746679075228e+35,2.139108594233850137149440000000e+23
9.435000000000000497379915032070e+00,2.024662073248359117627614978119e+00,3.839644361634724352000000000000e+18,2.288237102006527193080984692358e+35,1.248418934511846796820480000000e+23
9.410999999999999587885213259142e+00,2.022377174471190475202320158132e+00,3.896182925560040448000000000000e+18,2.343452377330435268599302630828e+35,6.867270957693566294425600000000e+22
9.387000000000000454747350886464e+00,2.020008094769471629348345231847e+00,3.953825701026593792000000000000e+18,2.400000000000001990756122845501e+35,3.569414838381411984998400000000e+22
