%!PS-Adobe-3.0 EPSF-3.0
%%Title: /home/nicholas/phys_5770_project/img/pressure_and_mass_vs_R_2.eps
%%Creator: matplotlib version 3.0.3, http://matplotlib.org/
%%CreationDate: Wed May  1 14:18:16 2019
%%Orientation: portrait
%%BoundingBox: -385 42 997 749
%%EndComments
%%BeginProlog
/mpldict 9 dict def
mpldict begin
/m { moveto } bind def
/l { lineto } bind def
/r { rlineto } bind def
/c { curveto } bind def
/cl { closepath } bind def
/box {
m
1 index 0 r
0 exch r
neg 0 r
cl
} bind def
/clipbox {
box
clip
newpath
} bind def
%!PS-Adobe-3.0 Resource-Font
%%Title: DejaVu Sans
%%Copyright: Copyright (c) 2003 by Bitstream, Inc. All Rights Reserved. Copyright (c) 2006 by Tavmjong Bah. All Rights Reserved. DejaVu changes are in public domain 
%%Creator: Converted from TrueType to type 3 by PPR
25 dict begin
/_d{bind def}bind def
/_m{moveto}_d
/_l{lineto}_d
/_cl{closepath eofill}_d
/_c{curveto}_d
/_sc{7 -1 roll{setcachedevice}{pop pop pop pop pop pop}ifelse}_d
/_e{exec}_d
/FontName /DejaVuSans def
/PaintType 0 def
/FontMatrix[.001 0 0 .001 0 0]def
/FontBBox[-1021 -463 1793 1232]def
/FontType 3 def
/Encoding [ /space /period /zero /one /two /three /four /six /eight /M /P /R /bracketleft /bracketright /a /c /d /e /i /k /l /m /r /s /u /uni2299 ] def
/FontInfo 10 dict dup begin
/FamilyName (DejaVu Sans) def
/FullName (DejaVu Sans) def
/Notice (Copyright (c) 2003 by Bitstream, Inc. All Rights Reserved. Copyright (c) 2006 by Tavmjong Bah. All Rights Reserved. DejaVu changes are in public domain ) def
/Weight (Book) def
/Version (Version 2.35) def
/ItalicAngle 0.0 def
/isFixedPitch false def
/UnderlinePosition -130 def
/UnderlineThickness 90 def
end readonly def
/CharStrings 27 dict dup begin
/.notdef 0 def
/space{318 0 0 0 0 0 _sc
}_d
/period{318 0 107 0 210 124 _sc
107 124 _m
210 124 _l
210 0 _l
107 0 _l
107 124 _l
_cl}_d
/zero{636 0 66 -13 570 742 _sc
318 664 _m
267 664 229 639 203 589 _c
177 539 165 464 165 364 _c
165 264 177 189 203 139 _c
229 89 267 64 318 64 _c
369 64 407 89 433 139 _c
458 189 471 264 471 364 _c
471 464 458 539 433 589 _c
407 639 369 664 318 664 _c
318 742 _m
399 742 461 709 505 645 _c
548 580 570 486 570 364 _c
570 241 548 147 505 83 _c
461 19 399 -13 318 -13 _c
236 -13 173 19 130 83 _c
87 147 66 241 66 364 _c
66 486 87 580 130 645 _c
173 709 236 742 318 742 _c
_cl}_d
/one{636 0 110 0 544 729 _sc
124 83 _m
285 83 _l
285 639 _l
110 604 _l
110 694 _l
284 729 _l
383 729 _l
383 83 _l
544 83 _l
544 0 _l
124 0 _l
124 83 _l
_cl}_d
/two{{636 0 73 0 536 742 _sc
192 83 _m
536 83 _l
536 0 _l
73 0 _l
73 83 _l
110 121 161 173 226 239 _c
290 304 331 346 348 365 _c
380 400 402 430 414 455 _c
426 479 433 504 433 528 _c
433 566 419 598 392 622 _c
365 646 330 659 286 659 _c
255 659 222 653 188 643 _c
154 632 117 616 78 594 _c
78 694 _l
118 710 155 722 189 730 _c
223 738 255 742 284 742 _c
}_e{359 742 419 723 464 685 _c
509 647 532 597 532 534 _c
532 504 526 475 515 449 _c
504 422 484 390 454 354 _c
446 344 420 317 376 272 _c
332 227 271 164 192 83 _c
_cl}_e}_d
/three{{636 0 76 -13 556 742 _sc
406 393 _m
453 383 490 362 516 330 _c
542 298 556 258 556 212 _c
556 140 531 84 482 45 _c
432 6 362 -13 271 -13 _c
240 -13 208 -10 176 -4 _c
144 1 110 10 76 22 _c
76 117 _l
103 101 133 89 166 81 _c
198 73 232 69 268 69 _c
330 69 377 81 409 105 _c
441 129 458 165 458 212 _c
458 254 443 288 413 312 _c
383 336 341 349 287 349 _c
}_e{202 349 _l
202 430 _l
291 430 _l
339 430 376 439 402 459 _c
428 478 441 506 441 543 _c
441 580 427 609 401 629 _c
374 649 336 659 287 659 _c
260 659 231 656 200 650 _c
169 644 135 635 98 623 _c
98 711 _l
135 721 170 729 203 734 _c
235 739 266 742 296 742 _c
370 742 429 725 473 691 _c
517 657 539 611 539 553 _c
539 513 527 479 504 451 _c
481 423 448 403 406 393 _c
_cl}_e}_d
/four{636 0 49 0 580 729 _sc
378 643 _m
129 254 _l
378 254 _l
378 643 _l
352 729 _m
476 729 _l
476 254 _l
580 254 _l
580 172 _l
476 172 _l
476 0 _l
378 0 _l
378 172 _l
49 172 _l
49 267 _l
352 729 _l
_cl}_d
/six{{636 0 70 -13 573 742 _sc
330 404 _m
286 404 251 388 225 358 _c
199 328 186 286 186 234 _c
186 181 199 139 225 109 _c
251 79 286 64 330 64 _c
374 64 409 79 435 109 _c
461 139 474 181 474 234 _c
474 286 461 328 435 358 _c
409 388 374 404 330 404 _c
526 713 _m
526 623 _l
501 635 476 644 451 650 _c
425 656 400 659 376 659 _c
310 659 260 637 226 593 _c
}_e{192 549 172 482 168 394 _c
187 422 211 444 240 459 _c
269 474 301 482 336 482 _c
409 482 467 459 509 415 _c
551 371 573 310 573 234 _c
573 159 550 99 506 54 _c
462 9 403 -13 330 -13 _c
246 -13 181 19 137 83 _c
92 147 70 241 70 364 _c
70 479 97 571 152 639 _c
206 707 280 742 372 742 _c
396 742 421 739 447 735 _c
472 730 498 723 526 713 _c
_cl}_e}_d
/eight{{636 0 68 -13 568 742 _sc
318 346 _m
271 346 234 333 207 308 _c
180 283 167 249 167 205 _c
167 161 180 126 207 101 _c
234 76 271 64 318 64 _c
364 64 401 76 428 102 _c
455 127 469 161 469 205 _c
469 249 455 283 429 308 _c
402 333 365 346 318 346 _c
219 388 _m
177 398 144 418 120 447 _c
96 476 85 511 85 553 _c
85 611 105 657 147 691 _c
188 725 245 742 318 742 _c
}_e{390 742 447 725 489 691 _c
530 657 551 611 551 553 _c
551 511 539 476 515 447 _c
491 418 459 398 417 388 _c
464 377 501 355 528 323 _c
554 291 568 251 568 205 _c
568 134 546 80 503 43 _c
459 5 398 -13 318 -13 _c
237 -13 175 5 132 43 _c
89 80 68 134 68 205 _c
68 251 81 291 108 323 _c
134 355 171 377 219 388 _c
183 544 _m
183 506 194 476 218 455 _c
}_e{242 434 275 424 318 424 _c
360 424 393 434 417 455 _c
441 476 453 506 453 544 _c
453 582 441 611 417 632 _c
393 653 360 664 318 664 _c
275 664 242 653 218 632 _c
194 611 183 582 183 544 _c
_cl}_e}_d
/M{863 0 98 0 765 729 _sc
98 729 _m
245 729 _l
431 233 _l
618 729 _l
765 729 _l
765 0 _l
669 0 _l
669 640 _l
481 140 _l
382 140 _l
194 640 _l
194 0 _l
98 0 _l
98 729 _l
_cl}_d
/P{603 0 98 0 569 729 _sc
197 648 _m
197 374 _l
321 374 _l
367 374 402 385 427 409 _c
452 433 465 467 465 511 _c
465 555 452 588 427 612 _c
402 636 367 648 321 648 _c
197 648 _l
98 729 _m
321 729 _l
402 729 464 710 506 673 _c
548 636 569 582 569 511 _c
569 439 548 384 506 348 _c
464 311 402 293 321 293 _c
197 293 _l
197 0 _l
98 0 _l
98 729 _l
_cl}_d
/R{{695 0 98 0 666 729 _sc
444 342 _m
465 334 486 319 506 296 _c
526 272 546 240 566 199 _c
666 0 _l
560 0 _l
467 187 _l
443 235 419 268 397 284 _c
374 300 343 308 304 308 _c
197 308 _l
197 0 _l
98 0 _l
98 729 _l
321 729 _l
404 729 466 711 507 677 _c
548 642 569 589 569 519 _c
569 473 558 434 537 404 _c
515 374 484 353 444 342 _c
197 648 _m
197 389 _l
321 389 _l
}_e{368 389 404 400 428 422 _c
452 444 465 476 465 519 _c
465 561 452 593 428 615 _c
404 637 368 648 321 648 _c
197 648 _l
_cl}_e}_d
/bracketleft{390 0 86 -131 293 760 _sc
86 760 _m
293 760 _l
293 690 _l
176 690 _l
176 -61 _l
293 -61 _l
293 -131 _l
86 -131 _l
86 760 _l
_cl}_d
/bracketright{390 0 97 -131 304 760 _sc
304 760 _m
304 -131 _l
97 -131 _l
97 -61 _l
214 -61 _l
214 690 _l
97 690 _l
97 760 _l
304 760 _l
_cl}_d
/a{{613 0 60 -13 522 560 _sc
343 275 _m
270 275 220 266 192 250 _c
164 233 150 205 150 165 _c
150 133 160 107 181 89 _c
202 70 231 61 267 61 _c
317 61 357 78 387 114 _c
417 149 432 196 432 255 _c
432 275 _l
343 275 _l
522 312 _m
522 0 _l
432 0 _l
432 83 _l
411 49 385 25 355 10 _c
325 -5 287 -13 243 -13 _c
187 -13 142 2 109 33 _c
76 64 60 106 60 159 _c
}_e{60 220 80 266 122 298 _c
163 329 224 345 306 345 _c
432 345 _l
432 354 _l
432 395 418 427 391 450 _c
364 472 326 484 277 484 _c
245 484 215 480 185 472 _c
155 464 127 453 100 439 _c
100 522 _l
132 534 164 544 195 550 _c
226 556 256 560 286 560 _c
365 560 424 539 463 498 _c
502 457 522 395 522 312 _c
_cl}_e}_d
/c{{550 0 55 -13 488 560 _sc
488 526 _m
488 442 _l
462 456 437 466 411 473 _c
385 480 360 484 334 484 _c
276 484 230 465 198 428 _c
166 391 150 339 150 273 _c
150 206 166 154 198 117 _c
230 80 276 62 334 62 _c
360 62 385 65 411 72 _c
437 79 462 90 488 104 _c
488 21 _l
462 9 436 0 410 -5 _c
383 -10 354 -13 324 -13 _c
242 -13 176 12 128 64 _c
}_e{79 115 55 185 55 273 _c
55 362 79 432 128 483 _c
177 534 244 560 330 560 _c
358 560 385 557 411 551 _c
437 545 463 537 488 526 _c
_cl}_e}_d
/d{{635 0 55 -13 544 760 _sc
454 464 _m
454 760 _l
544 760 _l
544 0 _l
454 0 _l
454 82 _l
435 49 411 25 382 10 _c
353 -5 319 -13 279 -13 _c
213 -13 159 13 117 65 _c
75 117 55 187 55 273 _c
55 359 75 428 117 481 _c
159 533 213 560 279 560 _c
319 560 353 552 382 536 _c
411 520 435 496 454 464 _c
148 273 _m
148 207 161 155 188 117 _c
215 79 253 61 301 61 _c
}_e{348 61 385 79 413 117 _c
440 155 454 207 454 273 _c
454 339 440 390 413 428 _c
385 466 348 485 301 485 _c
253 485 215 466 188 428 _c
161 390 148 339 148 273 _c
_cl}_e}_d
/e{{615 0 55 -13 562 560 _sc
562 296 _m
562 252 _l
149 252 _l
153 190 171 142 205 110 _c
238 78 284 62 344 62 _c
378 62 412 66 444 74 _c
476 82 509 95 541 113 _c
541 28 _l
509 14 476 3 442 -3 _c
408 -9 373 -13 339 -13 _c
251 -13 182 12 131 62 _c
80 112 55 181 55 268 _c
55 357 79 428 127 481 _c
175 533 241 560 323 560 _c
397 560 455 536 498 489 _c
}_e{540 441 562 377 562 296 _c
472 322 _m
471 371 457 410 431 440 _c
404 469 368 484 324 484 _c
274 484 234 469 204 441 _c
174 413 156 373 152 322 _c
472 322 _l
_cl}_e}_d
/i{278 0 94 0 184 760 _sc
94 547 _m
184 547 _l
184 0 _l
94 0 _l
94 547 _l
94 760 _m
184 760 _l
184 646 _l
94 646 _l
94 760 _l
_cl}_d
/k{579 0 91 0 576 760 _sc
91 760 _m
181 760 _l
181 311 _l
449 547 _l
564 547 _l
274 291 _l
576 0 _l
459 0 _l
181 267 _l
181 0 _l
91 0 _l
91 760 _l
_cl}_d
/l{278 0 94 0 184 760 _sc
94 760 _m
184 760 _l
184 0 _l
94 0 _l
94 760 _l
_cl}_d
/m{{974 0 91 0 889 560 _sc
520 442 _m
542 482 569 511 600 531 _c
631 550 668 560 711 560 _c
767 560 811 540 842 500 _c
873 460 889 403 889 330 _c
889 0 _l
799 0 _l
799 327 _l
799 379 789 418 771 444 _c
752 469 724 482 686 482 _c
639 482 602 466 575 435 _c
548 404 535 362 535 309 _c
535 0 _l
445 0 _l
445 327 _l
445 379 435 418 417 444 _c
398 469 369 482 331 482 _c
}_e{285 482 248 466 221 435 _c
194 404 181 362 181 309 _c
181 0 _l
91 0 _l
91 547 _l
181 547 _l
181 462 _l
201 495 226 520 255 536 _c
283 552 317 560 357 560 _c
397 560 430 550 458 530 _c
486 510 506 480 520 442 _c
_cl}_e}_d
/r{411 0 91 0 411 560 _sc
411 463 _m
401 469 390 473 378 476 _c
366 478 353 480 339 480 _c
288 480 249 463 222 430 _c
194 397 181 350 181 288 _c
181 0 _l
91 0 _l
91 547 _l
181 547 _l
181 462 _l
199 495 224 520 254 536 _c
284 552 321 560 365 560 _c
371 560 378 559 386 559 _c
393 558 401 557 411 555 _c
411 463 _l
_cl}_d
/s{{521 0 54 -13 472 560 _sc
443 531 _m
443 446 _l
417 458 391 468 364 475 _c
336 481 308 485 279 485 _c
234 485 200 478 178 464 _c
156 450 145 430 145 403 _c
145 382 153 366 169 354 _c
185 342 217 330 265 320 _c
296 313 _l
360 299 405 279 432 255 _c
458 230 472 195 472 151 _c
472 100 452 60 412 31 _c
372 1 316 -13 246 -13 _c
216 -13 186 -10 154 -5 _c
}_e{122 0 89 8 54 20 _c
54 113 _l
87 95 120 82 152 74 _c
184 65 216 61 248 61 _c
290 61 323 68 346 82 _c
368 96 380 117 380 144 _c
380 168 371 187 355 200 _c
339 213 303 226 247 238 _c
216 245 _l
160 257 119 275 95 299 _c
70 323 58 356 58 399 _c
58 450 76 490 112 518 _c
148 546 200 560 268 560 _c
301 560 332 557 362 552 _c
391 547 418 540 443 531 _c
}_e{_cl}_e}_d
/u{634 0 85 -13 543 560 _sc
85 216 _m
85 547 _l
175 547 _l
175 219 _l
175 167 185 129 205 103 _c
225 77 255 64 296 64 _c
344 64 383 79 411 110 _c
439 141 453 183 453 237 _c
453 547 _l
543 547 _l
543 0 _l
453 0 _l
453 84 _l
431 50 405 26 377 10 _c
348 -5 315 -13 277 -13 _c
214 -13 166 6 134 45 _c
101 83 85 140 85 216 _c
311 560 _m
311 560 _l
_cl}_d
/uni2299{{838 0 91 -13 747 643 _sc
367 375 _m
471 375 _l
471 251 _l
367 251 _l
367 375 _l
517 550 _m
486 562 453 569 419 569 _c
384 569 351 562 321 550 _c
291 537 263 518 239 494 _c
214 469 195 442 183 412 _c
171 382 165 349 165 313 _c
165 279 171 247 183 217 _c
195 187 214 159 239 134 _c
263 109 291 90 321 78 _c
351 65 384 59 419 59 _c
453 59 486 65 517 78 _c
}_e{547 90 574 109 599 134 _c
623 159 642 187 654 217 _c
666 247 673 279 673 313 _c
673 349 666 382 654 412 _c
642 442 623 469 599 494 _c
574 518 547 537 517 550 _c
293 618 _m
332 634 374 643 419 643 _c
463 643 505 634 544 618 _c
583 602 618 578 650 546 _c
682 514 707 478 723 439 _c
739 401 747 359 747 313 _c
747 269 739 227 723 188 _c
707 150 682 115 650 83 _c
}_e{618 51 583 27 544 11 _c
505 -5 463 -13 419 -13 _c
374 -13 332 -5 293 11 _c
254 27 219 51 188 83 _c
155 115 131 150 115 188 _c
99 227 91 269 91 313 _c
91 359 99 401 115 439 _c
131 478 155 514 188 546 _c
219 578 254 602 293 618 _c
_cl}_e}_d
end readonly def

/BuildGlyph
 {exch begin
 CharStrings exch
 2 copy known not{pop /.notdef}if
 true 3 1 roll get exec
 end}_d

/BuildChar {
 1 index /Encoding get exch get
 1 index /BuildGlyph get exec
}_d

FontName currentdict end definefont pop
%!PS-Adobe-3.0 Resource-Font
%%Title: DejaVu Sans Oblique
%%Copyright: Copyright (c) 2003 by Bitstream, Inc. All Rights Reserved. Copyright (c) 2006 by Tavmjong Bah. All Rights Reserved. DejaVu changes are in public domain 
%%Creator: Converted from TrueType to type 3 by PPR
25 dict begin
/_d{bind def}bind def
/_m{moveto}_d
/_l{lineto}_d
/_cl{closepath eofill}_d
/_c{curveto}_d
/_sc{7 -1 roll{setcachedevice}{pop pop pop pop pop pop}ifelse}_d
/_e{exec}_d
/FontName /DejaVuSans-Oblique def
/PaintType 0 def
/FontMatrix[.001 0 0 .001 0 0]def
/FontBBox[-1016 -350 1659 1068]def
/FontType 3 def
/Encoding [ /M ] def
/FontInfo 10 dict dup begin
/FamilyName (DejaVu Sans) def
/FullName (DejaVu Sans Oblique) def
/Notice (Copyright (c) 2003 by Bitstream, Inc. All Rights Reserved. Copyright (c) 2006 by Tavmjong Bah. All Rights Reserved. DejaVu changes are in public domain ) def
/Weight (Oblique) def
/Version (Version 2.35) def
/ItalicAngle -11.0 def
/isFixedPitch false def
/UnderlinePosition -130 def
/UnderlineThickness 90 def
end readonly def
/CharStrings 2 dict dup begin
/.notdef 0 def
/M{863 0 27 0 836 729 _sc
169 729 _m
317 729 _l
402 238 _l
684 729 _l
836 729 _l
694 0 _l
598 0 _l
722 639 _l
436 140 _l
340 140 _l
247 641 _l
123 0 _l
27 0 _l
169 729 _l
_cl}_d
end readonly def

/BuildGlyph
 {exch begin
 CharStrings exch
 2 copy known not{pop /.notdef}if
 true 3 1 roll get exec
 end}_d

/BuildChar {
 1 index /Encoding get exch get
 1 index /BuildGlyph get exec
}_d

FontName currentdict end definefont pop
end
%%EndProlog
mpldict begin
-385.2 42.48 translate
1382.4 707.04 0 0 clipbox
gsave
0 0 m
1382.4 0 l
1382.4 707.04 l
0 707.04 l
cl
1.000 setgray
fill
grestore
gsave
156.12 94.681167 m
1219.341 94.681167 l
1219.341 662.6045 l
156.12 662.6045 l
cl
1.000 setgray
fill
grestore
0.800 setlinewidth
1 setlinejoin
0 setlinecap
[] 0 setdash
0.000 setgray
gsave
/o {
gsave
newpath
translate
0.8 setlinewidth
1 setlinejoin
0 setlinecap
0 0 m
0 -3.5 l

gsave
0.000 setgray
fill
grestore
stroke
grestore
} bind def
204.282 94.6812 o
grestore
/DejaVuSans findfont
10.000 scalefont
setfont
gsave
201.102263 80.087417 translate
0.000000 rotate
0.000000 0.000000 m /zero glyphshow
grestore
gsave
/o {
gsave
newpath
translate
0.8 setlinewidth
1 setlinejoin
0 setlinecap
0 0 m
0 -3.5 l

gsave
0.000 setgray
fill
grestore
stroke
grestore
} bind def
370.558 94.6812 o
grestore
gsave
367.378635 80.087417 translate
0.000000 rotate
0.000000 0.000000 m /two glyphshow
grestore
gsave
/o {
gsave
newpath
translate
0.8 setlinewidth
1 setlinejoin
0 setlinecap
0 0 m
0 -3.5 l

gsave
0.000 setgray
fill
grestore
stroke
grestore
} bind def
536.835 94.6812 o
grestore
gsave
533.655006 80.087417 translate
0.000000 rotate
0.000000 0.000000 m /four glyphshow
grestore
gsave
/o {
gsave
newpath
translate
0.8 setlinewidth
1 setlinejoin
0 setlinecap
0 0 m
0 -3.5 l

gsave
0.000 setgray
fill
grestore
stroke
grestore
} bind def
703.111 94.6812 o
grestore
gsave
699.931377 80.087417 translate
0.000000 rotate
0.000000 0.000000 m /six glyphshow
grestore
gsave
/o {
gsave
newpath
translate
0.8 setlinewidth
1 setlinejoin
0 setlinecap
0 0 m
0 -3.5 l

gsave
0.000 setgray
fill
grestore
stroke
grestore
} bind def
869.387 94.6812 o
grestore
gsave
866.207748 80.087417 translate
0.000000 rotate
0.000000 0.000000 m /eight glyphshow
grestore
gsave
/o {
gsave
newpath
translate
0.8 setlinewidth
1 setlinejoin
0 setlinecap
0 0 m
0 -3.5 l

gsave
0.000 setgray
fill
grestore
stroke
grestore
} bind def
1035.66 94.6812 o
grestore
gsave
1029.304432 80.087417 translate
0.000000 rotate
0.000000 0.000000 m /one glyphshow
6.362305 0.000000 m /zero glyphshow
grestore
gsave
/o {
gsave
newpath
translate
0.8 setlinewidth
1 setlinejoin
0 setlinecap
0 0 m
0 -3.5 l

gsave
0.000 setgray
fill
grestore
stroke
grestore
} bind def
1201.94 94.6812 o
grestore
gsave
1195.580803 80.087417 translate
0.000000 rotate
0.000000 0.000000 m /one glyphshow
6.362305 0.000000 m /two glyphshow
grestore
/DejaVuSans findfont
16.000 scalefont
setfont
gsave
639.488312 61.853042 translate
0.000000 rotate
0.000000 0.000000 m /R glyphshow
11.117188 0.000000 m /a glyphshow
20.921875 0.000000 m /d glyphshow
31.078125 0.000000 m /i glyphshow
35.523438 0.000000 m /u glyphshow
45.664062 0.000000 m /s glyphshow
54.000000 0.000000 m /space glyphshow
59.085938 0.000000 m /bracketleft glyphshow
65.328125 0.000000 m /k glyphshow
74.593750 0.000000 m /m glyphshow
90.179688 0.000000 m /bracketright glyphshow
grestore
gsave
/o {
gsave
newpath
translate
0.8 setlinewidth
1 setlinejoin
0 setlinecap
0 0 m
-3.5 0 l

gsave
0.000 setgray
fill
grestore
stroke
grestore
} bind def
156.12 120.496 o
grestore
0.839 0.153 0.157 setrgbcolor
/DejaVuSans findfont
10.000 scalefont
setfont
gsave
133.213750 116.698989 translate
0.000000 rotate
0.000000 0.000000 m /zero glyphshow
6.362305 0.000000 m /period glyphshow
9.541016 0.000000 m /zero glyphshow
grestore
0.000 setgray
gsave
/o {
gsave
newpath
translate
0.8 setlinewidth
1 setlinejoin
0 setlinecap
0 0 m
-3.5 0 l

gsave
0.000 setgray
fill
grestore
stroke
grestore
} bind def
156.12 195.186 o
grestore
0.839 0.153 0.157 setrgbcolor
gsave
133.213750 191.388893 translate
0.000000 rotate
0.000000 0.000000 m /zero glyphshow
6.362305 0.000000 m /period glyphshow
9.541016 0.000000 m /two glyphshow
grestore
0.000 setgray
gsave
/o {
gsave
newpath
translate
0.8 setlinewidth
1 setlinejoin
0 setlinecap
0 0 m
-3.5 0 l

gsave
0.000 setgray
fill
grestore
stroke
grestore
} bind def
156.12 269.876 o
grestore
0.839 0.153 0.157 setrgbcolor
gsave
133.213750 266.078798 translate
0.000000 rotate
0.000000 0.000000 m /zero glyphshow
6.362305 0.000000 m /period glyphshow
9.541016 0.000000 m /four glyphshow
grestore
0.000 setgray
gsave
/o {
gsave
newpath
translate
0.8 setlinewidth
1 setlinejoin
0 setlinecap
0 0 m
-3.5 0 l

gsave
0.000 setgray
fill
grestore
stroke
grestore
} bind def
156.12 344.566 o
grestore
0.839 0.153 0.157 setrgbcolor
gsave
133.213750 340.768702 translate
0.000000 rotate
0.000000 0.000000 m /zero glyphshow
6.362305 0.000000 m /period glyphshow
9.541016 0.000000 m /six glyphshow
grestore
0.000 setgray
gsave
/o {
gsave
newpath
translate
0.8 setlinewidth
1 setlinejoin
0 setlinecap
0 0 m
-3.5 0 l

gsave
0.000 setgray
fill
grestore
stroke
grestore
} bind def
156.12 419.255 o
grestore
0.839 0.153 0.157 setrgbcolor
gsave
133.213750 415.458607 translate
0.000000 rotate
0.000000 0.000000 m /zero glyphshow
6.362305 0.000000 m /period glyphshow
9.541016 0.000000 m /eight glyphshow
grestore
0.000 setgray
gsave
/o {
gsave
newpath
translate
0.8 setlinewidth
1 setlinejoin
0 setlinecap
0 0 m
-3.5 0 l

gsave
0.000 setgray
fill
grestore
stroke
grestore
} bind def
156.12 493.945 o
grestore
0.839 0.153 0.157 setrgbcolor
gsave
133.213750 490.148512 translate
0.000000 rotate
0.000000 0.000000 m /one glyphshow
6.362305 0.000000 m /period glyphshow
9.541016 0.000000 m /zero glyphshow
grestore
0.000 setgray
gsave
/o {
gsave
newpath
translate
0.8 setlinewidth
1 setlinejoin
0 setlinecap
0 0 m
-3.5 0 l

gsave
0.000 setgray
fill
grestore
stroke
grestore
} bind def
156.12 568.635 o
grestore
0.839 0.153 0.157 setrgbcolor
gsave
133.213750 564.838416 translate
0.000000 rotate
0.000000 0.000000 m /one glyphshow
6.362305 0.000000 m /period glyphshow
9.541016 0.000000 m /two glyphshow
grestore
0.000 setgray
gsave
/o {
gsave
newpath
translate
0.8 setlinewidth
1 setlinejoin
0 setlinecap
0 0 m
-3.5 0 l

gsave
0.000 setgray
fill
grestore
stroke
grestore
} bind def
156.12 643.325 o
grestore
0.839 0.153 0.157 setrgbcolor
gsave
133.213750 639.528321 translate
0.000000 rotate
0.000000 0.000000 m /one glyphshow
6.362305 0.000000 m /period glyphshow
9.541016 0.000000 m /four glyphshow
grestore
/DejaVuSans findfont
16.000 scalefont
setfont
gsave
125.885625 305.572521 translate
90.000000 rotate
0.000000 0.000000 m /P glyphshow
9.648438 0.000000 m /r glyphshow
16.226562 0.000000 m /e glyphshow
26.070312 0.000000 m /s glyphshow
34.406250 0.000000 m /s glyphshow
42.742188 0.000000 m /u glyphshow
52.882812 0.000000 m /r glyphshow
59.460938 0.000000 m /e glyphshow
69.304688 0.000000 m /space glyphshow
74.390625 0.000000 m /bracketleft glyphshow
80.632812 0.000000 m /P glyphshow
90.281250 0.000000 m /a glyphshow
100.085938 0.000000 m /s glyphshow
108.421875 0.000000 m /c glyphshow
117.218750 0.000000 m /a glyphshow
127.023438 0.000000 m /l glyphshow
131.468750 0.000000 m /s glyphshow
139.804688 0.000000 m /bracketright glyphshow
grestore
/DejaVuSans findfont
10.000 scalefont
setfont
gsave
156.120000 665.604500 translate
0.000000 rotate
0.000000 0.000000 m /one glyphshow
6.362305 0.000000 m /e glyphshow
12.514648 0.000000 m /three glyphshow
18.876953 0.000000 m /four glyphshow
grestore
1.500 setlinewidth
2 setlinecap
gsave
1063 567.9 156.1 94.68 clipbox
204.448227 636.789803 m
213.842842 636.674939 l
223.237457 636.338286 l
232.632072 635.780099 l
242.026687 635.0008 l
251.50444 633.991149 l
260.982193 632.757834 l
270.543085 631.288051 l
280.103976 629.592785 l
289.748006 627.655697 l
299.392035 625.492091 l
309.119203 623.082137 l
318.929509 620.42196 l
328.822953 617.507932 l
338.799535 614.336689 l
348.859256 610.905148 l
359.002114 607.210525 l
369.311249 603.2172 l
379.703522 598.952401 l
390.262072 594.377441 l
400.90376 589.5242 l
411.711724 584.351098 l
422.685964 578.852177 l
433.909619 572.977645 l
445.299551 566.763579 l
456.938897 560.157988 l
468.827657 553.152396 l
480.965832 545.739376 l
493.353422 537.912662 l
506.073565 529.61219 l
519.209398 520.772663 l
532.760922 511.382526 l
546.728137 501.432652 l
561.27732 490.793592 l
576.491608 479.390316 l
592.537278 467.082288 l
609.580606 453.724316 l
627.954145 439.035752 l
648.156724 422.593987 l
671.352277 403.420203 l
700.783195 378.785177 l
779.764471 312.522099 l
802.378058 293.93532 l
821.915532 278.159672 l
839.457689 264.275649 l
855.669635 251.723545 l
870.883923 240.222476 l
885.266829 229.626943 l
898.901491 219.855924 l
911.954186 210.772651 l
924.508053 202.305339 l
936.563089 194.439498 l
948.285574 187.055095 l
959.592367 180.193661 l
970.566607 173.792215 l
981.208295 167.839695 l
991.600568 162.280391 l
1001.660289 157.148635 l
1011.470595 152.391152 l
1021.031486 147.999642 l
1030.342963 143.965433 l
1039.405025 140.279627 l
1048.217673 136.933302 l
1056.780906 133.91779 l
1065.094724 131.224909 l
1073.07599 128.870531 l
1080.807841 126.819941 l
1088.290278 125.065487 l
1095.357024 123.632564 l
1102.008079 122.506674 l
1107.661475 121.768833 l
1113.647425 121.211267 l
1120.132203 120.83586 l
1128.196607 120.604157 l
1140.251644 120.503767 l
1171.012773 120.495864 l
1171.012773 120.495864 l
stroke
grestore
0.800 setlinewidth
0 setlinejoin
[] 0 setdash
0.000 setgray
gsave
156.12 94.681167 m
156.12 662.6045 l
stroke
grestore
gsave
1219.341 94.681167 m
1219.341 662.6045 l
stroke
grestore
gsave
156.12 94.681167 m
1219.341 94.681167 l
stroke
grestore
gsave
156.12 662.6045 m
1219.341 662.6045 l
stroke
grestore
1 setlinejoin
0 setlinecap
[] 0 setdash
gsave
/o {
gsave
newpath
translate
0.8 setlinewidth
1 setlinejoin
0 setlinecap
0 0 m
3.5 0 l

gsave
0.000 setgray
fill
grestore
stroke
grestore
} bind def
1219.34 120.496 o
grestore
0.122 0.467 0.706 setrgbcolor
gsave
1226.341000 116.698989 translate
0.000000 rotate
0.000000 0.000000 m /zero glyphshow
6.362305 0.000000 m /period glyphshow
9.541016 0.000000 m /zero glyphshow
grestore
0.000 setgray
gsave
/o {
gsave
newpath
translate
0.8 setlinewidth
1 setlinejoin
0 setlinecap
0 0 m
3.5 0 l

gsave
0.000 setgray
fill
grestore
stroke
grestore
} bind def
1219.34 193.775 o
grestore
0.122 0.467 0.706 setrgbcolor
gsave
1226.341000 189.978273 translate
0.000000 rotate
0.000000 0.000000 m /zero glyphshow
6.362305 0.000000 m /period glyphshow
9.541016 0.000000 m /two glyphshow
grestore
0.000 setgray
gsave
/o {
gsave
newpath
translate
0.8 setlinewidth
1 setlinejoin
0 setlinecap
0 0 m
3.5 0 l

gsave
0.000 setgray
fill
grestore
stroke
grestore
} bind def
1219.34 267.054 o
grestore
0.122 0.467 0.706 setrgbcolor
gsave
1226.341000 263.257557 translate
0.000000 rotate
0.000000 0.000000 m /zero glyphshow
6.362305 0.000000 m /period glyphshow
9.541016 0.000000 m /four glyphshow
grestore
0.000 setgray
gsave
/o {
gsave
newpath
translate
0.8 setlinewidth
1 setlinejoin
0 setlinecap
0 0 m
3.5 0 l

gsave
0.000 setgray
fill
grestore
stroke
grestore
} bind def
1219.34 340.334 o
grestore
0.122 0.467 0.706 setrgbcolor
gsave
1226.341000 336.536840 translate
0.000000 rotate
0.000000 0.000000 m /zero glyphshow
6.362305 0.000000 m /period glyphshow
9.541016 0.000000 m /six glyphshow
grestore
0.000 setgray
gsave
/o {
gsave
newpath
translate
0.8 setlinewidth
1 setlinejoin
0 setlinecap
0 0 m
3.5 0 l

gsave
0.000 setgray
fill
grestore
stroke
grestore
} bind def
1219.34 413.613 o
grestore
0.122 0.467 0.706 setrgbcolor
gsave
1226.341000 409.816124 translate
0.000000 rotate
0.000000 0.000000 m /zero glyphshow
6.362305 0.000000 m /period glyphshow
9.541016 0.000000 m /eight glyphshow
grestore
0.000 setgray
gsave
/o {
gsave
newpath
translate
0.8 setlinewidth
1 setlinejoin
0 setlinecap
0 0 m
3.5 0 l

gsave
0.000 setgray
fill
grestore
stroke
grestore
} bind def
1219.34 486.892 o
grestore
0.122 0.467 0.706 setrgbcolor
gsave
1226.341000 483.095408 translate
0.000000 rotate
0.000000 0.000000 m /one glyphshow
6.362305 0.000000 m /period glyphshow
9.541016 0.000000 m /zero glyphshow
grestore
0.000 setgray
gsave
/o {
gsave
newpath
translate
0.8 setlinewidth
1 setlinejoin
0 setlinecap
0 0 m
3.5 0 l

gsave
0.000 setgray
fill
grestore
stroke
grestore
} bind def
1219.34 560.172 o
grestore
0.122 0.467 0.706 setrgbcolor
gsave
1226.341000 556.374692 translate
0.000000 rotate
0.000000 0.000000 m /one glyphshow
6.362305 0.000000 m /period glyphshow
9.541016 0.000000 m /two glyphshow
grestore
0.000 setgray
gsave
/o {
gsave
newpath
translate
0.8 setlinewidth
1 setlinejoin
0 setlinecap
0 0 m
3.5 0 l

gsave
0.000 setgray
fill
grestore
stroke
grestore
} bind def
1219.34 633.451 o
grestore
0.122 0.467 0.706 setrgbcolor
gsave
1226.341000 629.653976 translate
0.000000 rotate
0.000000 0.000000 m /one glyphshow
6.362305 0.000000 m /period glyphshow
9.541016 0.000000 m /four glyphshow
grestore
gsave
1258.919125 335.642833 translate
90.000000 rotate
/DejaVuSans findfont
16.0 scalefont
setfont
0.000000 0.843750 moveto
/M glyphshow

13.804688 0.843750 moveto
/a glyphshow

23.609375 0.843750 moveto
/s glyphshow

31.945312 0.843750 moveto
/s glyphshow

40.281250 0.843750 moveto
/space glyphshow

45.367188 0.843750 moveto
/bracketleft glyphshow

/DejaVuSans-Oblique findfont
16.0 scalefont
setfont
51.609375 0.843750 moveto
/M glyphshow

/DejaVuSans findfont
11.2 scalefont
setfont
67.596094 -1.781250 moveto
/uni2299 glyphshow

/DejaVuSans findfont
16.0 scalefont
setfont
79.600000 0.843750 moveto
/bracketright glyphshow


grestore
1.500 setlinewidth
2 setlinecap
gsave
1063 567.9 156.1 94.68 clipbox
204.448227 120.495864 m
247.929498 120.606495 l
271.20819 120.894102 l
290.745664 121.35311 l
308.287821 121.98502 l
324.416629 122.786016 l
339.547779 123.757622 l
353.930685 124.902167 l
367.731624 126.222727 l
381.033733 127.718764 l
393.920152 129.391994 l
406.39088 131.234258 l
418.612193 133.264297 l
430.500954 135.462974 l
442.223438 137.856648 l
453.696508 140.425079 l
465.003301 143.182564 l
476.226956 146.149159 l
487.284335 149.301886 l
498.258575 152.662752 l
509.149677 156.23204 l
519.957642 160.009459 l
530.682467 163.994162 l
541.324155 168.184765 l
551.965843 172.61492 l
562.524393 177.250459 l
573.082942 182.12789 l
583.641492 187.24965 l
594.200041 192.61777 l
604.841729 198.27907 l
615.483417 204.193471 l
626.125104 210.361724 l
636.84993 216.835286 l
647.657895 223.619946 l
658.548997 230.721004 l
669.523237 238.14321 l
680.580616 245.890713 l
691.804271 254.028276 l
703.111064 262.501381 l
714.584134 271.377228 l
726.22348 280.662751 l
738.11224 290.433037 l
750.250416 300.698424 l
762.638005 311.467525 l
775.358148 322.822056 l
788.493981 334.848796 l
802.045505 347.55971 l
816.178997 361.123688 l
831.060732 375.717632 l
846.940125 391.606859 l
864.14973 409.146883 l
883.687203 429.38573 l
908.379245 455.305202 l
965.245763 515.118269 l
982.37223 532.728927 l
996.588859 547.035872 l
1008.976449 559.194206 l
1020.116966 569.822173 l
1030.176686 579.118548 l
1039.405025 587.35115 l
1047.968258 594.696953 l
1055.866386 601.184428 l
1063.182546 606.912652 l
1069.999877 611.973745 l
1076.318379 616.394657 l
1082.221191 620.259938 l
1087.791449 623.647056 l
1092.946016 626.529308 l
1097.768031 628.973497 l
1102.174355 630.961403 l
1105.832435 632.365314 l
1109.573654 633.564395 l
1113.314872 634.526756 l
1117.139228 635.279102 l
1121.296138 635.865489 l
1126.035014 636.302402 l
1131.771549 636.599199 l
1139.337124 636.755103 l
1154.967103 636.788481 l
1171.012773 636.789803 l
1171.012773 636.789803 l
stroke
grestore
0.800 setlinewidth
0 setlinejoin
[] 0 setdash
0.000 setgray
gsave
156.12 94.681167 m
156.12 662.6045 l
stroke
grestore
gsave
1219.341 94.681167 m
1219.341 662.6045 l
stroke
grestore
gsave
156.12 94.681167 m
1219.341 94.681167 l
stroke
grestore
gsave
156.12 662.6045 m
1219.341 662.6045 l
stroke
grestore

end
showpage
